Isos,Libs,Reads,Est16S,Est16Sgc,Est23S,Est23Sgc
Ecoli,mp,1,7.05263157894737,3.80241587575496,5.5,5.66997411561691
Ecoli,mp,1,6.72093023255814,6.16477272727272,8.7906976744186,4.75233100233099
Ecoli,mp,1,4.93478260869565,5.59219858156029,5.89130434782609,4.77756286266924
Ecoli,mp,1,4.3,7.35428571428573,5.82,7.32642857142859
Ecoli,mp,1,8.63636363636364,7.51833333333335,10.3939393939394,6.46578947368421
Ecoli,mp,1,5.54,7.8125,6.86,9.31165540540538
Ecoli,mp,1,8.16216216216216,6.70761670761668,8.54054054054054,7.06970128022758
Ecoli,mp,1,6.74468085106383,9.9112554112554,6.78723404255319,14.0238095238095
Ecoli,mp,1,4.89090909090909,5.13157894736842,5.83636363636364,5.11502546689304
Ecoli,mp,1,6.45833333333333,6.96883656509694,5.70833333333333,5.53834586466166
Ecoli,mp,1,6.76923076923077,6.75675675675676,7.12820512820513,7.13513513513514
Ecoli,mp,1,6.6734693877551,5.43636363636365,6.97959183673469,6.09090909090909
Ecoli,mp,1,5.42307692307692,12.5325443786982,6.46153846153846,10.7027027027027
Ecoli,mp,1,7.02272727272727,4.53030303030304,7.15909090909091,6.5844155844156
Ecoli,mp,1,15.36,11.8315018315018,10.16,10.9702380952381
Ecoli,mp,1,7.64864864864865,5.52631578947369,9.51351351351351,5.86538461538462
Ecoli,mp,1,9.28571428571429,4.51777777777779,6.42857142857143,5.84777777777779
Ecoli,mp,1,7.25,6.3,7.1875,8.75192307692308
Ecoli,mp,1,5.71153846153846,6.71959459459459,6.40384615384615,6.08350840336136
Ecoli,mp,1,6.29545454545455,7.18813775510204,7.20454545454545,6.97959183673469
Ecoli,mp,1,9.57142857142857,4.86699507389164,4.37142857142857,5.5955265610438
Ecoli,mp,1,8,5.83361344537817,4.92307692307692,6.99159663865548
Ecoli,mp,1,10.4545454545455,9.46153846153845,14.1363636363636,9.60526315789472
Ecoli,mp,1,4.93478260869565,6.65526315789472,7.56521739130435,9.84857142857143
Ecoli,mp,1,4.87234042553191,8.42766295707474,7.31914893617021,9.63593004769478
Ecoli,mp,1,7.075,10.3324675324675,6.9,7.87257187257185
Ecoli,mp,1,5.65217391304348,6.74263038548754,6.17391304347826,7.81475667189953
Ecoli,mp,1,6.53488372093023,6.67567567567569,7.51162790697674,10.027027027027
Ecoli,mp,1,5.36538461538461,7.1745283018868,6.17307692307692,5.03475670307845
Ecoli,mp,1,11.6551724137931,6.56857142857144,8.86206896551724,9.125
Ecoli,mp,1,6.45833333333333,7.08864795918367,5.8125,7.06122448979592
Ecoli,mp,1,4.08196721311475,12.2173913043478,6.16393442622951,14.6224256292906
Ecoli,mp,1,6.94871794871795,6.14035087719298,6.20512820512821,8.18713450292397
Ecoli,mp,1,10.0769230769231,8.60482654600299,11.1538461538462,10.0993640699523
Ecoli,mp,1,10.2962962962963,7.66666666666667,9.81481481481481,13.9222222222221
Ecoli,mp,1,6.475,7.52364864864863,7.9,5.525
Ecoli,mp,1,8.04761904761905,3.67676767676767,8.04761904761905,5.99521531100477
Ecoli,mp,1,4.11320754716981,8.83333333333333,5.71698113207547,13.2819047619048
Ecoli,mp,1,7.34042553191489,7.568665377176,6.97872340425532,6.8936170212766
Ecoli,mp,1,4.63461538461539,7.80645161290323,4.75,7.90322580645159
Ecoli,mp,1,10.8666666666667,3.83385744234801,9.26666666666667,6.06504468718966
Ecoli,mp,1,9.25,6.33333333333333,8.77777777777778,6.57962962962964
Ecoli,mp,1,6.09523809523809,7.82549019607845,6.95238095238095,7.46666666666667
Ecoli,mp,1,6.05769230769231,4.58003766478344,4.61538461538461,4.50847457627119
Ecoli,mp,1,4.71428571428571,10.1467727674624,6.36734693877551,12.448275862069
Ecoli,mp,1,7.92682926829268,7.8599290780142,7,7.95212765957448
Ecoli,mp,1,7.5,3.88202764976959,6.23913043478261,5.06451612903226
Ecoli,mp,1,5.08928571428571,6.92105263157895,5.26785714285714,9.6578947368421
Ecoli,mp,1,4.56,6.58176100628932,6.42,5.50835579514826
Ecoli,mp,1,6.04,6.67567567567567,6.38,8.99735449735451
Ecoli,mp,1,6.94871794871795,8.61844197138314,7.28205128205128,9.7326203208556
Ecoli,mp,1,6.89189189189189,11.0353535353536,7.97297297297297,8.57239057239059
Ecoli,mp,1,7.52380952380952,6.875,7.09523809523809,5.81632653061226
Ecoli,mp,1,8.19512195121951,8.97297297297297,7.78048780487805,9.51422475106686
Ecoli,mp,1,5.98148148148148,8.93820598006647,6.55555555555556,8.95994832041345
Ecoli,mp,1,7.41666666666667,9.11168164313222,10.0555555555556,8.3607188703466
Ecoli,mp,1,11.2424242424242,5.71720116618077,6.51515151515152,6.55102040816327
Ecoli,mp,1,9.38709677419355,15.5178947368421,9.32258064516129,12.6966666666667
Ecoli,mp,1,6.55263157894737,5.96122209165687,8.42105263157895,7.01057579318449
Ecoli,mp,1,6.3,9.87380952380954,8,9.84285714285716
Ecoli,mp,1,5.95,6.58536585365852,4.15,8.31707317073171
Ecoli,mp,1,7.46666666666667,7.41764705882355,7.86666666666667,5.17592592592593
Ecoli,mp,1,9.4,5.75868725868726,8.28571428571429,5.92752100840338
Ecoli,mp,1,5.25,6.2719298245614,6,6.85185185185185
Ecoli,mp,1,12.8076923076923,8.26108374384238,6.30769230769231,10.1054187192118
Ecoli,mp,1,5.13207547169811,6.21544715447156,6.69811320754717,6.63480553724457
Ecoli,mp,1,5.39583333333333,8.89189189189187,7.60416666666667,9.28205128205126
Ecoli,mp,1,10.2285714285714,9.94101633393827,6.97142857142857,10.4706430568499
Ecoli,mp,1,5.95833333333333,5.1429980276134,4.35416666666667,5
Ecoli,mp,1,6.26829268292683,7.89677419354839,6.75609756097561,10.5511520737327
Ecoli,mp,1,7.1875,9.34375000000002,9.78125,7.87905405405405
Ecoli,mp,1,5.0377358490566,5.85434173669469,5.94339622641509,5.61844197138315
Ecoli,mp,1,4.15384615384615,6.0844017094017,4.61538461538461,5.97297297297296
Ecoli,mp,1,9,5.58404558404558,8.83333333333333,8.00788954635106
Ecoli,mp,1,7.58536585365854,5.29285714285716,7.92682926829268,5.83928571428571
Ecoli,mp,1,5.34883720930233,5.11257309941521,7.74418604651163,5.21052631578947
Ecoli,mp,1,6.47222222222222,6.41126070991431,5.94444444444444,7.84584717607974
Ecoli,mp,1,6.54347826086957,11.1363636363636,7.04347826086957,14.4813519813519
Ecoli,mp,1,12.0322580645161,6.63492063492065,10.0645161290323,4.83333333333333
Ecoli,mp,1,7.46511627906977,5.16304347826088,6.62790697674419,6.52396878483835
Ecoli,mp,1,4.89473684210526,7.10183150183152,6.05263157894737,7.63967611336033
Ecoli,mp,1,7.11764705882353,7.78048780487805,8.73529411764706,8.12070043777359
Ecoli,mp,1,6.69767441860465,5.80877192982457,8.88372093023256,7.31296296296299
Ecoli,mp,1,4.49090909090909,8.12895752895754,6.58181818181818,8.50989010989012
Ecoli,mp,1,7.31818181818182,7.49571428571431,5.11363636363636,6.78333333333335
Ecoli,mp,1,7.48648648648649,10.0848896434635,7.21621621621622,10.1265508684864
Ecoli,mp,1,6.15555555555556,6.16995614035086,5.02222222222222,5.89035087719297
Ecoli,mp,1,9.37037037037037,6.01293800539085,11.5555555555556,5.0515043345232
Ecoli,mp,1,5.37777777777778,9.04537815126053,6.71111111111111,9.44814241486068
Ecoli,mp,1,6.57446808510638,7.44736842105263,3.36170212765957,8.7027027027027
Ecoli,mp,1,6.67567567567568,7.44230769230768,6.72972972972973,7.0625
Ecoli,mp,1,5.07547169811321,7.125,6.24528301886792,8.50320512820511
Ecoli,mp,1,7.21052631578947,7.1809523809524,8.44736842105263,6.42592592592593
Ecoli,mp,1,7.06818181818182,10.6944444444444,6.09090909090909,12.4652777777778
Ecoli,mp,1,5.60416666666667,6.37962962962964,6.20833333333333,4.74603174603176
Ecoli,mp,1,6.09803921568627,6.77368421052631,5.66666666666667,7.92046332046332
Ecoli,mp,1,4.46478873239437,6.17400419287213,3.54929577464789,6.07442348008387
Ecoli,mp,1,5.10204081632653,5.3695652173913,6.10204081632653,8.18181818181816
Ecoli,mp,1,4.71186440677966,7.3557142857143,3.96610169491525,4.01111111111112
Ecoli,mp,1,10.25,5.49966777408641,9.32142857142857,7.72997416020676
Ecoli,mp,1,5.04878048780488,5.92000000000002,7.1219512195122,4.35777777777779
Ecoli,mp,1,5.73170731707317,7.14829931972791,6.02439024390244,6.97985347985348
Ecoli,mp,1,18.0526315789474,7.77449324324322,19.9473684210526,10.3262867647059
Ecoli,mp,1,4.28125,4.40098126672614,4.078125,6.11864406779661
Ecoli,mp,1,8.68421052631579,5.48544973544974,8.39473684210526,5.15873015873016
Ecoli,mp,1,5.46666666666667,9.59429824561401,8.15555555555556,7.80478395061728
Ecoli,mp,1,6.16216216216216,7.1023751023751,8.18918918918919,6.8133971291866
Ecoli,mp,1,10.4166666666667,8.47460317460319,9.33333333333333,10.0816326530613
Ecoli,mp,1,6.64444444444444,5.99999999999998,7.2,6.05962732919255
Ecoli,mp,1,6.925,4.32030075187971,7.95,6.54623044096728
Ecoli,mp,1,6.5625,7.81242236024847,6.89583333333333,5.89734299516909
Ecoli,mp,1,7.53658536585366,5.24482758620691,7.39024390243902,4.84845735027223
Ecoli,mp,1,4.79166666666667,8.71794871794872,7.5625,7.68571428571431
Ecoli,mp,1,5.34883720930233,5.26518218623481,5.58139534883721,5.34319526627218
Ecoli,mp,1,6.52272727272727,5.95492662473796,8.70454545454546,4.92197858235594
Ecoli,mp,1,7.48275862068965,7.25833333333335,11.6896551724138,9.97016129032254
Ecoli,mp,1,5.04081632653061,4.88372093023255,7.71428571428571,5.11329755515801
Ecoli,mp,1,9.85294117647059,6.91032776747062,9.58823529411765,6.1055393586006
Ecoli,mp,1,10.4814814814815,6.34340222575517,12.4444444444444,6.39542483660132
Ecoli,mp,1,4.75384615384615,5.94642857142859,5.23076923076923,5.79113247863248
Ecoli,mp,1,6.75609756097561,10.277027027027,8.39024390243902,9.01801801801803
Ecoli,mp,1,5.73333333333333,6.48148148148148,7.64444444444444,7.44178921568627
Ecoli,mp,1,6,7.31981981981983,6.20454545454545,10.804054054054
Ecoli,mp,1,5.19047619047619,7.02702702702704,6.73809523809524,5.11574074074076
Ecoli,mp,1,6.69047619047619,6.74193548387097,6.90476190476191,9.19864176570457
Ecoli,mp,1,5.74545454545455,7.1875,6.54545454545455,6.29605263157894
Ecoli,mp,1,8.89189189189189,9.71428571428571,8.48648648648649,9.65714285714287
Ecoli,mp,1,4.5,5.76428571428573,4.859375,6.01923076923077
Ecoli,mp,1,6.46551724137931,7.1893274853801,5.20689655172414,8.85233918128653
Ecoli,mp,1,8.19354838709677,5.86363636363636,9.06451612903226,6.11363636363636
Ecoli,mp,1,4.56,7.17647058823529,4.86,6.15238095238097
Ecoli,mp,1,6.11764705882353,5.88421052631579,9.61764705882353,7.77719298245614
Ecoli,mp,1,5.66,12.4876847290641,5.62,8.44827586206897
Ecoli,mp,1,4.6734693877551,8.97033618984837,5.85714285714286,7.00187617260787
Ecoli,mp,1,7.35416666666667,12.5462304409672,7.14583333333333,11.7569659442724
Ecoli,mp,1,5.85106382978723,5.79428571428573,7.51063829787234,5.20702702702703
Ecoli,mp,1,6.52272727272727,8.03423423423423,7.40909090909091,7.4
Ecoli,mp,1,5.8780487804878,6.78676470588237,7.41463414634146,7.54166666666667
Ecoli,mp,1,8.8125,7.33896396396396,10.78125,6.77314814814816
Ecoli,mp,1,6.95,6.8095238095238,6.2,9.81190476190473
Ecoli,mp,1,11.5,12.32,9.88461538461539,14.76
Ecoli,mp,1,5.51063829787234,7.65329768270947,6.95744680851064,8.37383900928796
Ecoli,mp,1,17.3333333333333,6.91489361702128,17.952380952381,4.96453900709219
Ecoli,mp,1,6.2962962962963,10.6571428571429,5.88888888888889,11.4493506493506
Ecoli,mp,1,9.62857142857143,5.42857142857144,7.77142857142857,5.80524781341109
Ecoli,mp,1,3.98275862068966,7.08631578947367,5.89655172413793,5.26736842105262
Ecoli,mp,1,6.52631578947368,4.91519607843139,4.42105263157895,5.42350427350428
Ecoli,mp,1,7.81081081081081,7.35128518971848,7.94594594594595,7.91085271317831
Ecoli,mp,1,4.86274509803922,6.84878048780488,5.90196078431373,6.47247386759582
Ecoli,mp,1,6.18421052631579,8.62719298245612,6.07894736842105,10.6794871794872
Ecoli,mp,1,7.35714285714286,10.4617996604414,8.78571428571429,9.48648648648648
Ecoli,mp,1,5,12.6296296296297,5.97872340425532,9.63809523809527
Ecoli,mp,1,6.03571428571429,5.78,5.75,6.64
Ecoli,mp,1,5.37209302325581,7.13312693498451,7.18604651162791,7.72655007949124
Ecoli,mp,1,8.625,7.10435301132976,6.15,7.1780905752754
Ecoli,mp,1,4.72916666666667,6.26785714285716,7.875,6.41447368421053
Ecoli,mp,1,5.75,5.16268221574345,7.22727272727273,6.08477237048666
Ecoli,mp,1,6.84090909090909,4.72470978441129,7.52272727272727,4.81029065200314
Ecoli,mp,1,6.97560975609756,13.375,7.07317073170732,11.375
Ecoli,mp,1,8.19047619047619,7.20833333333335,8.14285714285714,5.80769230769231
Ecoli,mp,1,8.04255319148936,7.41595925297114,8.27659574468085,10.1344086021506
Ecoli,mp,1,6.53488372093023,7.64069952305247,8.48837209302326,9.45530145530144
Ecoli,mp,1,5.02325581395349,6.47821350762528,7.44186046511628,6.23529411764706
Ecoli,mp,1,4.63157894736842,6.62747252747255,5.15789473684211,4.81224696356275
Ecoli,mp,1,7,5.42677345537756,5.87755102040816,7.09954233409609
Ecoli,mp,1,11.7741935483871,5.03376623376625,9.80645161290323,5.54545454545455
Ecoli,mp,1,10.4166666666667,6.14141414141413,13.7083333333333,6.35403050108934
Ecoli,mp,1,5.41176470588235,5.63154269972451,6.23529411764706,6.46298701298703
Ecoli,mp,1,5.41463414634146,7.03159252095421,8.02439024390244,6.96563011456629
Ecoli,mp,1,10.6538461538462,6.31418918918917,11.6153846153846,7.53846153846152
Ecoli,mp,1,7.36363636363636,18.9985775248933,7.90909090909091,16.1781376518218
Ecoli,mp,1,8.11764705882353,5.56151603498544,10.7352941176471,6.95918367346939
Ecoli,mp,1,6.30232558139535,6.31944444444446,6.67441860465116,6.90625
Ecoli,mp,1,9.02439024390244,6.2322206095791,9.4390243902439,6.22641509433962
Ecoli,mp,1,7.18421052631579,7.9375,8.28947368421053,7.08333333333333
Ecoli,mp,1,5.17021276595745,5.01276595744682,8.06382978723404,6.63829787234042
Ecoli,mp,1,5.75675675675676,9.51422475106686,7.81081081081081,9.54671814671817
Ecoli,mp,1,7.72727272727273,9.25225225225227,6.45454545454545,8.34208494208496
Ecoli,mp,1,4.10294117647059,7.1512605042017,3.47058823529412,9.5825163398693
Ecoli,mp,1,13.6666666666667,6.10606060606062,13.4074074074074,7.47420147420147
Ecoli,mp,1,7.47727272727273,5.79664570230608,6.63636363636364,5.50314465408805
Ecoli,mp,1,4.49152542372881,11.1041666666667,4.96610169491525,9.65118243243243
Ecoli,mp,1,8.66666666666667,7.10810810810811,11.8888888888889,6.66666666666667
Ecoli,mp,1,7.65625,12.9655870445344,9.375,12.9437869822485
Ecoli,mp,1,5.76363636363636,6.46060606060605,6.49090909090909,6.45185185185186
Ecoli,mp,1,6.69387755102041,6.42925278219395,4.24489795918367,6.18124006359299
Ecoli,mp,1,8.22222222222222,4.07017543859649,9.33333333333333,6.21584263689526
Ecoli,mp,1,6.2,4.52355072463769,9.175,6.75543478260872
Ecoli,mp,1,8.19565217391304,9.46868820039552,3.6304347826087,8.90243902439024
Ecoli,mp,1,7.88571428571429,9.27027027027027,7.91428571428571,7.81011781011779
Ecoli,mp,1,5.15384615384615,6.27311522048365,6.48076923076923,6.19722425127831
Ecoli,mp,1,6.04761904761905,20.9444444444444,6.33333333333333,16.3640350877193
Ecoli,mp,1,5.51219512195122,6.63350449293967,5.19512195121951,10.3682926829268
Ecoli,mp,1,6.78571428571429,4.94547325102882,7.11904761904762,5.62962962962963
Ecoli,mp,1,7.30232558139535,5.78608395629672,6.30232558139535,7.22788353863382
Ecoli,mp,1,4.66666666666667,6.78766140602584,5.80392156862745,7.13143631436316
Ecoli,mp,1,11.1071428571429,6.24447174447173,10.8571428571429,6.14114832535884
Ecoli,mp,1,5.30612244897959,7.26118326118325,6.83673469387755,5.78911564625852
Ecoli,mp,1,6.57142857142857,6.78723404255319,5.89795918367347,7.70828667413214
Ecoli,mp,1,11.8965517241379,6.79487179487179,9,7.25033738191631
Ecoli,mp,1,4.82456140350877,13.76,6.12280701754386,10.5547368421053
Ecoli,mp,1,7.10810810810811,4.21212121212121,7.10810810810811,3.87878787878788
Ecoli,mp,1,7.33333333333333,7.5747508305648,8.33333333333333,6.11439346323067
Ecoli,mp,1,5.34146341463415,9.24324324324327,7.14634146341463,10.7516891891892
Ecoli,mp,1,5.70212765957447,5.82720953326712,4.70212765957447,5.71262699564585
Ecoli,mp,1,9.03333333333333,5.69172113289761,8.56666666666667,7.23529411764706
Ecoli,mp,1,11.64,6.37712130735386,14.48,6.86046511627907
Ecoli,mp,1,6.63414634146341,5.73479729729728,8,7.75
Ecoli,mp,1,8.96875,5.33641975308642,10.09375,6.93693693693692
Ecoli,mp,1,6.11627906976744,6.87234042553191,8.06976744186047,5.40310523289246
Ecoli,mp,1,6.36111111111111,8.12499999999998,10,7.78030303030304
Ecoli,mp,1,5.07272727272727,8.09490740740742,5.96363636363636,6.99242424242423
Ecoli,mp,1,4.51020408163265,7.10909090909088,7.3265306122449,3.58888888888889
Ecoli,mp,1,5.2280701754386,5.40216216216216,6.29824561403509,6.36
Ecoli,mp,1,5.29824561403509,6.1659356725146,5.84210526315789,6.96321321321319
Ecoli,mp,1,4.58,7.15789473684211,7.24,7.60526315789474
Ecoli,mp,1,12.5833333333333,9.28125,13.2916666666667,12.125
Ecoli,mp,1,9.52777777777778,9.9081081081081,7.05555555555556,7.4
Ecoli,mp,1,4.30188679245283,8.31932773109247,5.66037735849057,9.76098901098903
Ecoli,mp,1,9.71875,5.94871794871795,10.03125,6.33684210526316
Ecoli,mp,1,6.83333333333333,8.78378378378378,6.69047619047619,9.48648648648648
Ecoli,mp,1,8.5,8.23555840821566,7.80952380952381,7.34146341463415
Ecoli,mp,1,9.85294117647059,8.24242424242423,7.17647058823529,8.74358974358974
Ecoli,mp,1,5.87234042553191,9.29040404040406,7.12765957446809,10.3636363636364
Ecoli,mp,1,8.42424242424242,5.61107448912327,10.3939393939394,8.21273712737129
Ecoli,mp,1,6.38,6.26018237082068,5.58,6.38297872340425
Ecoli,mp,1,12.875,5.58857808857807,13.3333333333333,5.21203155818539
Ecoli,mp,1,4.21818181818182,5.81176470588237,5.58181818181818,8.2141414141414
Ecoli,mp,1,8.81578947368421,4.95255255255255,7.68421052631579,5.55925925925927
Ecoli,mp,1,5.41666666666667,8.74736842105262,4.45,9.19999999999998
Ecoli,mp,1,5.84615384615385,6.63636363636362,9.51282051282051,5.7162162162162
Ecoli,mp,1,9.64705882352941,7.02,8.5,6.17842105263158
Ecoli,mp,1,6.87272727272727,9.5686274509804,5.96363636363636,12.1052631578947
Ecoli,mp,1,5.04918032786885,6.63636363636364,5.91803278688525,6.90909090909091
Ecoli,mp,1,6.86842105263158,6.89097744360902,8.36842105263158,5.5327380952381
Ecoli,mp,1,6.64583333333333,8.575,6.39583333333333,8.00855263157895
Ecoli,mp,1,6.29166666666667,5.56973995271869,6.70833333333333,6.78723404255319
Ecoli,mp,1,5.07547169811321,6.25757575757573,4.75471698113208,5.0657894736842
Ecoli,mp,1,9.57575757575758,8.43260188087776,11.0606060606061,7.80295566502467
Ecoli,mp,1,5.79166666666667,5.5225726654298,7.58333333333333,7.08163265306122
Ecoli,mp,1,5.91379310344828,6.08333333333333,4.98275862068965,8.9230769230769
Ecoli,mp,1,10.6363636363636,4.29958772331654,10.0606060606061,6.77141548327989
Ecoli,mp,1,6.09090909090909,5.44916142557653,6.88636363636364,5.76861966236346
Ecoli,mp,1,7.05555555555556,9.67669172932331,6.91666666666667,12.7159663865547
Ecoli,mp,1,4.48571428571429,6.37857142857144,4.5,6.44031531531531
Ecoli,mp,1,7.75675675675676,6.27777777777778,7.89189189189189,5.77777777777778
Ecoli,mp,1,5.97674418604651,5.16417112299467,5.58139534883721,4.95896103896105
Ecoli,mp,1,6.675,7.72222222222224,7.25,7.27027027027027
Ecoli,mp,1,4.78571428571429,9.97368421052632,5.67857142857143,8.77777777777779
Ecoli,mp,1,7.625,10.5482456140351,5.83333333333333,7.81111111111111
Ecoli,mp,1,5.79166666666667,10.7692307692307,6,11.0185185185185
Ecoli,mp,1,9.56666666666667,4.328125,10.2666666666667,3.08750000000001
Ecoli,mp,1,10.1153846153846,4.84182098765433,11.2307692307692,6.53935185185186
Ecoli,mp,1,6.55102040816327,7.10810810810811,6.38775510204082,9.38888888888891
Ecoli,mp,1,6.69230769230769,8.59824561403509,9.28205128205128,6.35555555555557
Ecoli,mp,1,6.11111111111111,5.58367346938777,7.64444444444444,5.96712018140591
Ecoli,mp,1,6.3,6.58139534883721,5.04,7.76241357636706
Ecoli,mp,1,6.31428571428571,4.52173913043478,10.1714285714286,5.3695652173913
Ecoli,mp,1,5.97674418604651,8.36655405405405,7.74418604651163,9.36513157894737
Ecoli,mp,1,5.86046511627907,6.87162162162164,5.74418604651163,6.31117604090577
Ecoli,mp,1,15.1428571428571,8.73611111111113,15.1428571428571,9.04072398190046
Ecoli,mp,1,7.16279069767442,6.03685503685503,8.27906976744186,6.6244019138756
Ecoli,mp,1,4.84782608695652,5.6628540305011,4.23913043478261,6.109391124871
Ecoli,mp,1,4.51923076923077,5.40798611111111,4.32692307692308,6.11689814814814
Ecoli,mp,1,4.875,8.21052631578949,5.26785714285714,8.39958448753463
Ecoli,mp,1,4.92727272727273,9.1990171990172,6.49090909090909,10.7918660287081
Ecoli,mp,1,4.75925925925926,6.73187414500686,6.16666666666667,7.92823920265783
Ecoli,mp,1,14.3478260869565,9.70119047619048,12.2173913043478,11.3238095238095
Ecoli,mp,1,7.06060606060606,10.9909090909091,9.75757575757576,12.6027777777778
Ecoli,mp,1,7.36842105263158,6.81081081081079,4,6.33024691358024
Ecoli,mp,1,5.63157894736842,6.72307692307692,6.28070175438596,7.22
Ecoli,mp,1,6.69642857142857,4.2562724014337,5.94642857142857,5.65232974910395
Ecoli,mp,1,7.78048780487805,10.64,7.14634146341463,13.12
Ecoli,mp,1,8.8,3.81375661375661,9.8,3.9987004548408
Ecoli,mp,1,6.61904761904762,6.71901709401711,8.28571428571429,5.88461538461539
Ecoli,mp,1,6.2972972972973,5.61818181818182,8.86486486486486,5.90909090909091
Ecoli,mp,1,8.10526315789474,4.1442735042735,9.63157894736842,4.56000000000001
Ecoli,mp,1,5.83333333333333,7.18979591836736,7.54761904761905,7.47876447876448
Ecoli,mp,1,11.6,4.94000000000001,10.6333333333333,5.74871794871795
Ecoli,mp,1,9.58333333333333,7.67676767676767,8.69444444444444,8.56410256410256
Ecoli,mp,1,4.91489361702128,7.22832980972515,5.70212765957447,7.70930232558139
Ecoli,mp,1,7.54838709677419,7.72357723577237,7.87096774193548,8.43652282676673
Ecoli,mp,1,8.32558139534884,7.17391304347826,7.25581395348837,6.44806763285025
Ecoli,mp,1,5.58333333333333,7.70494186046511,6.20833333333333,6.94702842377262
Ecoli,mp,1,5.65957446808511,11.8418418418418,4.95744680851064,10.6156156156156
Ecoli,mp,1,5.575,6.10162601626017,5.975,7.91562294001318
Ecoli,mp,1,5.56862745098039,8.38293650793652,6.25490196078431,8.40601503759398
Ecoli,mp,1,5.30434782608696,11.5488721804512,6.67391304347826,13.0375939849625
Ecoli,mp,1,5.6,7.95428571428572,7.44444444444444,6.63157894736841
Ecoli,mp,1,8.90625,5.45114345114345,6.78125,6.61752136752138
Ecoli,mp,1,11.3846153846154,5.54207037225905,11.7307692307692,6.72859216255443
Ecoli,mp,1,8.19512195121951,5.95833333333333,6.80487804878049,6.17543859649123
Ecoli,mp,1,7.07547169811321,5.61269841269843,5.11320754716981,6.23391812865497
Ecoli,mp,1,6.66666666666667,6.21855345911949,9.1025641025641,5.81845996940335
Ecoli,mp,1,12.2222222222222,5.30859950859951,11.5555555555556,5.56363636363636
Ecoli,mp,1,5.84782608695652,9.82051282051282,6.56521739130435,8.11965811965814
Ecoli,mp,1,5.28846153846154,10.0494505494506,6.78846153846154,10.2601214574899
Ecoli,mp,1,8.27272727272727,6.23891966759003,10.6969696969697,10.8203007518797
Ecoli,mp,1,8.36111111111111,10.5917159763314,9.30555555555556,9.10256410256414
Ecoli,mp,1,7.76470588235294,10.040404040404,10.4705882352941,10.2407407407408
Ecoli,mp,1,8.56756756756757,4.25862068965518,9.51351351351351,4.83764367816093
Ecoli,mp,1,6.47727272727273,4.00916988416988,6.29545454545455,6.01127819548872
Ecoli,mp,1,13.95,7.27244582043344,16.4,6.65789473684211
Ecoli,mp,1,11.3461538461538,6.55798394290812,11.8076923076923,4.29661016949152
Ecoli,mp,1,6.2972972972973,8.94214285714288,8.64864864864865,10.3628571428572
Ecoli,mp,1,5.95555555555556,5.25666666666668,7.13333333333333,7.36
Ecoli,mp,1,8.96969696969697,5.07037037037036,10.2424242424242,5.39132553606238
Ecoli,mp,1,4.79591836734694,4.12500000000001,6.3265306122449,4.21604414261461
Ecoli,mp,1,5.26229508196721,7.16428571428571,5.44262295081967,6.71052631578946
Ecoli,mp,1,5.20408163265306,5.75358851674641,6.51020408163265,7.63286713286713
Ecoli,mp,1,3.40298507462687,11.7142857142857,4.98507462686567,7.27272727272724
Ecoli,mp,1,9.13333333333333,7.92907801418441,10,7.39893617021278
Ecoli,mp,1,6.40350877192982,4.95238095238096,4.98245614035088,5.8018018018018
Ecoli,mp,1,9.24390243902439,7.36842105263156,7.92682926829268,6.83114035087719
Ecoli,mp,1,5.97727272727273,6.27826086956523,8.36363636363636,6.22742474916388
Ecoli,mp,1,6.87179487179487,7.24651162790699,7.1025641025641,5.65581395348839
Ecoli,mp,1,4.27868852459016,6.97291021671827,5.98360655737705,9.55882352941178
Ecoli,mp,1,13.2857142857143,4.25110663983904,16.8571428571429,5.49483568075116
Ecoli,mp,1,3.87301587301587,5.47325102880659,5.74603174603175,6.36942070275404
Ecoli,mp,1,6.04761904761905,4.55844155844154,5.26190476190476,5.59962406015037
Ecoli,mp,1,6.55555555555556,6.62037037037038,6.71111111111111,8.04074074074076
Ecoli,mp,1,4.07692307692308,5.4238067855089,4.75384615384615,7.27659574468084
Ecoli,mp,1,7.06818181818182,7.10969793322734,8.31818181818182,6.37254901960784
Ecoli,mp,1,6.57407407407407,8.78947368421053,6.88888888888889,8.27089783281736
Ecoli,mp,1,7.19047619047619,6.64102564102564,7.23809523809524,8.87728937728938
Ecoli,mp,1,8.26470588235294,7.37837837837838,8.47058823529412,8.38253638253637
Ecoli,mp,1,8.85294117647059,19.3166666666667,10.6470588235294,17.515625
Ecoli,mp,1,12.6,5.62162162162162,9.32,7.27777777777779
Ecoli,mp,1,5.675,6.13541666666667,6.625,7.71428571428571
Ecoli,mp,1,9.96875,5.69330199764982,11.4375,9.03188405797099
Ecoli,mp,1,6.60606060606061,7.17777777777779,10.0909090909091,6.87619047619049
Ecoli,mp,1,3.75438596491228,5.62448979591838,6.26315789473684,5.35392535392535
Ecoli,mp,1,9.19444444444444,6.87145969498912,7.47222222222222,5.42584213172448
Ecoli,mp,1,7.70731707317073,6.77616279069766,8.07317073170732,5.99265605875152
Ecoli,mp,1,7.17777777777778,7.23529411764706,8.15555555555556,6.35913312693498
Ecoli,mp,1,8.63636363636364,6.61215932914047,9.39393939393939,5.64392839864538
Ecoli,mp,1,6.64583333333333,6.25997425997426,6.5625,8.99591836734696
Ecoli,mp,1,4.73333333333333,6.08333333333335,4.55,6.57142857142859
Ecoli,mp,1,10.7222222222222,6.23809523809524,7.05555555555556,6.11325611325611
Ecoli,mp,1,7.775,4.67013888888889,6.1,4.8076923076923
Ecoli,mp,1,9.33333333333333,4.61148648648649,15.0416666666667,4.63513513513514
Ecoli,mp,1,9.75,6.80487804878049,12.3571428571429,8.02439024390244
Ecoli,mp,1,5.5,5.18018018018017,4.58333333333333,6.84210526315788
Ecoli,mp,1,8.76666666666667,8.38888888888889,5.63333333333333,7.88888888888889
Ecoli,mp,1,5.66666666666667,5.96200980392157,6.14583333333333,5.87384259259259
Ecoli,mp,1,4.69387755102041,6.61528239202659,5.63265306122449,6.33333333333334
Ecoli,mp,1,6.43181818181818,5.37654320987655,6.20454545454545,6.98148148148149
Ecoli,mp,1,7.5531914893617,4.40983606557377,7.08510638297872,3.83984867591424
Ecoli,mp,1,6.07692307692308,5.90670859538784,5.63461538461539,5.57845084409135
Ecoli,mp,1,6.70731707317073,5.07692307692307,7.04878048780488,4.75
Ecoli,mp,1,8.63636363636364,6.17520775623269,6.38636363636364,9.18758434547909
Ecoli,mp,1,6.30952380952381,7.08407871198568,5.47619047619048,6.2468694096601
Ecoli,mp,1,4.44642857142857,7.1,5.80357142857143,6.4
Ecoli,mp,1,14.76,5.19418676561533,13.88,6.35060177917321
Ecoli,mp,1,4.74074074074074,7.66351744186047,5.96296296296296,7.35924112607099
Ecoli,mp,1,4.27272727272727,5.64270152505448,3.92727272727273,6.26212590299278
Ecoli,mp,1,6.2972972972973,9.14887218045115,9.2972972972973,9.43100995732574
Ecoli,mp,1,8.18181818181818,7.23809523809524,6.77272727272727,7.10884353741498
Ecoli,mp,1,10.4230769230769,8.92324561403509,13.7307692307692,10.1491228070175
Ecoli,mp,1,6.57142857142857,7.11111111111111,6.92857142857143,6.87469135802471
Ecoli,mp,1,7.19444444444444,6.52272727272728,4.08333333333333,6.08333333333336
Ecoli,mp,1,5.475,4.29186602870813,6.925,7.20287081339713
Ecoli,mp,1,9,5.92054263565892,8.5,7.16279069767442
Ecoli,mp,1,6.29268292682927,9.39897698209724,6.85365853658537,11.3513513513514
Ecoli,mp,1,4.35135135135135,4.39814814814816,5.02702702702703,4.77435897435898
Ecoli,mp,1,4.26785714285714,6.77609427609427,6.75,9.49106449106447
Ecoli,mp,1,6.92857142857143,5.44262295081967,6.95238095238095,2.84153005464481
Ecoli,mp,1,3.62666666666667,6.63157894736842,3.61333333333333,7.63504155124652
Ecoli,mp,1,10.8571428571429,9.55882352941176,6.62857142857143,8.18872549019609
Ecoli,mp,1,4.17460317460317,5.64583333333333,5.55555555555556,6.92200854700855
Ecoli,mp,1,6.41176470588235,4.89192708333334,9.29411764705882,3.97697368421053
Ecoli,mp,1,8.86666666666667,13.8220720720721,9.5,13.8846153846154
Ecoli,mp,1,8.31428571428571,4.24074074074074,9.45714285714286,5.7977207977208
Ecoli,mp,1,6.3953488372093,4.76043956043957,7.90697674418605,5.96465696465696
Ecoli,mp,1,6.80851063829787,8.77839721254358,6.95744680851064,10.0285714285715
Ecoli,mp,1,4.3448275862069,5.46088435374151,5.06896551724138,6.43367346938777
Ecoli,mp,1,5.56,5.97872340425532,6.28,5.89865621500558
Ecoli,mp,1,11.6666666666667,8.07539682539684,9.63333333333333,9.37875457875458
Ecoli,mp,1,7.35416666666667,4.53673469387756,6.29166666666667,6.37103174603176
Ecoli,mp,1,5.44897959183673,9.98380566801618,6.08163265306122,11.9002079002079
Ecoli,mp,1,11,5.91666666666668,10.2857142857143,8.88888888888891
Ecoli,mp,1,10.28125,6.56000000000002,10.5625,6.6888888888889
Ecoli,mp,1,7.69767441860465,5.09133126934984,7.44186046511628,6.92368839427663
Ecoli,mp,1,6.15909090909091,6.55803571428573,5.88636363636364,6.16071428571429
Ecoli,mp,1,4.984375,5.63796354494029,5.5,5.55813953488372
Ecoli,mp,1,9.38235294117647,8.46153846153849,9.44117647058824,8.08857808857811
Ecoli,mp,1,6.50980392156863,8.72972972972973,5.64705882352941,10.6666666666667
Ecoli,mp,1,5.49090909090909,5.67054263565893,5.87272727272727,6.7906976744186
Ecoli,mp,1,5.07142857142857,18.4632352941176,6.32142857142857,19.1764705882353
Ecoli,mp,1,5.01754385964912,9.30107526881725,4.6140350877193,9.06621392190155
Ecoli,mp,1,5.16363636363636,11.0288065843622,5.78181818181818,8.85769980506823
Ecoli,mp,1,4.83018867924528,6.31372549019608,5.9811320754717,6.80392156862745
Ecoli,mp,1,7.95652173913043,6.78017492711371,6.47826086956522,5.87755102040815
Ecoli,mp,1,3.50793650793651,5.32075471698113,5.22222222222222,6.43291404612161
Ecoli,mp,1,9.32258064516129,9.34095860566449,9.80645161290323,12.9279279279279
Ecoli,mp,1,5.75,6.125,5.53571428571429,5.83333333333332
Ecoli,mp,1,5.16279069767442,6.0129411764706,8.44186046511628,7.16
Ecoli,mp,1,6.62745098039216,3.77341659232827,6.47058823529412,5.2936326156665
Ecoli,mp,1,6.3953488372093,7.80968468468468,6.44186046511628,7.71309523809526
Ecoli,mp,1,5.11290322580645,5.71720116618077,3.53225806451613,6.39849624060151
Ecoli,mp,1,6.89473684210526,6.22585034013607,5.92105263157895,7.68082368082368
Ecoli,mp,1,8.82352941176471,8.21621621621621,8.85294117647059,7.21276595744681
Ecoli,mp,1,10.68,8.61577794010224,11.24,8.46096096096096
Ecoli,mp,1,7.41860465116279,4.47058823529412,8.81395348837209,5.66666666666667
Ecoli,mp,1,6.925,7.53359462486002,7.675,6.39809630459126
Ecoli,mp,1,4.6,8.30555555555554,5.4,7.29824561403509
Ecoli,mp,1,6.50980392156863,6.07514831905075,7.31372549019608,8.39774859287053
Ecoli,mp,1,5.03703703703704,5.64473684210525,5.07407407407407,6.33552631578946
Ecoli,mp,1,5.7843137254902,4.62162162162162,5.37254901960784,6.05797101449274
Ecoli,mp,1,6.27083333333333,9.17948717948716,6.72916666666667,9.55263157894735
Ecoli,mp,1,6.36111111111111,6.31987577639753,9.66666666666667,6.35228539576366
Ecoli,mp,1,5.25531914893617,11.7765765765766,7.72340425531915,11.7
Ecoli,mp,1,7.07894736842105,4.06250000000001,8.05263157894737,4.33333333333334
Ecoli,mp,1,4.75,10.2037037037037,5.3125,12.2389610389611
Ecoli,mp,1,9.40540540540541,4.34381551362684,7.27027027027027,6.88927507447865
Ecoli,mp,1,6.20454545454545,4.96052631578947,6.27272727272727,7.08680555555555
Ecoli,mp,1,8.21052631578947,8.18269230769231,7.26315789473684,9.62000000000003
Ecoli,mp,1,5.74418604651163,9.15362731152205,8.55813953488372,9.11446740858508
Ecoli,mp,1,7.23684210526316,7.33152173913043,7.47368421052632,8.0066889632107
Ecoli,mp,1,7.075,6.97069377990429,8.925,6.36363636363636
Ecoli,mp,1,5.89795918367347,6.08187134502925,6.95918367346939,5.45567867036011
Ecoli,mp,1,6.18181818181818,9.4706790123457,6.56818181818182,8.25498575498576
Ecoli,mp,1,7.59523809523809,6.78936877076414,7.33333333333333,8.37760097919216
Ecoli,mp,1,5.69387755102041,12.7792869269949,7.36734693877551,9.48387096774194
Ecoli,mp,1,7.28,4.18518518518519,5.72,6.23931623931623
Ecoli,mp,1,5.10344827586207,5.09397163120568,6.67241379310345,5.65565509518477
Ecoli,mp,1,6.83333333333333,7.66363636363634,7.72916666666667,7.1
Ecoli,mp,1,7.94736842105263,5.05945945945946,7.60526315789474,7.42
Ecoli,mp,1,5.24528301886792,7.37837837837838,5.24528301886792,7.73157894736842
Ecoli,mp,1,10.9354838709677,7.10818713450292,10,6.95614035087719
Ecoli,mp,1,6.13636363636364,7.1734693877551,6.31818181818182,6.37862513426423
Ecoli,mp,1,5.29166666666667,5.09813664596275,6.875,8.02173913043478
Ecoli,mp,1,8.6551724137931,9.01801801801803,10.7586206896552,7.20745069393718
Ecoli,mp,1,4.40816326530612,7.1585557299843,6.6530612244898,5.53628117913833
Ecoli,mp,1,7.21428571428571,3.67126833477136,7.64285714285714,4.85245901639346
Ecoli,mp,1,4.44262295081967,15.1328502415459,5.52459016393443,13.0242966751918
Ecoli,mp,1,6.31111111111111,3.73076923076923,6.35555555555556,4.56060606060606
Ecoli,mp,1,8.9,5.13513513513512,8.96666666666667,7.3198198198198
Ecoli,mp,1,5.75,5.98455598455597,5.27083333333333,7.12244897959184
Ecoli,mp,1,5.09302325581395,8.91203703703703,6.55813953488372,7.58333333333333
Ecoli,mp,1,6.83673469387755,6.03116883116884,5.95918367346939,5.77149877149876
Ecoli,mp,1,6.16326530612245,5.84782608695652,6.79591836734694,5.44622425629289
Ecoli,mp,1,6.08108108108108,7.3888888888889,7.10810810810811,6.05185185185186
Ecoli,mp,1,5.625,5.77272727272727,4.67857142857143,7.00267379679145
Ecoli,mp,1,5.6140350877193,4.53497942386832,6.21052631578947,4.94444444444444
Ecoli,mp,1,8.325,6.16406250000001,8.7,7.59375000000001
Ecoli,mp,1,7.82352941176471,7.35472972972971,8.94117647058824,7.04729729729728
Ecoli,mp,1,9.61290322580645,6.07494279176202,10.258064516129,5.27059496567506
Ecoli,mp,1,8.25,7.64426588750911,5.93181818181818,8.71266002844948
Ecoli,mp,1,6.53191489361702,10.4497607655502,7.23404255319149,8.86713286713285
Ecoli,mp,1,7.19444444444444,4.4014675052411,9,5.11320754716981
Ecoli,mp,1,7.8974358974359,7.2453703703704,8.97435897435897,5.87837837837839
Ecoli,mp,1,5.14814814814815,8.65526315789474,5.62962962962963,10.8333333333333
Ecoli,mp,1,4.95454545454545,6.70860077021823,7.52272727272727,8.48780487804878
Ecoli,mp,1,6.5,8.57752489331435,7.97368421052632,9.97992277992279
Ecoli,mp,1,8.58139534883721,6.73423423423425,6.09302325581395,9.84708392603129
Ecoli,mp,1,12.9310344827586,6.94678492239467,9.20689655172414,9.13671373555841
Ecoli,mp,1,4.50819672131148,11.0357142857143,5.36065573770492,11.5366795366795
Ecoli,mp,1,6.85365853658537,11.1015873015873,8.39024390243902,9.34876543209878
Ecoli,mp,1,5.31034482758621,6.71373307543519,3.87931034482759,6.31914893617021
Ecoli,mp,1,5.05555555555556,3.66753054424287,5.38888888888889,4.84931506849315
Ecoli,mp,1,7.79545454545455,7.01564722617353,7.75,9.03118503118501
Ecoli,mp,1,4.77777777777778,5.54621848739496,6.55555555555556,5.23839009287925
Ecoli,mp,1,9.39024390243902,5.45814106789715,6.90243902439024,8.62996515679443
Ecoli,mp,1,7.48837209302326,9.63157894736842,8.65116279069767,5.9090909090909
Ecoli,mp,1,4.85185185185185,7.65909090909091,6.55555555555556,6.68414918414919
Ecoli,mp,1,8.24324324324324,6.08585055643878,10.3783783783784,6.99465240641709
Ecoli,mp,1,4.21052631578947,8.13888888888889,5.40350877192982,7.7252252252252
Ecoli,mp,1,8.82857142857143,6.56326530612245,7.51428571428571,7.83333333333333
Ecoli,mp,1,5.95744680851064,6.37756497948017,6.82978723404255,7.4908200734394
Ecoli,mp,1,7.7906976744186,5.90163934426228,7.81395348837209,3.24590163934426
Ecoli,mp,1,9.02857142857143,9.18333333333335,6.85714285714286,8.60135135135135
Ecoli,mp,1,7,4.66818181818183,6.42,6.13155080213905
Ecoli,mp,1,5.26923076923077,5.94827586206897,5.88461538461539,4.93199233716476
Ecoli,mp,1,11.1470588235294,9.46984126984129,8.85294117647059,9.41930501930502
Ecoli,mp,1,5.34090909090909,6.31090909090908,6.18181818181818,7.18421052631579
Ecoli,mp,1,4.47272727272727,6.51805555555557,5.34545454545455,8.85810810810811
Ecoli,mp,1,6.35135135135135,7.53703703703705,4.81081081081081,6.82549857549858
Ecoli,mp,1,6.975,5.21153846153846,9.55,6.13967611336031
Ecoli,mp,1,6.34042553191489,7.7882882882883,7.82978723404255,8.27027027027027
Ecoli,mp,1,4.9375,4.76167076167076,5.4375,6.07645687645688
Ecoli,mp,1,5.10869565217391,4.85795454545454,7.91304347826087,5.18881118881118
Ecoli,mp,1,6.55,11.4242424242424,7.925,11.1818181818182
Ecoli,mp,1,10.1612903225806,6.52653061224491,8.64516129032258,8.71428571428571
Ecoli,mp,1,9.6875,8.43486590038314,10.1875,9.19893899204242
Ecoli,mp,1,6.63414634146341,7.82051282051282,6.75609756097561,6.58974358974359
Ecoli,mp,1,9.92105263157895,5.93468468468467,8.47368421052632,6.92592592592592
Ecoli,mp,1,6.85294117647059,4.7962962962963,10.7058823529412,4.6011396011396
Ecoli,mp,1,6.26,6.34288587229764,7.34,4.9389355742297
Ecoli,mp,1,3.71186440677966,6.92900856793144,4.3728813559322,7.64341085271317
Ecoli,mp,1,8.40909090909091,4.56454465075154,5.97727272727273,5.22988505747126
Ecoli,mp,1,13.9259259259259,5.44924012158055,12.5925925925926,6.65957446808511
Ecoli,mp,1,7.65853658536585,6.78074306645735,5.80487804878049,6.95970695970696
Ecoli,mp,1,7.12820512820513,5.87280701754387,7.64102564102564,10.0518575851393
Ecoli,mp,1,5.57407407407407,7.11111111111111,5.7037037037037,6.08888888888889
Ecoli,mp,1,8.96,9.06976744186046,12.96,6.86046511627907
Ecoli,mp,1,5.5,8.57264957264957,6.44,7.52496626180835
Ecoli,mp,1,4.24193548387097,8.36216216216216,5.91935483870968,12.5411764705883
Ecoli,mp,1,7.10344827586207,8.34391534391536,9.75862068965517,8.29795918367349
Ecoli,mp,1,5.89130434782609,9.45354729729729,7.02173913043478,9.31555880204528
Ecoli,mp,1,8.05263157894737,6.52767052767053,8.8421052631579,5.96825396825398
Ecoli,mp,1,5.25,5.655,5.73214285714286,5.50256410256409
Ecoli,mp,1,5.28846153846154,6.94444444444446,5.38461538461539,9.52631578947368
Ecoli,mp,1,5.52,5.68679896462468,6.54,4.384074941452
Ecoli,mp,1,4.40384615384615,5.31761006289309,6.65384615384615,5.91969037252056
Ecoli,mp,1,11.0740740740741,9.57770270270273,8.59259259259259,6.1184210526316
Ecoli,mp,1,7.78125,6.5045045045045,10.46875,8.19444444444444
Ecoli,mp,1,8.90322580645161,5.59090909090909,10.258064516129,5.93531468531467
Ecoli,mp,1,7.25714285714286,8.23076923076923,10.5428571428571,6.11673414304992
Ecoli,mp,1,7.74193548387097,7.3097142857143,9.67741935483871,6.65052631578947
Ecoli,mp,1,5.22033898305085,5.8974358974359,3.69491525423729,7.39001349527665
Ecoli,mp,1,5.93333333333333,6.03174603174603,5.91111111111111,8.71428571428571
Ecoli,mp,1,6.27272727272727,6.12857142857144,5.88636363636364,7.76151315789474
Ecoli,mp,1,7.2093023255814,5.13649425287357,7.69767441860465,5.25862068965517
Ecoli,mp,1,5.13207547169811,13.6042105263158,6.07547169811321,12.3323076923077
Ecoli,mp,1,7.34285714285714,7.20689655172414,7.48571428571429,12.801724137931
Ecoli,mp,1,4.9,6.80710121886591,6.92,6.44736842105262
Ecoli,mp,1,5.07017543859649,7.55742296918769,5.54385964912281,7.77167277167277
Ecoli,mp,1,9.23333333333333,4.15499999999999,12.9,5.01176470588236
Ecoli,mp,1,9.08333333333333,6.68897959183673,9.25,8.2315789473684
Ecoli,mp,1,4.5,7.11948790896157,5.44642857142857,9.11605937921725
Ecoli,mp,1,6.93478260869565,6.59323308270677,5.89130434782609,9.78534798534799
Ecoli,mp,1,4.63492063492064,3.67741935483871,4.85714285714286,5.51612903225805
Ecoli,mp,1,4.70689655172414,7.74825174825172,5.98275862068965,7.09311740890687
Ecoli,mp,1,11,7.93333333333333,13.0869565217391,9.63157894736841
Ecoli,mp,1,7.25581395348837,6.72996632996632,8.32558139534884,7.55555555555556
Ecoli,mp,1,7.02127659574468,7.46694214876032,8.1063829787234,7.44078947368421
Ecoli,mp,1,6.64583333333333,6.72846889952155,7.02083333333333,5.59440559440561
Ecoli,mp,1,7.52777777777778,6.00349854227407,8.02777777777778,6.9200680272109
Ecoli,mp,1,5.67272727272727,8.61956521739132,5.81818181818182,6.92009400705053
Ecoli,mp,1,10.09375,6.16349384098544,8.875,6.80851063829787
Ecoli,mp,1,9.75675675675676,3.86486486486486,8.13513513513514,5.11670480549199
Ecoli,mp,1,5.5609756097561,5.11111111111112,8.31707317073171,5.81818181818183
Ecoli,mp,1,5,7.37647058823531,5.46551724137931,7.03815580286168
Ecoli,mp,1,4.03389830508475,4.06249999999999,4.86440677966102,5.72491776315789
Ecoli,mp,1,6.64864864864865,6.50800915331807,6.08108108108108,5.80778032036612
Ecoli,mp,1,9.58333333333333,7.67741935483871,15.4166666666667,8.67572156196942
Ecoli,mp,1,4.28571428571429,9.69583333333335,5.84126984126984,9.871875
Ecoli,mp,1,6.93617021276596,4.84555651423641,6.12765957446809,6.42800177226407
Ecoli,mp,1,6.01754385964912,9.96296296296296,3,11.8148148148148
Ecoli,mp,1,5.32075471698113,6.78355957767722,4.56603773584906,6.68353576248311
Ecoli,mp,1,5.29411764705882,7.03401797175866,6.27450980392157,8.73620025673941
Ecoli,mp,1,10.2068965517241,6.31245880026368,11.2068965517241,9.12195121951219
Ecoli,mp,1,6.01923076923077,7.52142857142859,5.09615384615385,7.83991228070175
Ecoli,mp,1,5.06896551724138,11.0374396135266,4.39655172413793,13.0036231884058
Ecoli,mp,1,7.4,6.09513742071883,8.5,5.84538026398494
Ecoli,mp,1,6.85365853658537,12.9310344827586,6.70731707317073,11.5243147656941
Ecoli,mp,1,8.18181818181818,6.51219512195122,9.42424242424242,6.7870797626895
Ecoli,mp,1,4.39393939393939,5.48525798525798,4.03030303030303,7.74805194805197
Ecoli,mp,1,5,8.41339869281047,6.77358490566038,8.39745627980922
Ecoli,mp,1,4.78571428571429,7.65367965367964,5.60714285714286,8.43045112781955
Ecoli,mp,1,7.8780487804878,15.9673913043479,7.04878048780488,12.895881006865
Ecoli,mp,1,6.55,5.65096952908589,6.5,5.50497866287341
Ecoli,mp,1,5.65217391304348,5.87963525835868,7.56521739130435,6.76931690929451
Ecoli,mp,1,5.04,5.52097264437691,5.4,5.24439332949971
Ecoli,mp,1,5.41860465116279,3.89002557544758,7.88372093023256,5.44223602484473
Ecoli,mp,1,9.57142857142857,6.00559440559441,9.97142857142857,6.14348894348894
Ecoli,mp,1,8.74193548387097,4.69444444444445,9.93548387096774,5.36565096952909
Ecoli,mp,1,6.23809523809524,4.26315789473683,6.21428571428571,7.08631578947367
Ecoli,mp,1,8.26666666666667,5.68421052631579,8.9,6.90789473684211
Ecoli,mp,1,4.83928571428571,7.70294117647059,5.89285714285714,7.07837837837836
Ecoli,mp,1,7.58064516129032,7.10367346938777,10.4516129032258,9
Ecoli,mp,1,9.4,7.71428571428574,10.6666666666667,6.35135135135135
Ecoli,mp,1,11.3548387096774,3.7948717948718,9.38709677419355,4.67142857142858
Ecoli,mp,1,7.7741935483871,9.18518518518519,9.38709677419355,9.0793650793651
Ecoli,mp,1,5.97959183673469,8.94612244897961,5.6530612244898,6.31428571428571
Ecoli,mp,1,5.77777777777778,7.90540540540542,5.37777777777778,8.00511322132943
Ecoli,mp,1,6.975,3.93166751657319,8.75,5.22840119165841
Ecoli,mp,1,5.28,7.69652406417114,5.38,7.32983682983683
Ecoli,mp,1,5.16666666666667,5.21326530612246,7.70833333333333,4.33928571428571
Ecoli,mp,1,6.90476190476191,5.57142857142858,8.30952380952381,4.66037735849057
Ecoli,mp,1,7.59523809523809,6.61558441558442,8.76190476190476,6.11363636363636
Ecoli,mp,1,7.02631578947368,7.70334928229666,8.39473684210526,7.46231546231547
Ecoli,mp,1,6.65454545454545,7.76265389876883,6.56363636363636,8.47307221542228
Ecoli,mp,1,8.14814814814815,5.95318127250902,11.1851851851852,6.83673469387755
Ecoli,mp,1,7.97297297297297,5.02222222222222,7.37837837837838,5.95675675675676
Ecoli,mp,1,5.87037037037037,10.6736842105263,5.64814814814815,10.3142857142857
Ecoli,mp,1,6.31111111111111,7.22832722832723,4.64444444444444,6.33796296296298
Ecoli,mp,1,14.9565217391304,6.39503105590064,13.7391304347826,5.55797101449276
Ecoli,mp,1,7.34883720930233,6.33613445378153,7.7906976744186,7.62156862745096
Ecoli,mp,1,7.17948717948718,5.4638720353006,9.84615384615385,7.74849939975992
Ecoli,mp,1,5.40909090909091,5.34984520123838,7.04545454545455,6.96594427244581
Ecoli,mp,1,4.109375,7.8974358974359,4.546875,9.20710059171596
Ecoli,mp,1,5.97560975609756,5.1072874493927,8.87804878048781,8.22905982905979
Ecoli,mp,1,8.8,5.55,9.91428571428571,7.14305555555557
Ecoli,mp,1,8.4,7.16694078947367,9.6,8.28125
Ecoli,mp,1,5.0188679245283,8.40909090909091,5,7.37412587412588
Ecoli,mp,1,6.13953488372093,7.29787234042553,5.97674418604651,6.15711947626841
Ecoli,mp,1,7.52380952380952,6.20338983050847,7.61904761904762,4.6271186440678
Ecoli,mp,1,5.86046511627907,4.53225806451613,5.83720930232558,5.7157258064516
Ecoli,mp,1,5.07407407407407,8.58845029239769,5.11111111111111,7.26126126126129
Ecoli,mp,1,8.65714285714286,10.8620689655172,10.5714285714286,11.4010889292196
Ecoli,mp,1,5.64705882352941,9.96551724137931,5.66666666666667,9.54679802955667
Ecoli,mp,1,4.04347826086957,7.85365853658537,5.20289855072464,7.71758664955069
Ecoli,mp,1,10.9705882352941,14.4326530612245,8.52941176470588,15.0634920634921
Ecoli,mp,1,6.48780487804878,5.65540540540541,8.31707317073171,6.35526315789475
Ecoli,mp,1,8.59090909090909,7.01538461538462,7.06818181818182,7.32612612612613
Ecoli,mp,1,4.98275862068965,8.40154440154442,6,6.49884169884172
Ecoli,mp,1,10.4375,5.38529226901318,11.15625,6.55446756425947
Ecoli,mp,1,6.15384615384615,7.52631578947367,7.71794871794872,6.67567567567566
Ecoli,mp,1,6.16666666666667,15.0928319623972,3.5625,16.1329923273658
Ecoli,mp,1,6.33333333333333,4.76363636363636,8.05128205128205,6.20404040404042
Ecoli,mp,1,12.0689655172414,7.33044982698964,10.551724137931,10.1226890756303
Ecoli,mp,1,6.76744186046512,3.40789473684211,8.06976744186047,3.84615384615385
Ecoli,mp,1,6.38,6.47695035460994,6.78,7.53359462486002
Ecoli,mp,1,4.62962962962963,5.54991726420298,2.90740740740741,6.43367346938777
Ecoli,mp,1,10.1176470588235,9.24324324324324,10.3823529411765,8.4
Ecoli,mp,1,9.38888888888889,9.68021680216804,9.47222222222222,8.76515679442511
Ecoli,mp,1,4.78947368421053,10.7968253968254,5,9.97142857142857
Ecoli,mp,1,6.325,14.984375,7.05,15.75
Ecoli,mp,1,4.35849056603774,12.3384253819036,5.69811320754717,13.3444816053511
Ecoli,mp,1,7.97560975609756,7.48195187165777,8.68292682926829,7.20454545454545
Ecoli,mp,1,7,6.53083853083853,6.6530612244898,6.89189189189189
Ecoli,mp,1,5.53061224489796,6.27200000000002,5.91836734693878,3.99157894736842
Ecoli,mp,1,10.1111111111111,7.28222996515681,13.1851851851852,7.13143631436316
Ecoli,mp,1,5.25490196078431,7.87387387387389,6.15686274509804,7.74220374220374
Ecoli,mp,1,4.62264150943396,7.93333333333329,6.45283018867925,6.81344759393538
Ecoli,mp,1,11.3225806451613,5.0377358490566,10.0322580645161,6.84905660377358
Ecoli,mp,1,6.28260869565217,7.11231884057972,6.21739130434783,6.69565217391304
Ecoli,mp,1,10.4,11.5121527777778,6.31428571428571,9.125
Ecoli,mp,1,7.225,5.07120743034056,8,5.63467492260062
Ecoli,mp,1,5.11111111111111,3.23429951690822,4.77777777777778,5.42906178489703
Ecoli,mp,1,6.53448275862069,4.93926553672317,5.70689655172414,5.2185548617306
Ecoli,mp,1,5.49090909090909,7.13213213213213,5.83636363636364,5.32804232804234
Ecoli,mp,1,9.20588235294118,7.15977443609022,7.05882352941176,7.89285714285716
Ecoli,mp,1,6.17948717948718,8.31773879142298,8.38461538461539,10.7407407407407
Ecoli,mp,1,6.78947368421053,7.7020757020757,8.86842105263158,8.44444444444446
Ecoli,mp,1,8.83720930232558,6.8940170940171,7.83720930232558,7.02051282051282
Ecoli,mp,1,8.76666666666667,11.8267857142857,8.66666666666667,9.69471153846154
Ecoli,mp,1,10.3142857142857,6.6857142857143,9.97142857142857,6.31034482758621
Ecoli,mp,1,5.07407407407407,4.47899159663867,4.74074074074074,6.97338935574231
Ecoli,mp,1,3.02409638554217,11.2150101419879,4.25301204819277,11.7931034482759
Ecoli,mp,1,6.675,6.74436090225564,7.625,7.30988184747583
Ecoli,mp,1,6.14035087719298,5.86285714285716,6.2280701754386,4.71481481481482
Ecoli,mp,1,8.07692307692308,5.70593869731802,5.92307692307692,3.68037135278515
Ecoli,mp,1,9.72222222222222,7.94444444444446,10,8.58928571428571
Ecoli,mp,1,6.47727272727273,8.17434210526317,6.59090909090909,6.73263888888891
Ecoli,mp,1,11.65625,5.03587962962964,10.8125,6.15064102564103
Ecoli,mp,1,5.15384615384615,13.1966666666667,5.63461538461539,13.0322222222222
Ecoli,mp,1,6.44827586206897,7.98055555555557,6.25862068965517,10.4
Ecoli,mp,1,6.17073170731707,6.33333333333333,8.36585365853658,8.87237237237237
Ecoli,mp,1,4.63888888888889,5.78356481481482,4.18055555555556,5.99099099099099
Ecoli,mp,1,8.14705882352941,9.14285714285717,7.64705882352941,8.7843137254902
Ecoli,mp,1,5.74468085106383,5.38461538461537,6.02127659574468,6.1574074074074
Ecoli,mp,1,5.86363636363636,9.44586894586896,6.25,6.44159544159545
Ecoli,mp,1,8.72972972972973,9.17464114832535,8.43243243243243,9.72299168975069
Ecoli,mp,1,7.30188679245283,6.15254237288136,6.11320754716981,7.08757062146894
Ecoli,mp,1,6.83783783783784,6.30820105820107,7.13513513513514,8.88095238095238
Ecoli,mp,1,7.74193548387097,4.85503685503685,8.74193548387097,5.45454545454545
Ecoli,mp,1,6.6,8.7179487179487,7.875,8.37011884550083
Ecoli,mp,1,6.46666666666667,9.14814814814816,4.04444444444444,9.12820512820513
Ecoli,mp,1,7.10526315789474,7.93604651162792,9.18421052631579,7.62790697674419
Ecoli,mp,1,4.12727272727273,7.89126559714794,4.90909090909091,8.33445378151263
Ecoli,mp,1,4.69642857142857,7.46216385240775,4.85714285714286,8.38899312070044
Ecoli,mp,1,6.48837209302326,6.38542890716804,8.18604651162791,9.16956521739128
Ecoli,mp,1,12.2068965517241,9.59259259259261,12.7586206896552,7.35016835016837
Ecoli,mp,1,9.06060606060606,8.23076923076923,10.6666666666667,9.88571428571431
Ecoli,mp,1,7.73913043478261,4.77294685990339,6.52173913043478,7.04347826086957
Ecoli,mp,1,8.33333333333333,8.34439359267734,7.84615384615385,7.80892448512586
Ecoli,mp,1,11.0689655172414,7.11111111111113,10.551724137931,5.27407407407409
Ecoli,mp,1,8.45161290322581,7.23441734417345,6.90322580645161,8.22263914946842
Ecoli,mp,1,6.68627450980392,9.73767885532589,6.31372549019608,8.89517345399696
Ecoli,mp,1,6.69565217391304,6.9900426742532,6.78260869565217,10.6459459459459
Ecoli,mp,1,7.56756756756757,7.30982905982908,8.67567567567568,6.90283400809718
Ecoli,mp,1,4.47058823529412,5.25375939849624,4.73529411764706,6.08458646616541
Ecoli,mp,1,7,9.90277777777783,8,11.2805555555556
Ecoli,mp,1,5.6875,5.97051597051596,5.72916666666667,6.48086124401913
Ecoli,mp,1,10.8125,4.79731243001119,9.625,5.8330605564648
Ecoli,mp,1,6.37209302325581,5.80774853801169,6.3953488372093,7.85453216374269
Ecoli,mp,1,11.0666666666667,7.81184668989549,10.1333333333333,8.10313588850176
Ecoli,mp,1,5.3695652173913,6.86777408637875,5.93478260869565,6.7906976744186
Ecoli,mp,1,5.46153846153846,6.925,7.25,9.3333333333333
Ecoli,mp,1,4.94339622641509,4.4512315270936,5.81132075471698,3.62348555452003
Ecoli,mp,1,10.6969696969697,7.73771498771498,9.90909090909091,7.55741626794258
Ecoli,mp,1,6.22727272727273,7.4765037593985,7,10.4548319327731
Ecoli,mp,1,7.5,8.09966216216214,8.91176470588235,8.92736486486484
Ecoli,mp,1,6.14893617021277,4.85,6.29787234042553,4.03963963963964
Ecoli,mp,1,9.47058823529412,10.5820105820106,7.76470588235294,11.4903474903475
Ecoli,mp,1,6.75609756097561,7.5592105263158,8.75609756097561,4.81250000000002
Ecoli,mp,1,7.875,5.75106685633001,9.84375,6.68111455108361
Ecoli,mp,1,4.07142857142857,9.11688311688314,4.375,9.36124401913876
Ecoli,mp,1,4.96428571428571,8.54678362573101,4.94642857142857,8.51973684210528
Ecoli,mp,1,8.19512195121951,5.43483275663208,6.07317073170732,5.67102396514162
Ecoli,mp,1,12.52,4.52083333333333,14.56,4.98245614035088
Ecoli,mp,1,7.11363636363636,7.70801033591733,8.38636363636364,9.05144467935164
Ecoli,mp,1,7.45,7.82894736842103,8.2,8.10185185185183
Ecoli,mp,1,5.625,7.91496598639457,5.9375,6.92664092664092
Ecoli,mp,1,5.05357142857143,8.1025641025641,4.60714285714286,7.83300460223537
Ecoli,mp,1,5.08571428571429,8.45000000000002,4.88571428571429,9.42792792792792
Ecoli,mp,1,7.55813953488372,4.84510010537408,8.13953488372093,3.09173931091739
Ecoli,mp,1,7.44897959183673,7.84444444444444,7.38775510204082,6.57777777777778
Ecoli,mp,1,6.89285714285714,5.76918767507004,5.80357142857143,6.25490196078431
Ecoli,mp,1,6.15384615384615,13.5098684210526,7.28205128205128,9.68482905982906
Ecoli,mp,1,5.57446808510638,5.85106382978723,6.97872340425532,6.97648376259797
Ecoli,mp,1,7.1304347826087,9.28571428571428,6.78260869565217,8.1061776061776
Ecoli,mp,1,5.35087719298246,6.07207207207207,6.07017543859649,5.50877192982456
Ecoli,mp,1,5.67272727272727,7.34453781512607,5.96363636363636,9.77224736048266
Ecoli,mp,1,6.15686274509804,6.32673992673993,6.07843137254902,6.84023668639052
Ecoli,mp,1,10.4444444444444,5.81777777777777,7.05555555555556,5.86270270270269
Ecoli,mp,1,6.07843137254902,4.73361976369495,5.64705882352941,6
Ecoli,mp,1,4.80701754385965,4.54585733274258,6.14035087719298,6.09836065573771
Ecoli,mp,1,5.5,4.57407407407408,8.27272727272727,2.49338624338625
Ecoli,mp,1,7.11764705882353,6.34779516358462,5.64705882352941,9.78307254623041
Ecoli,mp,1,6.88571428571429,4.52186588921284,9.11428571428571,5.28141783029002
Ecoli,mp,1,6.97777777777778,7.80000000000002,5.08888888888889,9.71052631578947
Ecoli,mp,1,12.2258064516129,4.96363636363636,11.6774193548387,4.82575757575757
Ecoli,mp,1,5.67307692307692,6.35579196217495,7.46153846153846,7.096926713948
Ecoli,mp,1,6.32558139534884,11.5714285714286,6.46511627906977,11.9230769230769
Ecoli,mp,1,7.93939393939394,4.96296296296296,7.54545454545455,4.63271604938272
Ecoli,mp,1,4.83333333333333,5.76428571428572,5.89583333333333,5.92105263157894
Ecoli,mp,1,3.7719298245614,9.66912442396316,5.73684210526316,13.366935483871
Ecoli,mp,1,7.43589743589744,7.61363636363636,7.48717948717949,9.65151515151517
Ecoli,mp,1,4.41379310344828,5.0765977443609,6.3448275862069,7.14999999999998
Ecoli,mp,1,11.3928571428571,8.60277777777779,13.8571428571429,8.925
Ecoli,mp,1,6.11111111111111,8.48262548262548,7.24444444444444,6.50000000000002
Ecoli,mp,1,7.42222222222222,8.99999999999998,7.48888888888889,8.96356275303642
Ecoli,mp,1,6.82352941176471,5.82352941176471,8.29411764705882,5.31917211328977
Ecoli,mp,1,5.05769230769231,5.59574468085106,7.09615384615385,7.36899696048634
Ecoli,mp,1,6.84782608695652,9.05572755417955,4.54347826086957,10.0723981900452
Ecoli,mp,1,7.92307692307692,6.1179331306991,8.2051282051282,7.06438969764838
Ecoli,mp,1,7.14705882352941,7.69230769230769,10.6176470588235,9.18421052631579
Ecoli,mp,1,5.58536585365854,5.85416666666667,7.70731707317073,5.06666666666668
Ecoli,mp,1,6.16216216216216,5.40711462450591,8.89189189189189,6.52173913043477
Ecoli,mp,1,5.34042553191489,9.09090909090906,6.72340425531915,9.85945945945944
Ecoli,mp,1,6.09090909090909,9.20701754385965,7.25,10.9333333333334
Ecoli,mp,1,9.29411764705882,9.80756756756755,8.47058823529412,9.98999999999998
Ecoli,mp,1,8.6875,5.41666666666668,9.59375,7.85416666666668
Ecoli,mp,1,5.8135593220339,8.05263157894735,4.47457627118644,11.6
Ecoli,mp,1,6.47727272727273,5.58518518518519,6.06818181818182,7.71111111111111
Ecoli,mp,1,7.58536585365854,7.44812030075188,6.95121951219512,10.8285714285714
Ecoli,mp,1,5.45283018867925,5.73214285714286,6.64150943396226,6.61607142857143
Ecoli,mp,1,10.2941176470588,6.25465838509318,10.7058823529412,6.28743961352658
Ecoli,mp,1,6.70212765957447,8.36111111111111,7.63829787234043,9.03728070175439
Ecoli,mp,1,7.48837209302326,5.55143540669856,8.25581395348837,6.72727272727273
Ecoli,mp,1,6.97560975609756,5.35764705882353,6.5609756097561,6.56228571428572
Ecoli,mp,1,6.11363636363636,6.3695652173913,8.52272727272727,7
Ecoli,mp,1,5.01754385964912,7.89800443458979,5.64912280701754,8.88639281129653
Ecoli,mp,1,8.58536585365854,7.56361149110809,6.04878048780488,8.27906976744186
Ecoli,mp,1,5.78723404255319,7.31428571428572,5.27659574468085,7.68571428571429
Ecoli,mp,1,7.44444444444444,13.4926315789473,8.66666666666667,10.8411428571429
Ecoli,mp,1,7.61363636363636,5.87272727272728,6.54545454545455,5.36935064935066
Ecoli,mp,1,6.67441860465116,9.275,8.41860465116279,8.175
Ecoli,mp,1,7.32558139534884,5.05418719211824,8.34883720930233,4.70689655172414
Ecoli,mp,1,11.5,7.02024291497974,12.8214285714286,7.17159763313608
Ecoli,mp,1,7.97674418604651,5.9728997289973,6.34883720930233,8.31571815718159
Ecoli,mp,1,10.037037037037,6.0390977443609,13.7777777777778,6.70476190476192
Ecoli,mp,1,7.05,6.68055555555557,9.3,7.20864661654135
Ecoli,mp,1,7.36170212765957,4.85106382978723,7.25531914893617,7.04255319148936
Ecoli,mp,1,4.69090909090909,6.29563492063493,7.14545454545455,4.65830115830116
Ecoli,mp,1,6.15,5.5817142857143,8.125,7.39999999999999
Ecoli,mp,1,3.68333333333333,6.53393351800554,5.46666666666667,9.25
Ecoli,mp,1,7.1025641025641,5.99747474747474,8,6.10714285714287
Ecoli,mp,1,9.3421052631579,5.0388655462185,8.47368421052632,6.45112781954887
Ecoli,mp,1,7.625,8.62535612535612,7.10416666666667,8.56410256410256
Ecoli,mp,1,4.390625,10.09375,4.90625,11.7193277310925
Ecoli,mp,1,5.32608695652174,5.62244897959185,7.47826086956522,6.07234432234432
Ecoli,mp,1,6.525,6.40753911806543,6.975,8.24324324324324
Ecoli,mp,1,5.93617021276596,6.36058700209645,6.78723404255319,6.07547169811321
Ecoli,mp,1,6.75609756097561,11.4027149321267,8.24390243902439,8.06837606837608
Ecoli,mp,1,5.6046511627907,15.0496240601504,6.65116279069767,17.3684210526316
Ecoli,mp,1,7.6304347826087,6.44688874921433,7.3695652173913,7.8686360779384
Ecoli,mp,1,7.02777777777778,5.80102915951972,8.83333333333333,7.35960044395118
Ecoli,mp,1,5.37254901960784,7.28222996515681,6.37254901960784,7.69981238273921
Ecoli,mp,1,6.18918918918919,9.40015479876159,9.08108108108108,9.20906200317962
Ecoli,mp,1,4.90384615384615,7.35545500251383,4.71153846153846,6.85076252723313
Ecoli,mp,1,7.62790697674419,6.11565739225314,7.81395348837209,7.72340425531915
Ecoli,mp,1,7.36842105263158,5.42783882783886,7.44736842105263,7.32118758434551
Ecoli,mp,1,5.79545454545455,5.77817531305903,7.36363636363636,9.03675918979742
Ecoli,mp,1,6.66666666666667,8.22857142857143,5.91666666666667,8.52782193958663
Ecoli,mp,1,7.30555555555556,5.18205349439172,6.02777777777778,3.61734253666954
Ecoli,mp,1,5.85365853658537,5.45161290322581,7.90243902439024,5.80506912442398
Ecoli,mp,1,8.57575757575758,5.98076923076923,10.9090909090909,5.60108481262328
Ecoli,mp,1,5.30612244897959,5.37500000000001,6.44897959183673,4.95833333333334
Ecoli,mp,1,7.4468085106383,4.55698529411765,7.68085106382979,4.65363777089783
Ecoli,mp,1,7.83333333333333,8.50813008130083,9.4,7.92682926829268
Ecoli,mp,1,6.2037037037037,8.32436974789918,5.7962962962963,10.6819852941176
Ecoli,mp,1,9.44444444444444,6.95348837209303,9.5,9.11750305997552
Ecoli,mp,1,4.41818181818182,5.8357142857143,6.34545454545455,6.4375
Ecoli,mp,1,14.9583333333333,8.46710526315789,12.5416666666667,7.7828947368421
Ecoli,mp,1,6.1,5.55360623781676,5.26666666666667,6.38888888888889
Ecoli,mp,1,6.875,9.02266009852219,5.39583333333333,9.54199823165341
Ecoli,mp,1,7.68181818181818,7.24848484848484,7.63636363636364,6.66666666666667
Ecoli,mp,1,4.05882352941176,9.24324324324324,6.58823529411765,12.3214285714286
Ecoli,mp,1,3.98076923076923,5.9622641509434,4.75,4.55379908210097
Ecoli,mp,1,9.81578947368421,5.88372093023256,8.47368421052632,6.96205630354956
Ecoli,mp,1,5,8.85898617511521,6.68,10.1836228287841
Ecoli,mp,1,7.11111111111111,9.26227795193311,8.17777777777778,8.89249492900611
Ecoli,mp,1,5.93617021276596,12.6795918367347,6.57446808510638,8.5575396825397
Ecoli,mp,1,8.65,6.67588235294119,5.8,6.99891891891892
Ecoli,mp,1,7.08571428571429,7.76904761904763,9.85714285714286,9.34285714285714
Ecoli,mp,1,12.1304347826087,5.20498084291189,15.3478260869565,5.22318007662836
Ecoli,mp,1,5.65,7.04240766073873,6.13333333333333,7.02906976744187
Ecoli,mp,1,5.87234042553191,5.14423076923076,4.02127659574468,5.52364864864863
Ecoli,mp,1,13.625,5.07405247813412,14.4583333333333,6.16099773242631
Ecoli,mp,1,10.1944444444444,7.61764705882355,9.27777777777778,7.08888888888889
Ecoli,mp,1,5.72727272727273,6.01458966565349,6,7.15136778115501
Ecoli,mp,1,5.07017543859649,9.66764705882355,6.52631578947368,9.65
Ecoli,mp,1,8.67441860465116,8.125,7.37209302325581,7.44078947368421
Ecoli,mp,1,5.65079365079365,6.06459330143541,3.73015873015873,4.29090909090909
Ecoli,mp,1,11.4242424242424,6.90384615384614,9.48484848484848,7.25
Ecoli,mp,1,4.79661016949153,4.66037735849057,5.67796610169492,7.14824797843668
Ecoli,mp,1,7,7.58333333333335,7.15909090909091,7.88642659279778
Ecoli,mp,1,6.21153846153846,8.79629629629631,6.36538461538461,8.9009009009009
Ecoli,mp,1,9.83333333333333,7.18181818181818,10.2666666666667,7.009828009828
Ecoli,mp,1,6.57446808510638,5.16666666666668,7,7.13461538461539
Ecoli,mp,1,11,6.84789915966387,11.6451612903226,8.06638655462185
Ecoli,mp,1,4.86363636363636,5.21679125934444,4.6969696969697,6.32922732362821
Ecoli,mp,1,6.575,5.56203544882789,8.425,4.37542331881955
Ecoli,mp,1,5.8974358974359,7.64720496894412,7.69230769230769,7.13823857302118
Ecoli,mp,1,8.55555555555556,6.97641025641026,11.4444444444444,6.77666666666668
Ecoli,mp,1,8.73170731707317,7.34567901234567,9.02439024390244,5.46783625730993
Ecoli,mp,1,7.5625,4.63235294117647,11.53125,7.57189542483656
Ecoli,mp,1,7.15094339622642,9.02321428571434,6.47169811320755,8.32601351351354
Ecoli,mp,1,7.20454545454545,8.67565359477126,6.95454545454545,8.17731092436977
Ecoli,mp,1,4.77049180327869,4.53194444444445,5.01639344262295,6.05428571428573
Ecoli,mp,1,6.57575757575758,6.58384332925337,9.15151515151515,5.33170134638924
Ecoli,mp,1,8.925,4.67090620031796,9.1,5.37418300653596
Ecoli,mp,1,10.2424242424242,8.38636363636364,10.9393939393939,7.55741626794258
Ecoli,mp,1,4.03846153846154,8.94166666666667,3.35897435897436,8.32500000000002
Ecoli,mp,1,7.08571428571429,8.25882352941181,8.91428571428571,9.94736842105266
Ecoli,mp,1,6.03448275862069,5.06666666666668,4.94827586206897,5.49230769230769
Ecoli,mp,1,5.8695652173913,9.25000000000002,6.39130434782609,7.20512820512821
Ecoli,mp,1,5.56603773584906,6.03703703703704,3.62264150943396,5.50050050050049
Ecoli,mp,1,7.10416666666667,7.62539283469514,6.45833333333333,7.46511627906977
Ecoli,mp,1,8.78378378378378,8.78750000000002,8.32432432432432,10.1089743589744
Ecoli,mp,1,4.76923076923077,7.00000000000001,5.88461538461539,8.4054054054054
Ecoli,mp,1,4.89473684210526,5.26461988304094,5.26315789473684,4.69172932330828
Ecoli,mp,1,8.38636363636364,6.05587301587303,5.63636363636364,6.68317460317462
Ecoli,mp,1,7.38235294117647,5.63671875,9.79411764705882,8.34007352941178
Ecoli,mp,1,6.09615384615385,9.5483870967742,5.42307692307692,10.553480475382
Ecoli,mp,1,5.8936170212766,6.79714285714287,5.82978723404255,7.32
Ecoli,mp,1,10.4193548387097,5.42367066895367,11.3548387096774,4.35551142005957
Ecoli,mp,1,5,5.80744544287548,5.35185185185185,7.77282229965159
Ecoli,mp,1,11.2,7.21771771771773,10.6333333333333,8.94594594594595
Ecoli,mp,1,9.325,5.10582750582751,7.15,3.91404958677685
Ecoli,mp,1,7.41176470588235,4.81481481481481,9.32352941176471,6.41203703703703
Ecoli,mp,1,4.27777777777778,6.37553418803417,6.98148148148148,5.6105324074074
Ecoli,mp,1,4.44230769230769,14.3453453453453,6.25,12.9159159159159
Ecoli,mp,1,10.2903225806452,7.21014892443464,10.6774193548387,5.80638409209838
Ecoli,mp,1,9.25,7.2058823529412,8.08333333333333,7.08108108108108
Ecoli,mp,1,6.0188679245283,5.81912681912681,5.26415094339623,7.37740384615383
Ecoli,mp,1,7.40476190476191,5.60897435897434,7.30952380952381,7.82894736842103
Ecoli,mp,1,11.4516129032258,4.24132730015083,7.96774193548387,4.45625942684766
Ecoli,mp,1,6.48,6.98639455782314,6.1,8.35714285714283
Ecoli,mp,1,5.9811320754717,8.03030303030303,4.79245283018868,8.93366093366092
Ecoli,mp,1,5.21739130434783,11,7.17391304347826,9.54545454545451
Ecoli,mp,1,9.43333333333333,6.28267477203649,9.86666666666667,6.38297872340426
Ecoli,mp,1,9.33333333333333,7.23076923076923,9.61111111111111,7.78586278586276
Ecoli,mp,1,6.3,8.6015037593985,6.325,5.83333333333333
Ecoli,mp,1,5.59259259259259,5.83651944627554,6.98148148148148,8.21621621621621
Ecoli,mp,1,6.74545454545455,5.38738738738739,5.23636363636364,4.95795795795796
Ecoli,mp,1,4.3469387755102,8.23919753086421,6.91836734693878,8.36111111111111
Ecoli,mp,1,4.47058823529412,5.56370656370657,6.25490196078431,6.86344537815129
Ecoli,mp,1,5.48076923076923,6.26212590299278,5.01923076923077,5.49019607843137
Ecoli,mp,1,9.08823529411765,9.97368421052631,10.7058823529412,6.73684210526316
Ecoli,mp,1,9.59459459459459,6.61921296296298,5.56756756756757,6.57692307692308
Ecoli,mp,1,5.40425531914894,4.95857699805069,7.27659574468085,6.46959064327484
Ecoli,mp,1,3.90140845070423,5.89814814814816,4.95774647887324,5.68253968253968
Ecoli,mp,1,5.73170731707317,7.99222999222998,7.04878048780488,9.18758434547908
Ecoli,mp,1,7.97142857142857,6.7588932806324,7.25714285714286,7.91304347826087
Ecoli,mp,1,9,7.34432870370372,8.7027027027027,7.32291666666667
Ecoli,mp,1,7.22727272727273,5.55072463768116,5.81818181818182,5.43664065403196
Ecoli,mp,1,5.82456140350877,8.28921568627453,4.42105263157895,8.39031339031339
Ecoli,mp,1,7.63157894736842,6.52304964539008,8.8421052631579,4.37943262411348
Ecoli,mp,1,6.18604651162791,8.04015444015444,6.51162790697674,9.9825396825397
Ecoli,mp,1,6.14893617021277,8.40136054421771,5.87234042553191,7.0952380952381
Ecoli,mp,1,5.52380952380952,7.62637362637361,7.76190476190476,7.16483516483515
Ecoli,mp,1,4.60655737704918,6.97101449275362,5.0655737704918,6.31987577639753
Ecoli,mp,1,5.38636363636364,5.9357142857143,6.65909090909091,6.30405405405405
Ecoli,mp,1,6.31372549019608,4.61083743842366,5.6078431372549,6.08711433756806
Ecoli,mp,1,7.70588235294118,9.35413533834589,9.26470588235294,9.1578947368421
Ecoli,mp,1,6.88888888888889,5.67836812144214,6.84444444444444,4.62304147465439
Ecoli,mp,1,4.03508771929825,3.86440677966102,5.26315789473684,6.03389830508475
Ecoli,mp,1,8.26086956521739,4.15566502463055,6.97826086956522,6.48275862068965
Ecoli,mp,1,4.35849056603774,8.28869778869779,6.41509433962264,9.98462566844922
Ecoli,mp,1,4.89795918367347,4.82258064516129,7.69387755102041,5.62728857890148
Ecoli,mp,1,8.40476190476191,5.51234567901236,7.57142857142857,6.59135802469137
Ecoli,mp,1,7.8125,10.9391304347826,6.45833333333333,14.9342251950947
Ecoli,mp,1,10.3703703703704,6.13605442176873,10.1481481481481,4.78911564625852
Ecoli,mp,1,4.33962264150943,13.0392156862745,5.41509433962264,10.8292181069959
Ecoli,mp,1,11.8965517241379,8.33855799373038,8.96551724137931,10.959925442684
Ecoli,mp,1,4.40740740740741,7.90701219512195,5.37037037037037,8.00609756097562
Ecoli,mp,1,5.82926829268293,5.14285714285715,6.78048780487805,5.10209790209789
Ecoli,mp,1,8.53125,5.32380952380954,5.25,7.01851851851852
Ecoli,mp,1,4.69387755102041,15.6826625386998,6.95918367346939,16.4255639097745
Ecoli,mp,1,5.94871794871795,4.08730158730158,7.69230769230769,4.76190476190476
Ecoli,mp,1,4.32258064516129,7.8441231929604,4.32258064516129,8.44186046511628
Ecoli,mp,1,6.09756097560976,4.73469387755102,7.60975609756098,7.33590733590733
Ecoli,mp,1,6.13513513513514,5.79258328095536,8.51351351351351,4.80858676207513
Ecoli,mp,1,5.40384615384615,9.16599190283401,6.61538461538461,9.74898785425102
Ecoli,mp,1,8.02564102564103,8.29365079365081,8.43589743589744,11.8497959183674
Ecoli,mp,1,3.86764705882353,5.06992706992707,4.47058823529412,4.64607464607464
Ecoli,mp,1,5.27450980392157,6.29800221975584,5.56862745098039,6.85390835579517
Ecoli,mp,1,4.80357142857143,7.57819225251078,5.23214285714286,4.40243902439025
Ecoli,mp,1,4.55357142857143,9.76973684210528,6.57142857142857,9.0357142857143
Ecoli,mp,1,10.9090909090909,5.55555555555555,9.66666666666667,5.75438596491227
Ecoli,mp,1,10.1764705882353,7.87669172932329,7.14705882352941,10.2586466165413
Ecoli,mp,1,6.69565217391304,6.37058823529413,6.58695652173913,10.4228571428572
Ecoli,mp,1,5.78846153846154,6.80872913992298,6.59615384615385,5.83943089430895
Ecoli,mp,1,9.23076923076923,17.6917293233083,12.8076923076923,13
Ecoli,mp,1,10.1315789473684,7.22368421052632,6.94736842105263,5.88461538461538
Ecoli,mp,1,8.54545454545454,9.48717948717949,8.02272727272727,7.60526315789474
Ecoli,mp,1,3.71232876712329,10.3746031746032,4.21917808219178,11.5395918367347
Ecoli,mp,1,4.69811320754717,5.54385964912281,6.0377358490566,4.60881934566144
Ecoli,mp,1,8.68965517241379,5.11538461538461,12.1724137931034,6.2396449704142
Ecoli,mp,1,9.45714285714286,7.08510638297874,10.4285714285714,6.62084015275505
Ecoli,mp,1,6.02083333333333,13.4285714285714,6.9375,14.1203703703704
Ecoli,mp,1,6.30769230769231,10.2521994134897,9.41025641025641,12.258064516129
Ecoli,mp,1,8.18181818181818,6.35294117647059,9.03030303030303,7.52173913043478
Ecoli,mp,1,4.32692307692308,10.2702702702703,5.96153846153846,10.5591216216216
Ecoli,mp,1,9.24137931034483,8.72922776148581,12.551724137931,10.7340889276373
Ecoli,mp,1,4,5.88372093023256,5.53703703703704,5
Ecoli,mp,1,6.43181818181818,9.58230958230958,8.65909090909091,8.60606060606061
Ecoli,mp,1,6.91666666666667,4.7329093799682,10.75,7.60457516339871
Ecoli,mp,1,9.3421052631579,6.30698005698005,7.05263157894737,7.81011781011779
Ecoli,mp,1,6.64285714285714,7.75138504155125,7.71428571428571,7.04916897506925
Ecoli,mp,1,6.16,4.68115942028986,5.96,4.60869565217391
Ecoli,mp,1,5.53488372093023,5.1198208286674,6.76744186046512,5.40310523289246
Ecoli,mp,1,10.2413793103448,4.85901639344264,8.3448275862069,6.94145199063234
Ecoli,mp,1,4.85964912280702,4.84111221449851,6.40350877192982,5.46077457795432
Ecoli,mp,1,7.65116279069767,8.14040816326531,6.93023255813953,9.07252747252746
Ecoli,mp,1,9.09375,6.75672295184491,8.875,6.84349593495936
Ecoli,mp,1,5,9.54679802955665,7.36734693877551,8.27203065134099
Ecoli,mp,1,5.2,7.73648648648651,8.35555555555556,12.4632352941177
Ecoli,mp,1,7.48648648648649,7.9814189189189,9.62162162162162,9.00904605263156
Ecoli,mp,1,6.66666666666667,6.1654411764706,7.64583333333333,6.79934210526316
Ecoli,mp,1,6.2,7.02272727272727,6.55,6.77622377622378
Ecoli,mp,1,6.2,9.85294117647059,4.53333333333333,8.61996904024768
Ecoli,mp,1,12.8333333333333,5.85876010781673,9.46666666666667,6.71698113207547
Ecoli,mp,1,9.4390243902439,5.1920972644377,9.31707317073171,6.52911534154535
Ecoli,mp,1,5.40816326530612,9.68,6.36734693877551,11.0652631578947
Ecoli,mp,1,7.975,7.52257181942546,7.725,6.79006913890635
Ecoli,mp,1,6.30232558139535,9.17477477477477,7.65116279069767,9.77606837606838
Ecoli,mp,1,8.7027027027027,6.05828571428573,9.54054054054054,6.81625
Ecoli,mp,1,7.45098039215686,7.13194444444446,6.96078431372549,6.05098684210526
Ecoli,mp,1,6.33333333333333,5.45054945054944,6.94871794871795,7.96240601503758
Ecoli,mp,1,4.3125,7.32071428571431,5.390625,8.76180555555557
Ecoli,mp,1,5.48717948717949,7.33508771929825,5.51282051282051,12.4333333333333
Ecoli,mp,1,6.26829268292683,7.42464040025016,8.12195121951219,5.60350218886804
Ecoli,mp,1,9.25806451612903,6.34263157894737,11.1290322580645,4.53818181818181
Ecoli,mp,1,4.21212121212121,11.0481481481482,4.84848484848485,9.64074074074076
Ecoli,mp,1,6.34146341463415,7.04861111111111,8.85365853658537,7.28207236842103
Ecoli,mp,1,5.16923076923077,6.63636363636364,3.61538461538462,6.45454545454545
Ecoli,mp,1,4.56451612903226,7.43243243243243,5.12903225806452,8.76923076923077
Ecoli,mp,1,8.17948717948718,10.7747747747748,8.33333333333333,10.5555555555556
Ecoli,mp,1,4.95744680851064,9.76145710928319,5.08510638297872,17.6630434782609
Ecoli,mp,1,7.51612903225806,13.4398496240601,11.6774193548387,15.3333333333333
Ecoli,mp,1,9.45161290322581,5.65752741774677,11.2903225806452,6.25133171912834
Ecoli,mp,1,5.04,7.85054945054947,4.56,8.76923076923077
Ecoli,mp,1,4.625,8.55555555555556,6.66666666666667,6.90857142857145
Ecoli,mp,1,5.36,4.3906882591093,4.7,4.92307692307692
Ecoli,mp,1,6.53658536585366,5.21052631578946,8.87804878048781,7.41418764302058
Ecoli,mp,1,6.21428571428571,5.55480519480521,7.21428571428571,3.19545454545455
Ecoli,mp,1,13.1481481481481,15.1578947368421,11.5925925925926,15.3809523809524
Ecoli,mp,1,4.84210526315789,5.14155982905983,6.28070175438596,5.42004048582995
Ecoli,mp,1,5.01666666666667,6.24489795918366,5.86666666666667,5.6530612244898
Ecoli,mp,1,8.21428571428571,10.1691368788143,3.83333333333333,8.87344913151363
Ecoli,mp,1,9.81481481481481,6.17500000000001,12.3333333333333,7.275
Ecoli,mp,1,6.72916666666667,4.77046783625731,6.45833333333333,6.96732026143792
Ecoli,mp,1,4.54545454545455,6.64512820512821,7.12727272727273,5.65128205128205
Ecoli,mp,1,6.07407407407407,7.49686411149829,6.48148148148148,7.30581613508444
Ecoli,mp,1,6.76470588235294,5.98564593301434,7.26470588235294,6.98601398601397
Ecoli,mp,1,5.51111111111111,12.6578947368421,7.31111111111111,12.7037037037037
Ecoli,mp,1,11.0714285714286,10.346372688478,11.4285714285714,9.66216216216218
Ecoli,mp,1,5.67391304347826,6.1578947368421,6.43478260869565,7.7828947368421
Ecoli,mp,1,9.56410256410256,4.73469387755102,8.28205128205128,5.6530612244898
Ecoli,mp,1,6.84444444444444,11.5227272727273,3.86666666666667,15.2664473684211
Ecoli,mp,1,5.78571428571429,5.62573099415205,6.88095238095238,7.19444444444446
Ecoli,mp,1,6.78378378378378,5.66447368421053,6.83783783783784,7.06250000000001
Ecoli,mp,1,5.15555555555556,5.46969696969698,5.95555555555556,8.45454545454546
Ecoli,mp,1,7.31707317073171,10.033264033264,3.92682926829268,9.07692307692308
Ecoli,mp,1,7.16666666666667,5.88127294981642,7.61111111111111,5.57259585166564
Ecoli,mp,1,8.7948717948718,6.2156862745098,8.48717948717949,6.42533936651582
Ecoli,mp,1,4.87037037037037,9.35440613026822,4.81481481481481,10.2139699381079
Ecoli,mp,1,6.26315789473684,8.48170731707319,4.70175438596491,8.78626444159178
Ecoli,mp,1,5.82608695652174,4.22966507177032,6.04347826086957,4.94736842105263
Ecoli,mp,1,5.58695652173913,7.19512195121951,6.32608695652174,6.92276422764229
Ecoli,mp,1,9.48148148148148,5.49145063430778,10.1111111111111,7.51020408163265
Ecoli,mp,1,10.2916666666667,8.40179717586647,14.5,8.20825515947465
Ecoli,mp,1,5.78571428571429,7.36175710594317,6.85714285714286,8.62671437090042
Ecoli,mp,1,6.8695652173913,7.18918918918919,6.54347826086957,10.3023648648649
Ecoli,mp,1,8.39285714285714,6.24080882352941,12.9642857142857,5.72115384615383
Ecoli,mp,1,5.86363636363636,5.84444444444444,7.20454545454545,7.91951951951952
Ecoli,mp,1,7.025,7.57894736842105,6.975,8.95238095238097
Ecoli,mp,1,8.02941176470588,7.45328185328185,9.23529411764706,10.0816326530613
Ecoli,mp,1,5.36538461538461,6.4423076923077,5.80769230769231,6.70945945945947
Ecoli,mp,1,5.38095238095238,4.74586466165414,7.16666666666667,5.05263157894736
Ecoli,mp,1,7.68181818181818,6.32432432432432,6.13636363636364,8.4
Ecoli,mp,1,3.88235294117647,7.80555555555557,3.58823529411765,8.60606060606059
Ecoli,mp,1,7.30769230769231,4.50666666666667,9.38461538461539,6.80333333333335
Ecoli,mp,1,6.86363636363636,4.88605442176872,5.56818181818182,4.06802721088436
Ecoli,mp,1,8.10869565217391,7.16756756756757,5.91304347826087,8.23333333333333
Ecoli,mp,1,5.20408163265306,6.37270501835985,7.02040816326531,8.57950974230044
Ecoli,mp,1,12,9.79966044142615,12.2307692307692,10.9124423963134
Ecoli,mp,1,5.7037037037037,6.66550116550117,5.35185185185185,6.5
Ecoli,mp,1,9.34615384615385,7.5,9.88461538461539,10.0277777777778
Ecoli,mp,1,7.42,9.15263157894737,5.98,11.6059829059829
Ecoli,mp,1,6.29545454545455,7.20701754385965,7.72727272727273,8.34476190476192
Ecoli,mp,1,11.5806451612903,6.29787234042553,8.09677419354839,8.29787234042552
Ecoli,mp,1,8.325,8.66842105263156,8.05,7.925
