Isos,Libs,Reads,Est16S,Est16Sgc,Est23S,Est23Sgc
MEB024,tru,1,3.35012594458438,3.01760696705793,3.42317380352645,4.09928057553957
MEB024,tru,1,4.91703056768559,3.33680269870002,5.50218340611354,2.35537190082645
MEB024,tru,1,5.39676113360324,1.9469405220368,6.04453441295547,2.00698747528016
MEB024,tru,1,4.41025641025641,2.48054919908467,3.73992673992674,2.14275340881586
MEB024,tru,1,6.05882352941176,5.51281235801907,5.21176470588235,2.02022151814478
MEB024,tru,1,4.814332247557,3.25598684210526,5.05211726384365,3.61028571428572
MEB024,tru,1,4.72491909385113,2.21467670201848,3.51456310679612,1.9856068176771
MEB024,tru,1,5.98543689320388,2.53811782877317,6.72815533980583,2.84015498231746
MEB024,tru,1,3.13702623906706,3.51456310679612,3.31778425655977,3.49271844660194
MEB024,tru,1,6.47325102880658,2.52216131064902,6.16049382716049,2.98848426461143
MEB024,tru,1,7.89795918367347,3.88038818105701,7.29591836734694,5.08287107479603
MEB024,tru,1,3.82474226804124,3.04358108108108,4.06185567010309,2.65621966019418
MEB024,tru,1,5.87213114754098,3.12295432014032,4.08524590163934,2.87119746790927
MEB024,tru,1,3.79285714285714,2.4693620414673,3.87857142857143,2.00168155543878
MEB024,tru,1,6.33684210526316,2.5647551947244,5.84210526315789,3.30739893211289
MEB024,tru,1,4.90530303030303,3.22015158188358,5.34469696969697,2.78775566143452
MEB024,tru,1,4.4,2.68559078856562,6.225,2.4069027739548
MEB024,tru,1,4.05056179775281,4.89532457188371,4.08707865168539,5.1581998474447
MEB024,tru,1,3.27714285714286,2.78543407089637,3.25428571428571,1.83199549887472
MEB024,tru,1,5.38931297709924,2.67783960890368,4.9236641221374,2.41248372135529
MEB024,tru,1,6.06222222222222,2.68887305157444,8.01777777777778,2.68149705751721
MEB024,tru,1,4.95483870967742,2.40853080568721,4.30967741935484,2.32074706909454
MEB024,tru,1,3.5748502994012,5.41892473118279,3.55988023952096,4.83522157996146
MEB024,tru,1,6,3.50694556354143,5.53777777777778,3.10950093625336
MEB024,tru,1,6.74347826086957,2.58213784718975,5.97391304347826,2.1682777095658
MEB024,tru,1,8.95348837209302,2.96314536649429,8.69186046511628,3.15676065245848
MEB024,tru,1,3.90104166666667,2.41855220721629,3.09895833333333,2.93913136499786
MEB024,tru,1,4.32142857142857,2.42411933527751,5.36071428571429,2.73135675600611
MEB024,tru,1,6.1734693877551,4.6852080032858,6.94897959183673,4.56186208613393
MEB024,tru,1,3.94086021505376,2.81088377379937,3.94354838709677,2.57579904578155
MEB024,tru,1,6.93301435406699,3.60480824901436,7.88038277511962,2.93278376664553
MEB024,tru,1,5.80861244019139,3.24683544303797,6.45933014354067,3.50729948150508
MEB024,tru,1,3.45705521472393,2.85887195429098,5.20245398773006,2.40839485917419
MEB024,tru,1,5.19127516778523,3.60576040391677,5.15771812080537,4.61035036719706
MEB024,tru,1,3.47701149425287,2.44065045537888,3.91379310344828,2.36567930797515
MEB024,tru,1,3.71474358974359,2.68984962406015,4.36858974358974,2.79355400696864
MEB024,tru,1,5.64485981308411,3.27644498431016,7.18691588785047,3.28443477910676
MEB024,tru,1,4.06567164179104,6.04651162790698,4.61492537313433,6.072842590813
MEB024,tru,1,4.39677419354839,2.83984763800628,4.31290322580645,3.49947743337276
MEB024,tru,1,4.71608832807571,2.89009210853871,4.18611987381703,2.17408177408177
MEB024,tru,1,5.89583333333333,2.64115318784767,6.94583333333333,2.20872331596662
MEB024,tru,1,5.78193146417445,2.75410087719298,4.95327102803738,2.64080097087379
MEB024,tru,1,4.25206611570248,3.99877523998676,5.87190082644628,5.26059299191375
MEB024,tru,1,4.92796610169492,3.02081294943526,5.78813559322034,3.32351545782864
MEB024,tru,1,5.69314079422383,2.51334418756106,4.69314079422383,2.34029389870696
MEB024,tru,1,3.36176470588235,2.27367442770495,3.92647058823529,3.11908199944699
MEB024,tru,1,4.98239436619718,4.07498679809892,4.41197183098592,3.53351752217536
MEB024,tru,1,3.7375,3.25281033245635,4.1,3.33054293231285
MEB024,tru,1,7.52083333333333,2.49283625730994,7.16666666666667,2.7517180475273
MEB024,tru,1,6.38967136150235,2.37949197444289,6.35680751173709,2.99690446039118
MEB024,tru,1,7.53370786516854,3.20148364739008,8.37078651685393,1.76002448729722
MEB024,tru,1,8.35928143712575,2.88565646946792,9.2874251497006,2.95088310106402
MEB024,tru,1,7.85340314136126,3.56960700974302,8.18848167539267,3.62115788710963
MEB024,tru,1,9.31756756756757,2.96918997496433,8.04054054054054,2.69519106160905
MEB024,tru,1,5.46484375,3.05305474095796,6.94140625,3.22303681981101
MEB024,tru,1,3.75964391691395,3.07046183423647,4.6053412462908,2.68592252005478
MEB024,tru,1,5.39473684210526,2.51980295566503,5.11278195488722,1.91465400902787
MEB024,tru,1,6.58189655172414,2.75699772289368,6.17241379310345,2.77593352883675
MEB024,tru,1,5.4188679245283,2.45133834957444,5.42641509433962,2.65604471919578
MEB024,tru,1,4.50191570881226,4.51850422284102,5.32950191570881,3.42027760163461
MEB024,tru,1,4.80677966101695,2.49728070175439,4.77627118644068,1.91178489702517
MEB024,tru,1,4.4,2.98622151563328,4.36538461538461,3.76765760067467
MEB024,tru,1,5.33067729083665,3.38000000000001,4.13545816733068,3.30892448512587
MEB024,tru,1,4.26038781163435,3.77459379276244,2.9612188365651,4.11498726774528
MEB024,tru,1,8.03030303030303,3.32991803278689,12.469696969697,3.03190551736294
MEB024,tru,1,2.93120393120393,1.88326333660977,4.42014742014742,1.85020036037974
MEB024,tru,1,4.68666666666667,2.65491600857554,3.39666666666667,3.12907306539465
MEB024,tru,1,6.18048780487805,3.27782365354619,7.25853658536585,3.35381464413722
MEB024,tru,1,3.81481481481481,3.40076381429765,3.51851851851852,3.3077932927557
MEB024,tru,1,6.36842105263158,2.12008856005829,6.89952153110048,2.36144111169701
MEB024,tru,1,5.66789667896679,3.07258830305578,4.91143911439114,2.48311969415866
MEB024,tru,1,4.12131147540984,3.85385385385385,4.72786885245902,4.04025647268891
MEB024,tru,1,4.42811501597444,4.06516714082505,5.63258785942492,3.21255045215348
MEB024,tru,1,6.40650406504065,4.14764473211075,5.41463414634146,3.43760793548847
MEB024,tru,1,4.62162162162162,2.23416409751548,6.49099099099099,2.31140075895067
MEB024,tru,1,3.74609375,3.09099423058233,6,3.33416426134873
MEB024,tru,1,6.47115384615385,2.16988374915177,7.37980769230769,2.72846125596768
MEB024,tru,1,3.37270341207349,2.67916712998999,3.36745406824147,3.00728844169247
MEB024,tru,1,5.56106870229008,3.41187453014895,2.93893129770992,3.19247577427323
MEB024,tru,1,3.44984802431611,2.27098569157393,3.52279635258359,2.05094239964417
MEB024,tru,1,4.56589147286822,2.4907233019435,4.39147286821705,2.58878157948276
MEB024,tru,1,4.0084985835694,3.55966794669076,3.23512747875354,3.76190871752272
MEB024,tru,1,3.6448275862069,3.02154721875905,3.52413793103448,3.24107327141383
MEB024,tru,1,7.84558823529412,2.0130095770828,11.3602941176471,2.53400711924739
MEB024,tru,1,5.13503649635036,2.79201422124983,4.68248175182482,3.72616753150482
MEB024,tru,1,3.91582491582492,5.57451754385965,4.78114478114478,4.25000762776506
MEB024,tru,1,3.67901234567901,2.72373895904811,4.41358024691358,3.09661436829067
MEB024,tru,1,4.48971193415638,2.7253039196595,5.93004115226337,2.32595909856864
MEB024,tru,1,5.31313131313131,3.568171416684,4.3973063973064,3.56038277511962
MEB024,tru,1,4.47213114754098,2.89748427672956,3.60983606557377,3.40656239655743
MEB024,tru,1,5.36619718309859,2.26652892561984,4.50704225352113,2.54126213592233
MEB024,tru,1,2.98857142857143,2.86357994041709,4.07714285714286,3.4298827129016
MEB024,tru,1,4.43312101910828,3.14388334703369,4.62738853503185,3.44408950133973
MEB024,tru,1,7.41758241758242,3.11344833656046,8.2032967032967,3.3358636977058
MEB024,tru,1,5.42857142857143,2.89912987879461,5.38327526132404,2.66220218064342
MEB024,tru,1,4.34615384615385,2.71869266751716,5.22377622377622,2.93262464069779
MEB024,tru,1,5.76126126126126,1.85084091535705,4.78378378378378,1.89899078800681
MEB024,tru,1,4.0258064516129,2.3048230504228,5.15806451612903,1.97122637487566
MEB024,tru,1,8.74436090225564,2.45886060203997,11.8796992481203,2.81108872368513
MEB024,tru,1,9.03743315508021,2.95205479452055,7.25668449197861,3.48858447488584
MEB024,tru,1,4.02614379084967,2.46152602175831,3.45751633986928,2.90697422959092
MEB024,tru,1,4.88888888888889,2.56490114174325,4.58585858585859,2.74168975069252
MEB024,tru,1,4.64321608040201,3.07281766678228,6.77386934673367,3.1511363729567
MEB024,tru,1,3.6866485013624,2.86849786934689,3,2.71856833466317
MEB024,tru,1,8.72327044025157,2.5522010547842,8.92452830188679,2.35690219146158
MEB024,tru,1,9.20710059171598,2.79338345864662,10.2307692307692,2.1421508974749
MEB024,tru,1,5.79457364341085,3.46728483381026,5.95348837209302,3.08666304804595
MEB024,tru,1,8.5,3.08177636035223,8.16091954022989,3.01752652969068
MEB024,tru,1,5.71428571428571,3.16134397499581,6.08333333333333,3.10525199531171
MEB024,tru,1,4.75528700906344,2.24132864899393,4.41993957703928,2.29198308180333
MEB024,tru,1,4.85130111524164,4.73671556169526,5.6728624535316,3.36751818012306
MEB024,tru,1,6.34070796460177,2.29186713278645,6.1283185840708,2.96143411118267
MEB024,tru,1,5.80081300813008,5.31091331269352,6.17073170731707,4.2409476376363
MEB024,tru,1,3.90136054421769,2.8013048347047,4.32993197278912,2.00286967572664
MEB024,tru,1,4.43478260869565,4.48850339252345,4.49378881987578,4.20117214433464
MEB024,tru,1,5.88235294117647,3.65330442195781,5.13445378151261,3.69634340222576
MEB024,tru,1,7.1588785046729,3.26846821667511,5.3785046728972,3.92754205460548
MEB024,tru,1,5.34868421052632,3.13589932360926,4.21052631578947,3.61762046955045
MEB024,tru,1,4.66769230769231,2.38700618452606,4.08923076923077,2.01025576014959
MEB024,tru,1,4.2,1.57606107297941,3.60547945205479,2.27876895628903
MEB024,tru,1,3.52063492063492,4.73676007403319,3.39047619047619,2.95208283905926
MEB024,tru,1,5.20802919708029,2.8,5.21532846715328,2.63798627002288
MEB024,tru,1,3.87414965986395,2.47659692700953,4.03061224489796,2.76668026655787
MEB024,tru,1,6.25531914893617,4.05904913799651,5.67234042553191,3.98779144831776
MEB024,tru,1,4.48015873015873,2.46945438028729,5.86111111111111,2.41500461680517
MEB024,tru,1,5.67647058823529,2.42303688280784,4.43137254901961,2.67445799457993
MEB024,tru,1,4.17867435158501,3.44056306306307,3.43804034582133,2.9448703279939
MEB024,tru,1,4.70943396226415,2.41642493173292,4.34716981132075,3.07704609835563
MEB024,tru,1,4.88888888888889,2.09233308327082,6.09920634920635,2.04087021755439
MEB024,tru,1,5.35540069686411,3.55181549010441,4.51219512195122,3.37792856943397
MEB024,tru,1,6.28921568627451,3.43849462365591,7.22058823529412,3.77680376028202
MEB024,tru,1,4.42471042471042,2.74280732345249,4.13127413127413,3.06984027560288
MEB024,tru,1,4.0261780104712,3.76465549097995,3.45287958115183,2.25180177477315
MEB024,tru,1,5.08214285714286,3.5917917917918,5.13571428571429,3.27270765911543
MEB024,tru,1,6.06607929515418,4.23428571428572,4.68281938325991,3.53618513323983
MEB024,tru,1,4.68384879725086,2.61295654492135,4.80756013745704,2.00939917166254
MEB024,tru,1,4.12536443148688,3.33744161909704,3.89504373177843,4.02892561983471
MEB024,tru,1,7.30241935483871,3.7658644506799,5.79435483870968,3.24703074056823
MEB024,tru,1,5.77551020408163,3.43068913212807,7.20918367346939,3.12183823227975
MEB024,tru,1,4.74237288135593,6.16301962088459,4.79661016949153,6.41213276920326
MEB024,tru,1,10.4172661870504,2.65396167048055,9.61151079136691,2.21064073226545
MEB024,tru,1,4.78571428571429,2.5984557748538,4.83333333333333,2.51886640976236
MEB024,tru,1,6.01282051282051,3.2942741841151,5.29059829059829,2.69565102515325
MEB024,tru,1,4.83333333333333,4.47791353383459,5.24358974358974,4.35569777043765
MEB024,tru,1,7.05405405405405,3.47193471029628,6.84234234234234,2.83145588792124
MEB024,tru,1,6.10108303249097,3.98890604911418,5.11552346570397,3.21122565195807
MEB024,tru,1,4.04411764705882,3.5868198809359,4.88529411764706,3.3591879376553
MEB024,tru,1,5.17842323651452,2.97233739795884,4.87551867219917,3.1567788729775
MEB024,tru,1,3.47098976109215,4.59130781499203,3.64846416382253,5.04862817362817
MEB024,tru,1,6.50943396226415,2.86414701803051,6.47169811320755,2.48943022295623
MEB024,tru,1,7.31862745098039,2.97021293100105,7.91176470588235,2.31358335202332
MEB024,tru,1,4.25187969924812,2.58803808781899,4.8984962406015,3.1253016908599
MEB024,tru,1,6.22815533980583,2.81081081081081,6.28155339805825,3.18801652892562
MEB024,tru,1,4.2319391634981,2.94372195777438,4.64638783269962,2.52261454295022
MEB024,tru,1,4.32615384615385,2.36130136986301,3.86769230769231,2.4907683144729
MEB024,tru,1,5.06666666666667,2.48808353808354,4.52982456140351,2.2171226831421
MEB024,tru,1,4.35687732342007,4.16317401144987,5.74349442379182,3.83728516694034
MEB024,tru,1,5.12781954887218,3.97046202189816,6.19548872180451,3.68425822824144
MEB024,tru,1,4.98353909465021,2.61804795542733,6.63786008230453,2.27724877230807
MEB024,tru,1,4.66409266409266,2.57528199104919,4.93050193050193,3.03099032691386
MEB024,tru,1,5.94849785407725,3.49783759929391,6.39914163090129,3.96671921527413
MEB024,tru,1,5.28947368421053,2.64820610083768,4.8796992481203,3.06262326399626
MEB024,tru,1,3.58653846153846,2.33459752321981,4.38782051282051,1.20251306571778
MEB024,tru,1,5.25179856115108,3.55209579182423,3.25539568345324,3.50646675488752
MEB024,tru,1,5.44404332129964,3.70426673479816,5.45126353790614,3.50323176361957
MEB024,tru,1,5.31205673758865,2.65286382731651,3.56028368794326,2.81047849994877
MEB024,tru,1,6.23394495412844,3.76556247220987,4.4954128440367,3.44624625946136
MEB024,tru,1,4.30223880597015,2.62289778538976,3.85820895522388,3.23723723723724
MEB024,tru,1,4.61986301369863,2.69927098089348,5.50342465753425,3.01437535118936
MEB024,tru,1,5.15079365079365,2.69206633796504,5.77777777777778,2.06376258864192
MEB024,tru,1,4.14545454545455,2.58131067961165,5.48727272727273,2.04017013232514
MEB024,tru,1,6.27619047619048,3.24475898722964,6.3047619047619,3.143693235202
MEB024,tru,1,3.80528052805281,4.58866245562266,4.48514851485149,5.2956514762516
MEB024,tru,1,3.72818791946309,2.98126298994394,4.85906040268456,3.26510866660729
MEB024,tru,1,7.71590909090909,4.17971758664955,6.73295454545455,4.29359886201992
MEB024,tru,1,5.54655870445344,2.55269179814525,5.45748987854251,2.51371146312383
MEB024,tru,1,4.19354838709677,2.87065595716198,4.01612903225806,2.96402084309779
MEB024,tru,1,4.03303303303303,2.43554087173168,4.33633633633634,2.19179939003727
MEB024,tru,1,6.28761061946903,5.6810654328479,6.78318584070797,2.2418613519589
MEB024,tru,1,3.75747508305648,3.60694575312963,4.93023255813953,2.44251336898396
MEB024,tru,1,4.73214285714286,2.44584129465578,4.77232142857143,2.82496176446913
MEB024,tru,1,3.05412371134021,2.39350201265095,3.5180412371134,2.23066442702501
MEB024,tru,1,4.54790419161677,2.49884356602187,3.88023952095808,2.56490453120547
MEB024,tru,1,7.20673076923077,2.5336759868421,4.91826923076923,2.64068548387096
MEB024,tru,1,7.09727626459144,2.71388899662568,6.63424124513619,1.31110826311236
MEB024,tru,1,5.31021897810219,2.40291647923227,6.54379562043796,2.47319836922861
MEB024,tru,1,4.89752650176678,5.07959737292974,4.59010600706714,4.18589458467695
MEB024,tru,1,3.24702380952381,3.42550448008433,3.83333333333333,3.51428307720707
MEB024,tru,1,5.40329218106996,2.19745614035088,6.37448559670782,2.45568421052632
MEB024,tru,1,3.56430446194226,2.68955508116659,3.68241469816273,2.37424252296866
MEB024,tru,1,3.72047244094488,2.60188402276879,5.97244094488189,2.74839241655267
MEB024,tru,1,4.14705882352941,3.07158949601346,3.52673796791444,3.61179786200195
MEB024,tru,1,3.93987341772152,2.30179211469534,4.28481012658228,1.94927536231884
MEB024,tru,1,4.18098159509202,3.68788351382472,4.98466257668712,3.08611738921991
MEB024,tru,1,5.6491935483871,3.03468208092485,5.54435483870968,3.41559571244177
MEB024,tru,1,5.79425837320574,3.39130434782609,7.88038277511962,3.55361058601134
MEB024,tru,1,5.56459330143541,5.10463663620788,5.30143540669856,4.45896808628933
MEB024,tru,1,8.32286995515695,4.745085995086,6.19730941704036,5.25952088452089
MEB024,tru,1,7.36774193548387,2.81015671980658,8.32903225806452,5.63313850952499
MEB024,tru,1,4.49216300940439,3.20987464667568,4.94670846394984,3.09657081534596
MEB024,tru,1,4.4060773480663,2.30851637764933,4.43922651933702,2.05995698924731
MEB024,tru,1,3.90173410404624,2.61740032048261,3.1849710982659,2.67639243740419
MEB024,tru,1,5.19413919413919,3.14178112538768,4.62637362637363,3.5108977004164
MEB024,tru,1,5.51418439716312,3.46565399896113,5.48581560283688,3.00365261179474
MEB024,tru,1,6.45798319327731,2.52702702702703,4.89915966386555,2.50614250614251
MEB024,tru,1,4.25287356321839,4.22528155339806,4.69827586206897,3.5268466819222
MEB024,tru,1,4.52715654952077,3.27976007607344,4.1629392971246,2.98945212493599
MEB024,tru,1,3.08673469387755,2.71107776944236,3.0484693877551,3.09736971815208
MEB024,tru,1,3.68787878787879,4.02650198609732,4.38484848484848,4.00187815724709
MEB024,tru,1,9.30322580645161,3.82800731420611,8.12903225806452,3.6943260571471
MEB024,tru,1,3.26409495548961,3.05011704618004,3.39762611275964,2.82123444246888
MEB024,tru,1,5.37857142857143,4.30234232381148,4.83928571428571,3.4985864443639
MEB024,tru,1,4.8961937716263,2.69005164781111,4.83044982698962,2.39246934255307
MEB024,tru,1,4.94097222222222,3.32481290453075,3.86111111111111,3.16011155606407
MEB024,tru,1,3.42335766423358,4.21401557285873,2.7712895377129,4.23814408585181
MEB024,tru,1,6.54696132596685,2.98789315631421,6.16022099447514,2.38036484918139
MEB024,tru,1,3.31876606683805,2.04730529472106,3.44473007712082,1.28175603828042
MEB024,tru,1,4.67826086956522,3.41719373161987,6.24782608695652,2.84264942903193
MEB024,tru,1,4.54804270462633,2.99526964779251,5.88612099644128,3.09046127523353
MEB024,tru,1,5.29903536977492,4.0231418918919,4.68810289389068,2.94183526011561
MEB024,tru,1,10.7074829931973,2.65724260197905,8.91836734693878,2.37185951778047
MEB024,tru,1,8.28823529411765,2.27744007907092,9.25882352941177,2.43671640828955
MEB024,tru,1,6.6839378238342,2.84077571978727,7.3160621761658,2.90977443609022
MEB024,tru,1,6.26457399103139,2.13164408927005,4.87892376681614,1.96721567098723
MEB024,tru,1,3.67829457364341,4.45353675450763,6.12015503875969,5.22108843537415
MEB024,tru,1,5.41035856573705,2.91414751276927,5.74103585657371,2.83414318769566
MEB024,tru,1,5.77323420074349,2.5955634929391,4.42379182156134,2.69273361650485
MEB024,tru,1,6.83756345177665,2.69405361588791,6.58375634517767,2.66477042441086
MEB024,tru,1,5.1505016722408,2.89040502490795,4.60869565217391,2.66564449754414
MEB024,tru,1,4.58419243986254,2.67345050878816,4.80756013745704,3.21048574257104
MEB024,tru,1,4.60702875399361,2.88415216511534,4.08626198083067,2.74335271606779
MEB024,tru,1,3.92105263157895,3.14223575467595,5.18421052631579,3.69603041019725
MEB024,tru,1,3.25641025641026,3.93867137355584,3.14685314685315,3.92203421089031
MEB024,tru,1,4.92460317460317,2.76602203182375,5.66269841269841,3.43702836464265
MEB024,tru,1,7.42702702702703,3.16146701595618,6.9027027027027,3.58112475759535
MEB024,tru,1,6.34061135371179,2.97964561562926,5.08733624454148,3.05205025916578
MEB024,tru,1,4.69421487603306,2.8558352402746,5.2396694214876,3.45293569431501
MEB024,tru,1,4.96531791907514,2.40027512542483,3.01156069364162,2.47692772350037
MEB024,tru,1,5.428,3.86622807017544,5.704,4.11393107274114
MEB024,tru,1,5.71910112359551,2.8338993256262,5.38951310861423,2.693125
MEB024,tru,1,6.26222222222222,4.99147993105146,6.86666666666667,4.18113095679241
MEB024,tru,1,8.0625,2.44593486787115,9.275,3.12112614929596
MEB024,tru,1,3.58,3.24520603835169,3.89428571428571,3.49612403100775
MEB024,tru,1,4.77542372881356,3.5796434732605,5.60169491525424,3.55298492047098
MEB024,tru,1,4.6355421686747,2.31063779643541,4.16867469879518,2.73664051070621
MEB024,tru,1,2.68181818181818,2.50043131152532,3.11244019138756,3.01209545603138
MEB024,tru,1,4.90068493150685,4.35483870967741,5.0513698630137,4.23225806451612
MEB024,tru,1,4.55405405405405,2.94198458574181,4.33108108108108,3.27597302504817
MEB024,tru,1,7.1608040201005,2.70250896057347,7.41708542713568,2.36079328756674
MEB024,tru,1,7.06422018348624,2.48416759362254,5.94036697247706,2.5034155071587
MEB024,tru,1,5.8801652892562,2.74729815638907,5.45867768595041,2.85580923930438
MEB024,tru,1,3.64124293785311,2.59493576225303,3.16666666666667,2.44163264085192
MEB024,tru,1,4.53821656050955,5.30154525386314,4.12738853503185,4.35233319297171
MEB024,tru,1,4.2992125984252,2.9655102179374,5.54724409448819,3.08547762916695
MEB024,tru,1,4.30877192982456,2.93593615185505,3.82456140350877,3.14258918858086
MEB024,tru,1,3.53370786516854,4.13077083099966,2.98595505617978,3.52381248381249
MEB024,tru,1,9.1523178807947,2.62258064516129,10.4105960264901,2.49883116883117
MEB024,tru,1,3.59130434782609,4.46062119808243,3.28405797101449,4.51335455021553
MEB024,tru,1,7.105,3.62848302949459,7.525,3.35524211138577
MEB024,tru,1,3.65732087227414,2.26553480475382,3.83489096573209,2.28701306620692
MEB024,tru,1,3.71111111111111,3.3002254595907,4.5968253968254,3.70572345756342
MEB024,tru,1,4.30898876404494,3.05352112676056,3.11797752808989,2.19826708182982
MEB024,tru,1,4.5015479876161,3.35399061032864,4.15170278637771,3.66501126217808
MEB024,tru,1,4.65384615384615,3.76409470277636,3.79166666666667,2.17092511013216
MEB024,tru,1,5.92827004219409,2.90445859872611,5.36708860759494,2.79760797342193
MEB024,tru,1,6.59022556390977,1.59708140748472,3.8609022556391,1.59833010287759
MEB024,tru,1,5.64940239043825,2.59482735563936,5.68127490039841,2.6095154195802
MEB024,tru,1,5.56428571428571,4.16662377497861,5.85714285714286,3.57370984083406
MEB024,tru,1,5.84647302904564,3.0610661268556,6.96265560165975,2.77463445645264
MEB024,tru,1,5.56737588652482,2.75205173951829,5.84042553191489,3.66574874917581
MEB024,tru,1,5.74324324324324,2.98922349140418,6.02252252252252,2.46050582062633
MEB024,tru,1,5.1231884057971,2.1227427072079,5.2463768115942,2.36707343991423
MEB024,tru,1,6.79444444444444,2.90872434826756,7.02222222222222,2.93926632783598
MEB024,tru,1,4.14369501466276,2.8014224028448,4.46920821114369,3.28905926232905
MEB024,tru,1,5.93119266055046,2.10688246385921,6.6743119266055,2.20453017878747
MEB024,tru,1,4.91973244147157,2.52067697065784,4.66889632107023,2.87702131297389
MEB024,tru,1,9.18518518518519,3.05173857230563,10.9037037037037,2.81409931301581
MEB024,tru,1,3.72039473684211,2.54827147647127,4.52960526315789,2.30223147184645
MEB024,tru,1,5.72350230414747,3.28050716854247,7.10599078341014,3.17015753669889
MEB024,tru,1,3.52161383285303,3.96305141139852,2.23919308357349,4.26351105035316
MEB024,tru,1,4.59803921568627,2.9014030310206,4.61111111111111,2.3132488232777
MEB024,tru,1,4.34666666666667,2.69405405405406,4.15,2.15964912280702
MEB024,tru,1,3.71,2.29901988771529,4.61333333333333,2.25132854888446
MEB024,tru,1,3.45121951219512,2.23368528704497,3.00243902439024,2.55185879714656
MEB024,tru,1,4.29746835443038,2.30538327778583,4.39556962025316,2.20408937969114
MEB024,tru,1,6.90783410138249,2.47869674185464,7.40552995391705,2.36374269005848
MEB024,tru,1,4.15673981191223,2.11754787426232,4.58307210031348,2.64949066213923
MEB024,tru,1,8.53846153846154,3.60292637331032,8.92857142857143,2.99158635222659
MEB024,tru,1,7.28877005347594,2.65466825981613,7.7379679144385,2.92133446064962
MEB024,tru,1,3.99395770392749,2.58884524744698,4.93353474320242,2.90127395061307
MEB024,tru,1,6.87019230769231,3.78271010315534,7.54326923076923,2.56578947368421
MEB024,tru,1,4.89102564102564,3.25397097670589,4.74358974358974,2.94486872601542
MEB024,tru,1,7.21875,2.58500948766603,6.30729166666667,2.80564677327242
MEB024,tru,1,3.33770491803279,3.13850071621837,4.10491803278688,3.71282589938853
MEB024,tru,1,4.30864197530864,2.68817204301075,6.02057613168724,3.3019102576858
MEB024,tru,1,5.47265625,3.74423897581793,5.890625,4.40080228118506
MEB024,tru,1,10.3783783783784,4.53142738268596,9.44594594594595,4.76512303485987
MEB024,tru,1,3.69594594594595,3.05377574370709,4.33108108108108,2.66999914000688
MEB024,tru,1,4.7755905511811,3.84804165423009,5.79133858267717,3.29413500988814
MEB024,tru,1,3.73793103448276,3.5,6.22758620689655,2.98500320444349
MEB024,tru,1,3.62383177570093,3.24767025089605,3.39485981308411,3.68713450292398
MEB024,tru,1,4.63529411764706,4.60090963472184,6.72941176470588,3.5672511488868
MEB024,tru,1,4.89247311827957,3.15799909063127,5.79569892473118,2.80120609208557
MEB024,tru,1,6.74752475247525,2.02061315046391,7.18811881188119,1.88476167549351
MEB024,tru,1,3.44480519480519,2.9798776549261,5.05844155844156,2.78249178600211
MEB024,tru,1,5.24137931034483,2.62960424676788,5.82758620689655,2.20359340003717
MEB024,tru,1,3.25507246376812,2.04434030281182,3.1536231884058,2.69698630136987
MEB024,tru,1,2.6504854368932,2.60924561849123,3.73300970873786,2.76167138146633
MEB024,tru,1,3.15885416666667,2.8854630856317,4.2578125,3.02154571765463
MEB024,tru,1,12.6,3.7378640776699,9.91304347826087,3.14193548387097
MEB024,tru,1,3.71955719557196,3.4380671195201,5.00369003690037,3.01873975846213
MEB024,tru,1,3.05015673981191,2.43028824432999,4.1692789968652,2.99606860287975
MEB024,tru,1,8.7,1.73035164479015,10.2466666666667,1.68687899051721
MEB024,tru,1,6.21428571428571,3.70424710424711,5.73949579831933,3.20902983908764
MEB024,tru,1,5.27799227799228,2.66173590566274,5.12355212355212,2.70409183715988
MEB024,tru,1,4.53067484662577,5.37489745693191,3.91411042944785,4.31494097085993
MEB024,tru,1,5.224,2.87180301597499,5.568,2.23613681987643
MEB024,tru,1,4.04727272727273,4.07960385639794,4.94545454545455,2.92657039263689
MEB024,tru,1,5.18,2.50586002902109,6.384,2.51927396345535
MEB024,tru,1,4.97058823529412,2.35210584118714,3.37254901960784,2.65730943640683
MEB024,tru,1,4.75503355704698,2.13033204633205,4.59395973154362,2.31805785123967
MEB024,tru,1,3.55820895522388,2.66126723746347,4.23880597014925,2.14422294712255
MEB024,tru,1,5.15983606557377,4.80872180451128,5.47950819672131,4.02218741560896
MEB024,tru,1,5.45748987854251,1.90548176868503,4.93927125506073,2.03951493152945
MEB024,tru,1,4.36805555555556,2.77179276315789,5.62152777777778,4.0200748381877
MEB024,tru,1,4.52842809364549,3.34714412548091,4.80936454849498,2.5576797869192
MEB024,tru,1,4.82591093117409,4.94265734265735,4.8582995951417,5.83096903096904
MEB024,tru,1,5.36148648648649,1.99306774306774,3.90202702702703,2.33904647983595
MEB024,tru,1,4.2280701754386,2.47971182929206,3.45614035087719,2.41065344749888
MEB024,tru,1,2.72146118721461,2.78333333333333,3.2648401826484,3.04838137996218
MEB024,tru,1,5.05466237942122,2.90842284282134,4.5112540192926,3.59732366630863
MEB024,tru,1,3.94212218649518,1.95857418111753,5.64630225080386,2.50298596173441
MEB024,tru,1,4.87074829931973,2.42793563847997,4.88775510204082,2.48031496062992
MEB024,tru,1,3.8425,3.10488891274015,2.7725,2.48309047411918
MEB024,tru,1,4.41139240506329,3.29176600036677,4.24367088607595,2.97602436632408
MEB024,tru,1,8.52095808383234,2.84543950850661,8.2814371257485,1.36596916299559
MEB024,tru,1,5.62546816479401,2.0780687093779,6.87265917602996,2.09358043376753
MEB024,tru,1,3.94949494949495,3.06663837011885,2.86868686868687,3.34059139784946
MEB024,tru,1,5.24397590361446,3.9333486554815,3.83132530120482,3.14329706943988
MEB024,tru,1,3.41967213114754,3.09229659719769,4.42622950819672,2.97957877075239
MEB024,tru,1,6.76824034334764,3.43459623525653,7.47639484978541,3.81644706951385
MEB024,tru,1,7.68075117370892,2.79932561537597,6.96244131455399,2.75141233381821
MEB024,tru,1,3.75,3.20799729821007,4.76973684210526,3.57593984962406
MEB024,tru,1,6.58333333333333,2.78210616054202,7.26960784313725,3.33315508021391
MEB024,tru,1,4.06818181818182,3.80594849817962,5.00974025974026,2.87241552457467
MEB024,tru,1,3.27134146341463,2.24991565452092,4.38109756097561,2.81081309041836
MEB024,tru,1,4.96491228070175,3.02560982936794,5.81754385964912,2.70334257896525
MEB024,tru,1,8.34351145038168,3.11946674451418,11.7022900763359,2.74046611200311
MEB024,tru,1,6.2212389380531,3.25078899595028,6.45132743362832,3.46002983502984
MEB024,tru,1,4.36768802228412,3.44930875576037,3.64902506963788,3.45622119815668
MEB024,tru,1,5.46619217081851,4.91361399671949,4.94306049822064,6.08382959230415
MEB024,tru,1,2.66990291262136,3.54627155695893,2.8252427184466,2.77567494401101
MEB024,tru,1,3.92370572207084,3.2723492131311,3.90735694822888,3.38837574067619
MEB024,tru,1,5.79835390946502,2.88956800603659,5.82304526748971,2.4207596705315
MEB024,tru,1,3.94945848375451,3.10978774317857,6.03610108303249,3.4196112761743
MEB024,tru,1,6.87214611872146,3.34584142394822,6.07762557077626,2.6456005138086
MEB024,tru,1,7.28688524590164,2.86619459742984,5.85245901639344,3.59960448253132
MEB024,tru,1,4.89171974522293,3.50029078220413,3.1624203821656,3.32397983910051
MEB024,tru,1,4.20597014925373,2.7651718794472,3.62388059701493,2.62088485500142
MEB024,tru,1,3.87743732590529,2.42034018606302,3.92200557103064,2.97980382471244
MEB024,tru,1,5.01483679525223,1.96103130360206,3.94955489614243,2.0122786926964
MEB024,tru,1,4.29317269076305,2.70281765018607,6.09638554216868,3.01878287002254
MEB024,tru,1,5.10830324909747,2.81820931639443,4.97472924187726,2.5755948779996
MEB024,tru,1,4.40893470790378,3.72657894736842,4.43642611683849,3.48329678638941
MEB024,tru,1,4.43060498220641,4.55979888746256,5.32384341637011,3.95930259880633
MEB024,tru,1,4.8494983277592,2.94032992525131,4.46822742474916,2.00447963139033
MEB024,tru,1,5.59615384615385,2.51785139371346,4.94615384615385,2.3983522889194
MEB024,tru,1,5.81308411214953,5.76,6.97663551401869,5.16862003780718
MEB024,tru,1,6.82692307692308,2.75811278095492,5.48846153846154,2.25721898278604
MEB024,tru,1,7.315,3.31215854089199,5.51,3.71083959899749
MEB024,tru,1,3.71653543307087,2.67749641662685,3.65354330708661,2.51627082594824
MEB024,tru,1,3.93871866295265,2.0581851092248,4.32869080779944,2.80582531906361
MEB024,tru,1,4.93877551020408,3.21491769268319,5.47755102040816,2.54772842698186
MEB024,tru,1,4.52848101265823,3.06153641679957,3.36392405063291,3.38198110133594
MEB024,tru,1,5.2129963898917,3.4975796178344,3.69314079422383,2.99171974522293
MEB024,tru,1,5.26356589147287,4.81260936869026,5.23255813953488,4.400297453575
MEB024,tru,1,6.45977011494253,2.66136552009946,6.72988505747126,2.68991333177174
MEB024,tru,1,4.70652173913043,3.14684362934363,5.80434782608696,2.72721710149456
MEB024,tru,1,6.11158798283262,2.72805179849064,6.1244635193133,2.56177543836988
MEB024,tru,1,5.23188405797101,3.20468154080854,3.97463768115942,3.84636707988981
MEB024,tru,1,3.49190938511327,5.08949108683152,4.36893203883495,5.03821793137375
MEB024,tru,1,6.38976377952756,2.42122818512121,5.47637795275591,2.13086388254259
MEB024,tru,1,4.02542372881356,2.9743176995683,4.53954802259887,2.94126972512865
MEB024,tru,1,4.2910447761194,3.68845026561642,5.26119402985075,3.49292452830189
MEB024,tru,1,4.84790874524715,4.2937282820578,6.79467680608365,3.24748291981302
MEB024,tru,1,7.08888888888889,4.22456943273516,8.35555555555556,4.04119257681776
MEB024,tru,1,5.34333333333333,2.35034656584751,4.44,2.55734767025089
MEB024,tru,1,5.37716262975779,3.32165496199269,4.49826989619377,3.13157456359539
MEB024,tru,1,5.14855072463768,3.75119617224881,5.1304347826087,4.51765589782119
MEB024,tru,1,3.86006825938567,2.22965116279071,5.04778156996587,2.2286597660976
MEB024,tru,1,5.98648648648649,4.25702623906706,4.7027027027027,3.46005652770273
MEB024,tru,1,6.58076923076923,2.56890241816876,5.10769230769231,4.2051121368057
MEB024,tru,1,4.17073170731707,3.46721244034886,5.86585365853659,2.22198347748516
MEB024,tru,1,4.39570552147239,3.39027193057823,4.29754601226994,3.37094037288427
MEB024,tru,1,5.76811594202899,1.95678632382978,5.40579710144928,2.21096340367512
MEB024,tru,1,5.87943262411348,2.31240310077519,4.68439716312057,2.07549108150824
MEB024,tru,1,6.09803921568627,2.95238195972246,5.70588235294118,2.62356826279656
MEB024,tru,1,4.6026936026936,3.23932861609347,4.67676767676768,3.51940231935771
MEB024,tru,1,5.30666666666667,3.61857626261029,5.85333333333333,2.64190932433514
MEB024,tru,1,4.05185185185185,2.56836709177294,2.75555555555556,4.21655592469546
MEB024,tru,1,4.79742765273312,3.60688600382945,4.59163987138264,3.07017414403778
MEB024,tru,1,4.38317757009346,2.57897774213928,3.81931464174455,2.50459042342699
MEB024,tru,1,12.140350877193,3.21242294926505,10.0526315789474,3.40476926746949
MEB024,tru,1,8.93037974683544,3.72318642455942,8.13924050632911,2.31450216450216
MEB024,tru,1,5.17959183673469,4.051306756594,7.01224489795918,2.40281450625229
MEB024,tru,1,5.29556650246305,6.15775061777866,6.33497536945813,5.06020485997603
MEB024,tru,1,5.54509803921569,4.22309834302887,5.96470588235294,4.05291340801804
MEB024,tru,1,4.60536398467433,2.57145755441556,4.4367816091954,2.56430392656808
MEB024,tru,1,5.12121212121212,3.41927710843374,4.95454545454545,2.91981518306235
MEB024,tru,1,7.46540880503145,1.99701558365187,8.9811320754717,2.03750092405825
MEB024,tru,1,7.91176470588235,2.56174654513378,10.2352941176471,3.46227580123493
MEB024,tru,1,4.92657342657343,4.36090746978403,6.28321678321678,3.79906413432425
MEB024,tru,1,5.71717171717172,3.23948220064725,7.44949494949495,2.7843483377464
MEB024,tru,1,5.01846153846154,3.06530704870156,4.34769230769231,2.54247146993698
MEB024,tru,1,4.51792828685259,3.25893944969132,5.9800796812749,3.03008601277271
MEB024,tru,1,3.96078431372549,3.65998907302859,2.90756302521008,3.70147845234351
MEB024,tru,1,4.84269662921348,3.98058252427185,4.69288389513109,3.48509984639017
MEB024,tru,1,5.18571428571429,2.45811763014093,5.88214285714286,2.02940753523152
MEB024,tru,1,3.59287531806616,2.61007281553398,3.86513994910941,1.98273128473357
MEB024,tru,1,4.284375,3.45341249465126,4.809375,3.12230396780481
MEB024,tru,1,3.38693467336683,3.56937967281072,4.03517587939699,3.71742912132652
MEB024,tru,1,3.5634328358209,3.49346405228758,6.65671641791045,4.12268439810092
MEB024,tru,1,3.31891891891892,2.48765080269783,4.02432432432432,2.94604949777364
MEB024,tru,1,3.25833333333333,2.40794695071011,3.9,2.66615814899568
MEB024,tru,1,4.40677966101695,3.60273648648649,4.68474576271186,4.12902412280702
MEB024,tru,1,5.39840637450199,3.83399209486164,5.93227091633466,3.83703253268469
MEB024,tru,1,5.1992337164751,3.39018903346928,5.45977011494253,3.07361239964006
MEB024,tru,1,6.18181818181818,3.45448241079309,6.73205741626794,3.49335807050093
MEB024,tru,1,5.27555555555556,2.5116774586308,6.87111111111111,2.74919616102308
MEB024,tru,1,7.60591133004926,3.00574083245558,6.70935960591133,3.21598959696691
MEB024,tru,1,5.36630036630037,4.83477432514988,5.52380952380952,5.35155195681512
MEB024,tru,1,4.85185185185185,2.74716082112277,6.27777777777778,2.32183539226696
MEB024,tru,1,8.66233766233766,3.8217941212992,8.20779220779221,3.76203590371277
MEB024,tru,1,5.73684210526316,2.74692861296889,5.93609022556391,2.7819436367161
MEB024,tru,1,4.18518518518519,3.53236449332286,5.44444444444444,3.06438879980264
MEB024,tru,1,4.45525291828794,2.3848929430538,5.97665369649805,2.58420327224527
MEB024,tru,1,5.78405315614618,4.93150863473444,4.02990033222591,4.47713613247594
MEB024,tru,1,3.88967971530249,3.61279030431393,4.72597864768683,3.37876220587978
MEB024,tru,1,4.8050139275766,4.13709977277422,3.76323119777159,3.64621127286301
MEB024,tru,1,4.67206477732794,4.36058459084774,5.32388663967611,3.96697124385911
MEB024,tru,1,5.33680555555556,2.91386727688787,4.63194444444444,2.70368421052632
MEB024,tru,1,4.17341040462428,2.54135447678379,3.36705202312139,2.74952105724584
MEB024,tru,1,7.32558139534884,3.33829242086123,9.67441860465116,3.03365092833194
MEB024,tru,1,6.0635593220339,3.50686632578525,5.40677966101695,3.87503556187767
MEB024,tru,1,4.71947194719472,2.45159656856905,4.18151815181518,2.57031871453572
MEB024,tru,1,4.95102040816327,4.20979821094237,5.94285714285714,2.88703973372165
MEB024,tru,1,4.8477508650519,2.34851131555452,5.73010380622837,2.77192323476833
MEB024,tru,1,6.36046511627907,3.04514387706238,4.41085271317829,3.3815395732775
MEB024,tru,1,3.72289156626506,3.40160252418317,4.39156626506024,4.37592217912584
MEB024,tru,1,5.57857142857143,3.42788279773157,4.16071428571429,2.59945175438596
MEB024,tru,1,6.36725663716814,2.81196803196803,6.3141592920354,2.81372691580631
MEB024,tru,1,4.9042904290429,3.54903752436647,4.5973597359736,3.65643274853801
MEB024,tru,1,3.37047353760446,3.45544005544006,3.84958217270195,3.4283534647171
MEB024,tru,1,5.6,3.90725606286247,3.375,3.94190826009008
MEB024,tru,1,6.46113989637306,2.16328331862312,7.40414507772021,1.35314685314685
MEB024,tru,1,5.20588235294118,3.60725200804756,4.97794117647059,3.33972094666197
MEB024,tru,1,4.63157894736842,2.79373610081542,5.125,2.77052244819028
MEB024,tru,1,3.87540983606557,2.64648648648649,5.71147540983607,3.18347107438017
MEB024,tru,1,6.11353711790393,4.19152845199568,5.56768558951965,3.00869741100324
MEB024,tru,1,4.68227424749164,3.78151808754077,4.63210702341137,3.02629442872955
MEB024,tru,1,5.06168831168831,3.5498862267434,4.36688311688312,3.08718489914374
MEB024,tru,1,3.86363636363636,2.28070175438597,4.9969696969697,2.23140495867769
MEB024,tru,1,4.41052631578947,5.5391801075269,4.74035087719298,5.91092592592595
MEB024,tru,1,4.52076677316294,2.93116736429473,4.33226837060703,2.89778752242376
MEB024,tru,1,7.93034825870647,3.32116367750586,7.62686567164179,2.38776453667557
MEB024,tru,1,5.17889908256881,3.3,6.08715596330275,2.98947368421053
MEB024,tru,1,7.86813186813187,3.48727157220554,8.06043956043956,3.68731337569864
MEB024,tru,1,9.85526315789474,2.79447546511072,10.25,2.73447627689914
MEB024,tru,1,4.71320754716981,2.83079976477506,5,3.30006002123828
MEB024,tru,1,4.3474025974026,2.48012116622492,5.1461038961039,3.27172472548277
MEB024,tru,1,8.92934782608696,3.08649975454099,8.63586956521739,2.8817379443683
MEB024,tru,1,4.13268608414239,3.29810976620793,4.4336569579288,2.8095009119549
MEB024,tru,1,7.32984293193717,2.59432567432568,8.21465968586388,1.93006993006993
MEB024,tru,1,5.22026431718062,3.05986194230709,6.27312775330396,3.11545190795739
MEB024,tru,1,4.16030534351145,2.96351893453145,5.03053435114504,2.33189586007702
MEB024,tru,1,5.9957805907173,3.29219154443486,4.62447257383966,3.17050419907651
MEB024,tru,1,4,1.71105648737228,4.48571428571429,2.4165663881573
MEB024,tru,1,6.14285714285714,2.30620735867446,6.10714285714286,2.41050776583034
MEB024,tru,1,4.38387096774194,2.75987127253815,4.32258064516129,2.39946673749592
MEB024,tru,1,5.90086206896552,2.93943824206982,5.85344827586207,2.46293599611677
MEB024,tru,1,4.75666666666667,3.05815510507718,4.57,2.54384280724688
MEB024,tru,1,4.4775641025641,2.968110201175,5.18910256410256,3.11722260268252
MEB024,tru,1,6.75129533678756,2.90763731473409,7.36787564766839,2.70157250295233
MEB024,tru,1,4.59917355371901,2.8588491717524,5.76446280991736,1.28071833648393
MEB024,tru,1,3.99645390070922,2.53413673020528,6.0177304964539,2.61779493122009
MEB024,tru,1,5.80555555555556,2.38277542921232,6.12698412698413,2.4494945182554
MEB024,tru,1,5.46859903381643,4.19012958367797,7.42028985507246,4.37569676700111
MEB024,tru,1,5.05511811023622,3.5638159263355,4.42913385826772,3.6110698192967
MEB024,tru,1,5.44117647058824,2.802696929239,6.85714285714286,2.52378125789342
MEB024,tru,1,9.21333333333333,2.72043754883357,9.38666666666667,2.78870897302382
MEB024,tru,1,6.54044117647059,2.39630980590537,5.55147058823529,2.08511941212492
MEB024,tru,1,9.31612903225806,2.54689392872235,9.50967741935484,3.19217582734852
MEB024,tru,1,3.85411140583554,3.85262197464464,3.71087533156499,3.13488568498523
MEB024,tru,1,5.58781362007168,2.61992581232878,4.73118279569892,3.02038005284759
MEB024,tru,1,5.77310924369748,3.16190200896085,6.60924369747899,2.31068591388211
MEB024,tru,1,5.68571428571429,7.69617123907144,8.44285714285714,8.22020003279226
MEB024,tru,1,9.20149253731343,2.6035273696609,7.92537313432836,2.21490891154757
MEB024,tru,1,6.89099526066351,2.63543171654627,5.05687203791469,2.54018797601686
MEB024,tru,1,4.04335260115607,3.77948717948718,4.15606936416185,3.66923076923077
MEB024,tru,1,5.7887323943662,3.11142857142857,7.29577464788732,1.69057268722467
MEB024,tru,1,5.6969696969697,3.68333333333334,4.61742424242424,2.7905415713196
MEB024,tru,1,6.5028901734104,2.45261355443403,6.52023121387283,2.62001263465887
MEB024,tru,1,3.90566037735849,2.99569892473118,4.04088050314465,3.14065510597302
MEB024,tru,1,4.70081967213115,3.19053398058253,5.97950819672131,2.85697940503433
MEB024,tru,1,3.77377049180328,3.42495173745174,4.66885245901639,2.52950310559006
MEB024,tru,1,5.03180212014134,4.63593712268436,4.90459363957597,3.48096316824397
MEB024,tru,1,5.3551724137931,2.05158610524905,3.94137931034483,2.57492211838006
MEB024,tru,1,8.84662576687117,2.75886727688787,8.39877300613497,2.70764802631579
MEB024,tru,1,5.95967741935484,2.68490732568403,5.85887096774194,2.52157645822386
MEB024,tru,1,3.82018927444795,4.42593453868961,4.68769716088328,3.85533449230571
MEB024,tru,1,4.64081632653061,3.21475460227467,5.5265306122449,2.67352710133543
MEB024,tru,1,3.84516129032258,2.49872376630743,4.76129032258065,2.26665770488865
MEB024,tru,1,6.03100775193798,2.87216096296622,5.65503875968992,1.49778032486806
MEB024,tru,1,7.85810810810811,2.579823601805,9.90540540540541,2.38578558731027
MEB024,tru,1,4.28957528957529,2.88319672131148,5.56370656370656,2.3402168164992
MEB024,tru,1,4.80524344569288,2.56174835122204,5.68164794007491,2.21188151671875
MEB024,tru,1,5.62719298245614,2.64645339386806,5.18421052631579,3.20310569450435
MEB024,tru,1,4.49579831932773,4.76101578586136,5.6218487394958,4.44152010822777
MEB024,tru,1,5.60444444444444,2.01952079659786,3.53333333333333,1.95288085513166
MEB024,tru,1,4.21612903225806,4.53926371780515,5.26451612903226,3.90560667050029
MEB024,tru,1,6.51801801801802,2.96167872381116,6.92792792792793,2.71553920825118
MEB024,tru,1,4.41768292682927,2.81218323586744,4.48780487804878,2.682261208577
MEB024,tru,1,7.57788944723618,2.61893203883496,7.31155778894472,2.76300578034683
MEB024,tru,1,6.56770833333333,2.77963257630551,5.74479166666667,2.59839616163842
MEB024,tru,1,3.70068027210884,4.8826082547409,4.6156462585034,5.0368190212373
MEB024,tru,1,4.8013468013468,2.88532335433162,4.80808080808081,3.80263157894737
MEB024,tru,1,5.30483271375465,3.77719305782284,5.15241635687732,3.61635449780909
MEB024,tru,1,5.55339805825243,4.55954631379962,7.10679611650485,3.82320176317371
MEB024,tru,1,4.42813455657492,2.88645555884383,4.27217125382263,2.39294886598226
MEB024,tru,1,6.57407407407407,3.66228070175437,5.17037037037037,3.97398843930634
MEB024,tru,1,3.71835443037975,2.93076023391813,4.99683544303798,3.27298245614035
MEB024,tru,1,5.09318996415771,2.15177986459926,4.77777777777778,1.80836901924666
MEB024,tru,1,4.80887372013652,1.91934266044859,5.30716723549488,2.53433818687349
MEB024,tru,1,3.37684729064039,2.10420700580884,3.50738916256158,1.97733257733258
MEB024,tru,1,8.02564102564103,2.53065043065043,6.82692307692308,2.76954887218045
MEB024,tru,1,8.03125,3.14740783410138,8.015625,3.03312969924812
MEB024,tru,1,4.05776173285199,3.7493091703618,3.66064981949458,3.17286746020205
MEB024,tru,1,8.44059405940594,3.44153426017875,8.50990099009901,3.62824809665673
MEB024,tru,1,4.42953020134228,2.90408329930584,4.6510067114094,3.26524346088115
MEB024,tru,1,3.395,2.69923986486487,3.9725,2.85213133640553
MEB024,tru,1,5.06198347107438,2.6101119633254,6.40909090909091,2.33834035040065
MEB024,tru,1,6.31081081081081,4.2887587618094,6.01801801801802,3.8182265297266
MEB024,tru,1,5.90871369294606,2.54721655097319,5.85477178423236,2.91655833048238
MEB024,tru,1,4.30386740331492,2.9577028124308,4.50552486187845,2.7262124455599
MEB024,tru,1,4.13505747126437,5.35135135135136,3.96264367816092,4.48575268817204
MEB024,tru,1,4.26706231454006,3.18709954233409,5.3026706231454,2.97202659001078
MEB024,tru,1,5.99662162162162,2.12563210539414,3.57094594594595,2.26561530199748
MEB024,tru,1,3.05128205128205,4.70479704797048,4.24038461538461,4.17336895486156
MEB024,tru,1,4.28464419475655,3.21032747982914,5.33333333333333,2.33839147920357
MEB024,tru,1,5.2753036437247,3.32621174893902,6.2914979757085,3.66444768046598
MEB024,tru,1,4.73577235772358,2.56691937468336,6.65853658536585,2.71241062273798
MEB024,tru,1,5.44866920152091,3.71972065181243,6.15589353612167,3.75547506269156
MEB024,tru,1,5.10763888888889,3.22199170124481,3.85416666666667,2.87394206558997
MEB024,tru,1,5.88211382113821,3.42902627908684,5.78861788617886,3.89356534780868
MEB024,tru,1,3.3868778280543,3.78558525345622,2.68099547511312,4.65658536585365
MEB024,tru,1,4.27702702702703,2.65071870938145,3.65878378378378,2.59603794940474
MEB024,tru,1,3.64505119453925,3.20929649452722,4.75767918088737,3.91188896712745
MEB024,tru,1,6.14957264957265,2.54432497013142,6.51709401709402,2.92804804804805
MEB024,tru,1,5.97033898305085,4.51799353701528,4.53813559322034,4.68473286240175
MEB024,tru,1,6.71272727272727,2.54426790777296,4.10909090909091,2.78383824584173
MEB024,tru,1,3.9009009009009,3.29739130434783,3.60660660660661,3.456
MEB024,tru,1,5.57735849056604,2.08762073723636,5.83396226415094,1.83757145673172
MEB024,tru,1,4.20294117647059,3.41913198027749,4.07058823529412,2.6530658506177
MEB024,tru,1,5.18238993710692,2.56803111250786,4.5,2.25195630192992
MEB024,tru,1,5.28571428571429,2.9212185142021,6.36630036630037,3.15166775837282
MEB024,tru,1,5.33216783216783,2.85271142109852,4.02097902097902,3.51039898132428
MEB024,tru,1,5.65625,2.51300093196645,6.57142857142857,2.11833757034526
MEB024,tru,1,4.88848920863309,1.50750288572528,3.64028776978417,1.32463614422585
MEB024,tru,1,10.5179856115108,2.27130977130976,10.7553956834532,1.93653846153845
MEB024,tru,1,5.09252669039146,2.76883927978207,5.60498220640569,2.87113324405759
MEB024,tru,1,7.62921348314607,3.99501973883997,8.80337078651685,4.05337078651685
MEB024,tru,1,4.63940520446097,2.7332427843803,5.82156133828996,2.92013919095259
MEB024,tru,1,4.45061728395062,3.00970873786408,4.22222222222222,3.1359649122807
MEB024,tru,1,4.78169014084507,3.54116152450091,5.13732394366197,2.44788263762855
MEB024,tru,1,4.2911877394636,3.36500060219198,4.86590038314176,3.20914285714286
MEB024,tru,1,6.20175438596491,4.01803143093465,6.1140350877193,4.31362086853416
MEB024,tru,1,5.37102473498233,3.74162566065245,4.8303886925795,3.57475262075046
MEB024,tru,1,4.8411214953271,2.59242108914325,3.83489096573209,2.19901144640999
MEB024,tru,1,6.09126984126984,2.9960899315738,5.77380952380952,3.47996089931573
MEB024,tru,1,7.81,4.78146453089245,6.38,2.02479338842975
MEB024,tru,1,7.23265306122449,2.61995449149189,5.38775510204082,2.78099979678927
MEB024,tru,1,8.52095808383234,2.38146167557932,8.45508982035928,2.00167655080949
MEB024,tru,1,2.85888077858881,1.81769675411294,3.38199513381995,2.00254291163382
MEB024,tru,1,3.53887399463807,2.64851344730667,3.57908847184987,2.44371444992766
MEB024,tru,1,4.43448275862069,2.80236055254415,4.43103448275862,3.32671031835629
MEB024,tru,1,6.21428571428571,3.42733918128655,5.29761904761905,3.61308539944904
MEB024,tru,1,3.72077922077922,2.70731707317073,3.43506493506493,2.03305785123967
MEB024,tru,1,4.85169491525424,3.00437366827409,6.54661016949153,3.11203319502075
MEB024,tru,1,4.56603773584906,3.91298513625102,5.72452830188679,5.20680778032036
MEB024,tru,1,5.88214285714286,2.68499685468652,5.025,2.96689275954035
MEB024,tru,1,5.20962199312715,2.66731907696024,5.79725085910653,2.67881431105854
MEB024,tru,1,7.14646464646465,2.70980953429483,6.42424242424242,3.26753989484365
MEB024,tru,1,4.10029498525074,4.22297297297298,3.47197640117994,3.29793689320389
MEB024,tru,1,4.38461538461539,3.9048289620372,3.88736263736264,3.68311842300281
MEB024,tru,1,3.43030303030303,3.17728775046478,3.88787878787879,3.6939601921757
MEB024,tru,1,2.89356435643564,2.34700122399022,3.63861386138614,2.32659251769465
MEB024,tru,1,3.90273556231003,2.69614147909968,3.93920972644377,2.84753544703363
MEB024,tru,1,5.27542372881356,2.39199849405564,4.99152542372881,2.56599570719046
MEB024,tru,1,4.29372937293729,3.09636149169767,6,3.54518934687483
MEB024,tru,1,7.53125,6.14504385964912,5.82142857142857,4.26606451612903
MEB024,tru,1,7.39912280701754,3.19247393846936,7.83771929824561,2.75302049622438
MEB024,tru,1,4.24372759856631,2.89143394577622,4.51612903225806,2.64237911207466
MEB024,tru,1,4.07801418439716,3.17465055176038,4.89716312056738,3.13190582574325
MEB024,tru,1,4.11038961038961,2.55332706766917,4.16558441558442,2.0679584120983
MEB024,tru,1,5.08127208480565,3.09677419354838,4.49116607773852,3.25945945945946
MEB024,tru,1,3.15317919075145,4.45824383538105,5.22254335260116,3.27441728600069
MEB024,tru,1,4.6655737704918,4.17812193527298,4.6327868852459,2.71658115041859
MEB024,tru,1,4.31284916201117,4.11291099602553,3.96927374301676,2.77285318559557
MEB024,tru,1,4.58029197080292,2.59837485563438,6.05109489051095,2.55017155453893
MEB024,tru,1,9.45945945945946,1.86152164077816,9.54054054054054,2.2200383622629
MEB024,tru,1,4.99644128113879,3.13200789993416,5.11387900355872,2.80354457572502
MEB024,tru,1,4.06270627062706,2.61370751498645,4.89108910891089,2.41016551782229
MEB024,tru,1,4.42319749216301,2.75741568468102,4.30407523510972,3.46433524268918
MEB024,tru,1,6.59782608695652,4.02858858858859,7.53260869565217,3.52722547108512
MEB024,tru,1,4.30630630630631,2.80417133258679,4.94594594594595,2.78557865524125
MEB024,tru,1,3.45145631067961,2.18174033202935,3.52669902912621,1.75420875420875
MEB024,tru,1,7.05128205128205,3.31413210445468,7.26666666666667,1.36078998073218
MEB024,tru,1,5.43726235741445,2.72950404858299,4.52091254752852,2.55362960902734
MEB024,tru,1,5.39325842696629,2.82290562036054,6.01498127340824,2.57367466236645
MEB024,tru,1,5.23684210526316,3.53345598757104,5.4812030075188,3.41571609632446
MEB024,tru,1,4.43775100401606,2.9946961680295,4.16064257028112,2.78125237335764
MEB024,tru,1,4.6530612244898,2.91849651881786,5.55918367346939,3.33916573348264
MEB024,tru,1,4.38636363636364,4.84032716927454,4.50974025974026,4.70706289813841
MEB024,tru,1,4.9604743083004,2.18049484175555,4.300395256917,2.49941056692744
MEB024,tru,1,3.90443686006826,2.85737256243586,5.10921501706485,2.83177849320748
MEB024,tru,1,7.04901960784314,4.73205741626794,7.63235294117647,4.01913504883546
MEB024,tru,1,4.46534653465347,3.48231100121935,5.18151815181518,3.62103762613948
MEB024,tru,1,5.62655601659751,2.59776536312849,7.3195020746888,2.39866094014058
MEB024,tru,1,4.2013422818792,3.23129674443088,6.05704697986577,3.1861151886711
MEB024,tru,1,4.53495440729483,4.3198754551473,3.85106382978723,3.50143560295324
MEB024,tru,1,11.0103092783505,4.29504173682514,10.7938144329897,2.89302129863404
MEB024,tru,1,8.16230366492147,2.85843237550775,8.09947643979058,2.51829854592788
MEB024,tru,1,2.89800995024876,2.43969534050179,3.2363184079602,2.40398201669878
MEB024,tru,1,4.00550964187328,2.49111149300185,4.55371900826446,2.25628687632468
MEB024,tru,1,4.14334470989761,2.70245706696318,4.67235494880546,2.86242616992276
MEB024,tru,1,7,3.82509284615673,7.8,2.66463546160483
MEB024,tru,1,5.06081081081081,3.09129353233831,4.53716216216216,2.70402164331094
MEB024,tru,1,4.44813278008299,2.56177770102039,4.78838174273859,2.42816979920263
MEB024,tru,1,4.42729970326409,2.59507042253521,4.25519287833828,2.68405609093155
MEB024,tru,1,9.83211678832117,2.69615931721195,8.02189781021898,3.29694301543332
MEB024,tru,1,6.02745098039216,3.34641443101918,4.35294117647059,2.73794620199628
MEB024,tru,1,5.1358024691358,2.16268008001957,6.74485596707819,2.67154421298821
MEB024,tru,1,3.5615141955836,3.66878917520644,5.03470031545741,5.049786628734
MEB024,tru,1,8.92647058823529,3.94118901626233,13.125,5.684403382399
MEB024,tru,1,4.81227436823105,3.29747572815534,4.14079422382672,3.7056
MEB024,tru,1,6.82,3.51928447931906,8.28,2.84012372956252
MEB024,tru,1,5.54867256637168,2.96574623177662,7.49115044247788,3.30921202893034
MEB024,tru,1,7.21142857142857,3.67730430659492,6.82857142857143,3.81347256347257
MEB024,tru,1,6.44761904761905,3.15851554548145,6.16666666666667,2.97391246208737
MEB024,tru,1,4.32989690721649,2.92531351132686,5.09278350515464,3.08698830409357
MEB024,tru,1,9.25,3.17437235329703,8.48170731707317,2.9940335753176
MEB024,tru,1,5.56809338521401,3.58782018159003,4.90661478599222,3.02707278059186
MEB024,tru,1,6.13744075829384,2.95861939441998,6.31279620853081,3.2007608400295
MEB024,tru,1,3.54746835443038,2.46950496117342,4.70569620253165,2.35226949682554
MEB024,tru,1,6.83412322274881,2.20084108576526,7.03317535545024,2.26452133614517
MEB024,tru,1,6.39189189189189,3.97396522396523,5.86936936936937,3.9490936694884
MEB024,tru,1,6.24882629107981,2.81066850325476,6.14084507042254,2.53666698086531
MEB024,tru,1,3.70996978851964,4.60216216216216,4.47129909365559,4.65493060628196
MEB024,tru,1,4.43768996960486,2.58986059424656,4.63525835866261,2.35829368060773
MEB024,tru,1,3.38363171355499,3.80405741626795,3.98976982097187,3.51876441837732
MEB024,tru,1,2.63420427553444,3.94130487509095,2.98574821852732,3.30480579328506
MEB024,tru,1,3.13218390804598,2.94093533574795,3.73275862068966,2.9778886371558
MEB024,tru,1,5.03833865814696,2.33701593682309,4.10862619808307,2.40381608755304
MEB024,tru,1,6.20600858369099,2.37872222584218,3.34763948497854,2.71592167850394
MEB024,tru,1,5.86290322580645,2.79234662259864,5.67741935483871,2.70844689643046
MEB024,tru,1,3.1013698630137,2.85754504504505,3.11780821917808,3.00859023763648
MEB024,tru,1,3.94295302013423,3.990417061708,5.59395973154362,3.69337696092082
MEB024,tru,1,4.05395683453237,3.19217037269026,5.6294964028777,3.34484911550468
MEB024,tru,1,5.81712062256809,3.25511678150927,5.22568093385214,3.2759972557091
MEB024,tru,1,4.79715302491103,3.00583487237596,4.60498220640569,3.1806776573797
MEB024,tru,1,4.09302325581395,3.45486905669972,3.90697674418605,2.90696733985109
MEB024,tru,1,5.3574144486692,2.3953857858933,5.8212927756654,2.76530612244898
MEB024,tru,1,4.81451612903226,2.66557350823868,4.36290322580645,2.74468085106383
MEB024,tru,1,4.32515337423313,3.89699916788017,4.52453987730061,3.40192211369898
MEB024,tru,1,5.53886010362694,3.18846163569713,7.74611398963731,2.56368995571602
MEB024,tru,1,5.78661087866109,3.22889413722635,5.81589958158996,4.52734778121775
MEB024,tru,1,3.58064516129032,2.58153731430577,3.16129032258065,2.30836248218681
MEB024,tru,1,5,1.75134764285014,5.27142857142857,1.58761338379287
MEB024,tru,1,7.71493212669683,2.66627297556654,6.10859728506787,2.23904266389178
MEB024,tru,1,6.45248868778281,2.92157852097161,6.42986425339367,3.72824629140419
MEB024,tru,1,4.49657534246575,4.13636538757898,6.07191780821918,4.05842579750347
MEB024,tru,1,7.82296650717703,2.46931634067714,8.13397129186603,2.84753943960442
MEB024,tru,1,3.82692307692308,3.78787878787879,4.60576923076923,2.50661872562699
MEB024,tru,1,5.96116504854369,3.99452617174136,7.70388349514563,3.58877656441599
MEB024,tru,1,4.47169811320755,3.0758972903958,4.29245283018868,3.12427911452133
MEB024,tru,1,9.98591549295775,2.82617184348528,9.69718309859155,2.64600962131492
MEB024,tru,1,5.93032786885246,2.97957691848669,5.82377049180328,3.42994987468672
MEB024,tru,1,5,3.62903636620914,4.49825783972125,3.75329116605635
MEB024,tru,1,8.30808080808081,3.00802570662768,6.51515151515152,2.72436951754386
MEB024,tru,1,7.43708609271523,3.49090909090909,8.74834437086093,4.00831168831169
MEB024,tru,1,8.95652173913044,3.58533045189176,9.7463768115942,2.98363991483963
MEB024,tru,1,6.96410256410256,2.4984658956809,7.36923076923077,2.53904974208766
MEB024,tru,1,5.48484848484848,4.54207983727435,6.75757575757576,4.57182308522115
MEB024,tru,1,4.50159744408946,2.57407730310956,4.32268370607029,2.72842784981513
MEB024,tru,1,3.98620689655172,2.15189185650694,4.42413793103448,2.70890681726503
MEB024,tru,1,5.04912280701754,2.55530129672006,4.93333333333333,2.69682567623071
MEB024,tru,1,4.15202702702703,3.78083542422392,4.33445945945946,2.83456334110826
MEB024,tru,1,4.82278481012658,2.34415138739092,4.31012658227848,2.27256438969765
MEB024,tru,1,3.36817102137767,3.16857849752587,3.17577197149644,3.48159394212026
MEB024,tru,1,6.39269406392694,2.96836606627997,5.7351598173516,3.5193425203387
MEB024,tru,1,4.57101449275362,2.08067134640361,3.75072463768116,2.28436166429587
MEB024,tru,1,5.10035842293907,2.7487414187643,4.68458781362007,2.51711278195489
MEB024,tru,1,4.47311827956989,2.73077854950735,4.73835125448029,2.91732020448472
MEB024,tru,1,5.70319634703196,2.92026149233844,3.40639269406393,2.53579718121126
MEB024,tru,1,7.97,3.10002942041777,7.12,3.35482976215242
MEB024,tru,1,7.02094240837696,3.23666599879784,6.86387434554974,3.33970106494148
MEB024,tru,1,7.62244897959184,2.32156823221125,9.59183673469388,3.10702824133504
MEB024,tru,1,7.44171779141104,2.94234198533783,6.44171779141104,2.51621680930437
MEB024,tru,1,5.74089068825911,3.1948024948025,5.59514170040486,2.77486290203053
MEB024,tru,1,7.61363636363636,3.69473684210526,6.60227272727273,4.09548872180451
MEB024,tru,1,4.71428571428571,2.16276646264247,3.95454545454545,2.39486390585699
MEB024,tru,1,4.72013651877133,2.64028511736512,5.2457337883959,3.54991341674593
MEB024,tru,1,4.67796610169492,4.10780098280099,4.01694915254237,3.85155018392012
MEB024,tru,1,3.44729344729345,3.01064937523665,2.39316239316239,2.58609428246876
MEB024,tru,1,4.89041095890411,2.94000000000001,4.41369863013699,2.75078296273098
MEB024,tru,1,6.47154471544715,2.74403399803857,7.64227642276423,2.41729323308271
MEB024,tru,1,5.53725490196078,3.93049274910339,5.26666666666667,3.40258705757867
MEB024,tru,1,3.34101382488479,3.3287419651056,2.90552995391705,3.64347357065804
MEB024,tru,1,4.2043795620438,4.25138696255201,5.2992700729927,3.38661954467
MEB024,tru,1,5.26615969581749,3.7628179964191,5.93155893536122,3.28791134230465
MEB024,tru,1,5.91341991341991,2.41657205795137,5.8961038961039,2.49019688720233
MEB024,tru,1,2.31858407079646,4.94365752613928,2.65044247787611,5.68501728774491
MEB024,tru,1,7.92903225806452,2.8265176530353,4.98709677419355,2.23860240013351
MEB024,tru,1,6.30711610486891,2.33067340434556,6.13483146067416,2.53683641036045
MEB024,tru,1,6.37634408602151,2.93315464587394,3.68100358422939,2.31665850872899
MEB024,tru,1,6.60663507109005,3.64489145099963,6.30805687203791,2.85761870345348
MEB024,tru,1,4.78929765886288,2.4790636813027,3.60200668896321,1.94637231176659
MEB024,tru,1,7.09868421052632,3.23641652771935,9.51973684210526,3.13442453318282
MEB024,tru,1,3.48450704225352,2.01438643612557,4.10422535211268,1.74111955238438
MEB024,tru,1,6.46907216494845,2.6462783171521,9.02061855670103,2.40303030303031
MEB024,tru,1,5.43430656934307,2.17630632336236,5.14963503649635,1.92076823122999
MEB024,tru,1,3.59547738693467,3.45841295304599,3.58793969849246,2.68371314885151
MEB024,tru,1,6.23913043478261,2.85144663894664,6.23913043478261,3.44226437976438
MEB024,tru,1,7.18333333333333,2.70485436893204,7.76111111111111,2.89890815671162
MEB024,tru,1,7.42105263157895,2.36926742108398,7.80382775119617,2.21007205637818
MEB024,tru,1,4.62676056338028,3.47710114001413,6.11267605633803,4.3926380368098
MEB024,tru,1,4.24776119402985,3.17172323474844,4.74328358208955,2.94291270227099
MEB024,tru,1,5.31474103585657,2.65479452054795,3.1593625498008,2.5296048907506
MEB024,tru,1,5.11594202898551,2.78516377649326,5.26811594202899,2.82848970251717
MEB024,tru,1,8.81656804733728,4.68077820425981,7.13609467455621,3.72043010752688
MEB024,tru,1,4.84,2.81875775296828,4.58,3.36515742217496
MEB024,tru,1,8.87577639751553,2.6882290562036,8.11801242236025,3.35235614492067
MEB024,tru,1,5.63565891472868,3.84680419934669,6.22480620155039,4.09322261192491
MEB024,tru,1,2.52401746724891,4.23116615067079,2.79694323144105,4.50463495169378
MEB024,tru,1,5.37121212121212,3.40002358397862,5.51515151515152,3.05496623092673
MEB024,tru,1,5.07482993197279,2.99069050513007,4.84013605442177,2.80025639023374
MEB024,tru,1,4.00253164556962,2.32588309425849,3.50379746835443,2.55901258575056
MEB024,tru,1,4.32692307692308,2.18352027359939,4.20833333333333,1.99517720701254
MEB024,tru,1,4.61433447098976,3.40133494215889,5.2457337883959,3.84438498624328
MEB024,tru,1,4.6793893129771,2.06570797499882,5.99618320610687,1.83621141932243
MEB024,tru,1,3.35897435897436,3.14234945407253,3.68945868945869,2.95019438222497
MEB024,tru,1,7.11333333333333,3.56290453074434,10.0133333333333,3.3107234535437
MEB024,tru,1,4.8780487804878,3.21210099678082,4.66202090592335,2.49544711800326
MEB024,tru,1,2.87990762124711,4.28453267162944,4.09237875288684,4.16104363472784
MEB024,tru,1,4.55864197530864,2.26249016522423,4.90740740740741,1.89233163554046
MEB024,tru,1,4.40598290598291,3.22864953526517,6.97863247863248,2.46830606446556
MEB024,tru,1,5.1978021978022,3.45224171539961,4.75824175824176,4.83701479257035
MEB024,tru,1,4.91794871794872,3.4021436124195,7.8,3.44608831592541
MEB024,tru,1,5.46188340807175,3.44691470054447,7.19730941704036,3.03425589836661
MEB024,tru,1,6.94708994708995,2.83699110712246,6.96296296296296,1.16821530374264
MEB024,tru,1,4.21813031161473,3.86880419439403,3.56657223796034,3.20725602111225
MEB024,tru,1,5.86031746031746,4.7208731870339,4.11746031746032,5.51708015738439
MEB024,tru,1,3.72853185595568,2.52278478074146,4.04709141274238,2.38349527140821
MEB024,tru,1,6.67452830188679,2.20838237766941,6.88679245283019,2.31483499233596
MEB024,tru,1,7.31958762886598,3.2588563770382,7.5979381443299,2.9505219660722
MEB024,tru,1,4.5527950310559,3.528049913713,2.83229813664596,3.71033767213734
MEB024,tru,1,4.8375,2.76686383719759,4.6,2.4387731607712
MEB024,tru,1,3.55555555555556,2.89067237969677,4.17094017094017,2.97054812483609
MEB024,tru,1,5.33584905660377,2.54582134890397,5.3622641509434,2.41755098724303
MEB024,tru,1,4.98713826366559,2.72748237102809,4.4887459807074,2.55100078600544
MEB024,tru,1,3.68284789644013,3.51397849462365,4.19741100323625,3.34051535087719
MEB024,tru,1,4.99283154121864,2.81172584640793,5.76702508960573,4.18077803203661
MEB024,tru,1,3.44082840236686,2.53445975989329,3.4792899408284,3.02341137123746
MEB024,tru,1,3.93235294117647,3.19703703703704,4.11176470588235,3.30921052631579
MEB024,tru,1,4.16413373860182,3.17611300621009,4.92401215805471,2.89883456235063
MEB024,tru,1,5.31954887218045,4.0777009926968,5.80451127819549,4.25414629469849
MEB024,tru,1,4.59609120521173,3.2031741043369,4.61237785016287,2.32582045593635
MEB024,tru,1,6.17934782608696,2.93488590134757,4.91847826086957,2.80206482780115
MEB024,tru,1,6.75621890547264,3.7591762717074,5.49253731343284,3.32035663757988
MEB024,tru,1,6.37448559670782,4.51596340552651,5.57201646090535,3.50147012078831
MEB024,tru,1,4.24251497005988,3.05465382363898,3.94910179640719,3.06920175989944
MEB024,tru,1,6.0251256281407,2.20671849830455,6.93969849246231,1.81258106355382
MEB024,tru,1,3.94444444444444,3.2202672378621,4.02160493827161,2.28465807616231
MEB024,tru,1,6.48684210526316,4.20034726009963,5.16666666666667,3.0257570286669
MEB024,tru,1,2.9453125,2.38080692868328,4.30989583333333,2.83591646953259
MEB024,tru,1,5.50592885375494,5.85745697171886,5.6798418972332,6.45149371234228
MEB024,tru,1,4.82488479262673,2.957768707483,4.99078341013825,2.47730437204121
MEB024,tru,1,10.0680272108844,2.45890937019968,11.2108843537415,2.36979166666666
MEB024,tru,1,5.93607305936073,2.95596360997935,7.18721461187215,3.1818685748841
MEB024,tru,1,3.86305732484076,2.63935253735361,4.19745222929936,2.19797615648201
MEB024,tru,1,7.54973821989529,2.95380862022228,5.86387434554974,3.30055958310097
MEB024,tru,1,5.28378378378378,2.04830383480825,5.25225225225225,1.91035013466717
MEB024,tru,1,4.24914675767918,2.64767196312225,5.04778156996587,2.4997847736051
MEB024,tru,1,5.08365019011407,3.65171579976334,6.23574144486692,4.39940820951902
MEB024,tru,1,5.25090909090909,2.37399053188527,5.63636363636364,2.4757623023519
MEB024,tru,1,3.80606060606061,3.08775353016688,3.29090909090909,1.59099581747262
MEB024,tru,1,9.12222222222222,2.86936295201914,7.76111111111111,3.70806071478824
MEB024,tru,1,4.62025316455696,3.56372129510769,3.40822784810127,3.51241485387827
MEB024,tru,1,3.92834890965732,4.34356284640851,4.03115264797508,3.22134584881472
MEB024,tru,1,4.32608695652174,2.42038318642092,5.6195652173913,2.35478087251672
MEB024,tru,1,11.4066666666667,3.22541298501729,8.72,3.48648648648649
MEB024,tru,1,9.07182320441989,3.29145945945946,8.5414364640884,3.37570247933885
MEB024,tru,1,3.50169491525424,3.5415666826641,5.64067796610169,2.55548677429002
MEB024,tru,1,5.3955223880597,3.77196502963093,5.53731343283582,3.6346081140032
MEB024,tru,1,5.33846153846154,2.76707233693423,4.34230769230769,3.3809982703237
MEB024,tru,1,3.46468401486989,2.17358326068004,3.95910780669145,2.2542112644866
MEB024,tru,1,3.77562326869806,2.80441058002148,4.25484764542936,3.32293466585719
MEB024,tru,1,4.53869969040248,3.53775415282392,3.63467492260062,2.88563851489188
MEB024,tru,1,5.55514705882353,2.77193881984879,5.375,2.12356332422057
MEB024,tru,1,6.50678733031674,2.02659483832069,5.42081447963801,2.8747489842619
MEB024,tru,1,3.10541310541311,2.92206815511163,4.43304843304843,2.44911965504851
MEB024,tru,1,4.92045454545455,3.24284178187404,5.22348484848485,2.77622180451128
MEB024,tru,1,6.04977375565611,2.72271366810774,6.58371040723982,2.36303995910369
MEB024,tru,1,4.31842105263158,3.40928402832415,4.12368421052632,3.36860443792408
MEB024,tru,1,4.91272727272727,3.38312236985984,4.54909090909091,2.86973526427451
MEB024,tru,1,5.93191489361702,3.08267622461171,6.05531914893617,3.52083333333333
MEB024,tru,1,4.50961538461539,4.38101594364108,4.80769230769231,3.40184513006654
MEB024,tru,1,4.42857142857143,3.07347738468428,5.43629343629344,2.60358780147498
MEB024,tru,1,3.45623342175066,2.71104722405505,3.71883289124668,2.12604523261687
MEB024,tru,1,6.6743119266055,3.06038667559424,6.03669724770642,2.32983508245877
MEB024,tru,1,15.5405405405405,3.46737638045965,13.4054054054054,3.44951372997711
MEB024,tru,1,6.41152263374486,4.0369714456273,6.62962962962963,3.04771167048055
MEB024,tru,1,4.60627177700348,2.44888759633561,4.14285714285714,1.88157894736842
MEB024,tru,1,5.33333333333333,3.15828853046595,5.32246376811594,3.57271802695144
MEB024,tru,1,4.23398328690808,4.09691974188344,3.55710306406685,3.17068633313401
MEB024,tru,1,6.31382978723404,3.32393592677345,6.84042553191489,4.02837837837838
MEB024,tru,1,5.8689138576779,3.20408737632872,5.34082397003745,3.84801256493898
MEB024,tru,1,3.97150997150997,2.89263851522595,4,2.79344739265346
MEB024,tru,1,3.46699266503667,2.66408620148551,4.01711491442543,2.50496801415544
MEB024,tru,1,3.99720670391061,2.48748221906117,3.68994413407821,2.50554016620498
MEB024,tru,1,3.01463414634146,2.43682990842082,3.69756097560976,2.96011333914559
MEB024,tru,1,4.32452830188679,2.29182172603225,5.51698113207547,1.792321060063
MEB024,tru,1,7.19469026548673,4.25380311243224,5.9646017699115,3.78205688640205
MEB024,tru,1,5.85234899328859,1.79536916877263,4.18791946308725,2.0059236612048
MEB024,tru,1,7.4972972972973,3.89144736842105,6.20540540540541,3.09905148185999
MEB024,tru,1,6.13852813852814,3.13407000510986,4.90476190476191,3.57428571428572
MEB024,tru,1,4.59384615384615,2.83128770542957,3.44615384615385,3.03398058252426
MEB024,tru,1,5.34444444444444,2.507916511136,5.41481481481481,2.27485921093205
MEB024,tru,1,5.66333333333333,2.67753120665742,4.52,2.45355558542815
MEB024,tru,1,5.61231884057971,3.09486109697771,4.59420289855072,2.20748002223361
MEB024,tru,1,5.71268656716418,2.7453667838627,5.17164179104478,2.21993880749985
MEB024,tru,1,3.61486486486486,3.35364688631668,4.46621621621622,3.05445335584634
MEB024,tru,1,3.00426439232409,2.47116634178038,3.08955223880597,2.65432098765432
MEB024,tru,1,3.72372372372372,4.18993167925207,3.75675675675676,3.97247224341046
MEB024,tru,1,5.74253731343284,2.50919902753137,4.98134328358209,3.29649921069738
MEB024,tru,1,5.67226890756303,3.40164995822891,6.31512605042017,2.99649406688242
MEB024,tru,1,4.61513157894737,3.29006516824046,2.61184210526316,3.58066232211731
MEB024,tru,1,10.546875,3.14470638401559,12.875,3.15384821237422
MEB024,tru,1,6.91826923076923,3.60135441139008,7.45673076923077,2.37325503375631
MEB024,tru,1,5.13309352517986,2.84949164325232,4.80935251798561,2.63180209609364
MEB024,tru,1,3.85145888594164,2.19137469774142,3.63129973474801,1.87451618553614
MEB024,tru,1,3.82954545454545,2.95005085730892,3.5,2.93162339971551
MEB024,tru,1,6.23829787234043,3.64092416115537,5.67234042553191,3.13377894023055
MEB024,tru,1,4.65016501650165,2.58322738856022,5.15841584158416,2.71923595149402
MEB024,tru,1,5.65942028985507,5.33233199923418,4.83695652173913,4.03740301950095
MEB024,tru,1,4.66006600660066,3.36881745617038,3.66666666666667,3.59533775383341
MEB024,tru,1,3.77972027972028,3.6382667662063,5.04895104895105,3.19673606344848
MEB024,tru,1,5.06209150326797,2.69877970456005,4.19281045751634,3.03947368421053
MEB024,tru,1,3.49100257069409,2.9373196957776,3.81491002570694,1.93113427592363
MEB024,tru,1,3.65329512893983,2.96428854224404,4.30945558739255,2.79587908977698
MEB024,tru,1,10.7586206896552,2.15781997607656,13.7155172413793,2.20060127978817
MEB024,tru,1,4.99009900990099,2.95733487498193,5.0957095709571,3.06698106015226
MEB024,tru,1,4.24085365853659,2.59929410852112,4.18292682926829,2.23876003568243
MEB024,tru,1,4.23013698630137,2.86348797508161,4.28493150684931,2.48156443255891
MEB024,tru,1,11.0285714285714,2.82991829038341,12.0714285714286,3.16619658347081
MEB024,tru,1,4.65862068965517,2.98223336118073,5.63448275862069,2.8842054958184
MEB024,tru,1,6.70652173913043,2.214973850812,5.7536231884058,2.62826864849986
MEB024,tru,1,6.50454545454545,2.01051472612167,7.59090909090909,2.61969111969113
MEB024,tru,1,5.57920792079208,1.94791788513277,7.38118811881188,1.9314362714014
MEB024,tru,1,6.50515463917526,2.05231743270021,7.76288659793814,2.34128295946478
MEB024,tru,1,5.14448669201521,2.940536338904,4.86692015209125,3.23431942874473
MEB024,tru,1,7.58128078817734,4.84389404884761,6.19704433497537,5.4868720821662
MEB024,tru,1,3.69364161849711,1.96209546925566,3.78612716763006,2.27673531655225
MEB024,tru,1,5.19926199261993,3.18376539589442,6.29151291512915,3.32560765550239
MEB024,tru,1,3.07692307692308,3.05463514902364,2.59615384615385,3.24053154170878
MEB024,tru,1,2.95454545454545,3.25453701554885,2.44318181818182,3.26435730028694
MEB024,tru,1,4.98095238095238,2.81153800615676,4.80634920634921,3.56474646983312
MEB024,tru,1,6.28151260504202,3.14302059496567,6.5672268907563,3.2008559622196
MEB024,tru,1,5.74074074074074,3.67148991784914,3.90572390572391,2.66144458135305
MEB024,tru,1,4.42613636363636,3.97816631130064,4.00568181818182,3.55231948366277
MEB024,tru,1,8.24503311258278,5.39855974395448,8.4635761589404,5.52071699798973
MEB024,tru,1,5.33596837944664,2.51830867203596,4.44268774703557,2.26003903111009
MEB024,tru,1,2.92270531400966,3.60201838169039,3.13285024154589,4.33619267990233
MEB024,tru,1,3.34293948126801,2.88744631978428,4.85590778097983,2.83481619525685
MEB024,tru,1,5.08888888888889,2.22010390238009,6.22592592592593,2.35958092924385
MEB024,tru,1,6.76190476190476,2.63259076443463,5.18614718614719,3.03858663512714
MEB024,tru,1,5.03134796238245,3.87435512044522,4.29153605015674,2.98468670376399
MEB024,tru,1,4.80078125,2.66734143049933,6.65625,2.29754792133433
MEB024,tru,1,10.0322580645161,2.19615752769041,10.0903225806452,2.0878612716763
MEB024,tru,1,4.11676646706587,2.23842530080715,4.17365269461078,2.66426936907486
MEB024,tru,1,6.38827838827839,5.63184625943719,4.95604395604396,5.05715319953344
MEB024,tru,1,4.78714859437751,2.75491420682401,7.18072289156626,2.59973700049722
MEB024,tru,1,4.77508650519031,3.18762412959728,3.67474048442907,3.70715018816285
MEB024,tru,1,4.27492447129909,4.49481481481482,5.25075528700906,3.97247224341046
MEB024,tru,1,5.624,3.00081295917138,5.184,2.89199686860171
MEB024,tru,1,4.20708446866485,2.76348717018769,4.07356948228883,3.15963624074473
MEB024,tru,1,3.25295508274232,3.74275362318841,3.49645390070922,2.91423099023175
MEB024,tru,1,4.01811594202899,3.86694755321483,5.30797101449275,3.92638905273092
MEB024,tru,1,6.53271028037383,1.88925005200749,6.10747663551402,1.86134830968646
MEB024,tru,1,10.6,2.42910462899103,9.91851851851852,2.38360004211191
MEB024,tru,1,4.88996763754045,2.78667683702009,4.27508090614887,2.60623781676413
MEB024,tru,1,4.28048780487805,2.21679106571637,4.38109756097561,2.4591211037302
MEB024,tru,1,5.39545454545455,3.06077979854943,7.28181818181818,3.60234228200405
MEB024,tru,1,4.25739644970414,3.15418291098115,4.12426035502959,3.01771442495127
MEB024,tru,1,3.90425531914894,3.7394886080987,5.35106382978723,3.85669336384439
MEB024,tru,1,4.89208633093525,3.96288871349645,4.69784172661871,2.88857662951489
MEB024,tru,1,4.53205128205128,2.9317388370592,3.7724358974359,2.25275071494353
MEB024,tru,1,6.82300884955752,3.1194680713268,5.26991150442478,3.02354241033487
MEB024,tru,1,5.84210526315789,3.95545279383429,5.64777327935223,4.24035555555556
MEB024,tru,1,4.86666666666667,2.4815302465072,5.14333333333333,2.80787372157101
MEB024,tru,1,5.8498023715415,2.54138689341739,4.56521739130435,2.87182112474592
MEB024,tru,1,5.41276595744681,3.98793992718447,5.11063829787234,3.921875
MEB024,tru,1,7.81666666666667,2.6421568627451,8.18333333333333,2.7191128878736
MEB024,tru,1,4.08720930232558,2.87692947784481,3.38372093023256,3.21038069482005
MEB024,tru,1,4.68091168091168,2.77390776699029,3.80626780626781,2.59782608695652
MEB024,tru,1,5.7593220338983,2.9070707070707,5.01016949152542,2.53869271224643
MEB024,tru,1,3.89141414141414,2.41975719890443,2.75,2.58213043156414
MEB024,tru,1,4.84,3.46128560993426,5.36333333333333,2.98535309503051
MEB024,tru,1,3.42118226600985,2.57185640463514,3.95073891625616,2.78746216874585
MEB024,tru,1,10.6503496503496,2.79342845383455,10.1538461538462,3.10918617979368
MEB024,tru,1,5.15570934256055,2.41008771929825,5.06574394463668,1.88012663064243
MEB024,tru,1,5.1969111969112,4.48234985575662,5.31274131274131,3.48596062520172
MEB024,tru,1,6.01941747572816,3.58098258668538,5.46116504854369,1.91731248125336
MEB024,tru,1,5.22611464968153,3.62992037680835,3.54458598726115,3.40832091205737
MEB024,tru,1,5.82716049382716,2.78497345855451,6.07407407407407,2.57118865200977
MEB024,tru,1,5.1981981981982,2.59108455690568,5.13063063063063,2.52055671092625
MEB024,tru,1,5.9004329004329,2.84025036549708,5.39393939393939,3.64626736111111
MEB024,tru,1,4.53074433656958,3.16405873856523,5.1294498381877,3.45703405170941
MEB024,tru,1,3.81845238095238,4.4947670250896,3.98214285714286,4.80248538011696
MEB024,tru,1,4.80094786729858,2.26805948274074,7.72511848341232,2.1542555925505
MEB024,tru,1,3.95879120879121,1.7799641037823,3.88186813186813,3.09563568436545
MEB024,tru,1,5.36296296296296,2.68639039321874,4.83703703703704,2.78611310352587
MEB024,tru,1,8.41935483870968,3.95483870967742,6.89677419354839,3.80998400426553
MEB024,tru,1,4.34560906515581,3.53221727086595,3.53541076487252,3.51576772509787
MEB024,tru,1,5.49805447470817,2.94493765831345,5.40856031128405,2.64095639818183
MEB024,tru,1,6.795,3.00943455761706,7.45,2.72665163064057
MEB024,tru,1,7.25714285714286,3.93328591749644,10.2171428571429,4.30729467331409
MEB024,tru,1,5.05396825396825,3.34079604157047,5.19047619047619,3.15422128763814
MEB024,tru,1,8.89937106918239,2.28661606578115,6.84276729559748,2.32004307443801
MEB024,tru,1,6.74038461538461,3.38794258373205,5.77403846153846,2.89209197235512
MEB024,tru,1,6.41777777777778,3.48683901292597,6.28888888888889,2.49800529842605
MEB024,tru,1,3.39634146341463,1.85551075268817,3.48170731707317,1.99616228070175
MEB024,tru,1,3.53664921465969,2.75467775467776,2.96596858638743,2.30544309491678
MEB024,tru,1,3.4526558891455,2.72422468551501,3.65588914549654,2.69498069498069
MEB024,tru,1,4.05806451612903,2.42745642060423,4.46451612903226,2.11948881789138
MEB024,tru,1,4.46742209631728,3.20979689366786,4.42209631728045,2.73366939718546
MEB024,tru,1,4.94076655052265,1.74294916755879,4.52961672473868,2.06180355612212
MEB024,tru,1,4.36222910216718,3.04900786809191,4.77399380804954,2.77875547038869
MEB024,tru,1,5.25510204081633,3.36322265877984,5.13265306122449,3.64368932038835
MEB024,tru,1,3.98033707865169,3.74478974434684,3.53932584269663,2.69509384514587
MEB024,tru,1,5.45744680851064,3.38549075391181,5.47872340425532,3.31269349845201
MEB024,tru,1,7.44102564102564,2.10656421481215,7.27179487179487,2.5523675409259
MEB024,tru,1,3.72638436482085,1.83251274837349,2.57654723127036,2.36789242815562
MEB024,tru,1,4.10033444816054,2.72786926461346,4.19063545150502,2.16362414302998
MEB024,tru,1,6.1890756302521,2.03009150883167,7.26890756302521,1.5099904419462
MEB024,tru,1,4.46718146718147,2.65469984866319,4.78378378378378,2.62387198027016
MEB024,tru,1,6.01276595744681,3.64678256942876,6.34468085106383,3.623533629072
MEB024,tru,1,6.3125,2.18030444237341,5.81696428571429,2.14355716878403
MEB024,tru,1,3.54545454545455,2.34731576249315,3.5995085995086,2.09980967869285
MEB024,tru,1,4.44194756554307,2.25136436367792,4.98876404494382,2.33110907308434
MEB024,tru,1,3.08684210526316,3.16576505845294,3.82368421052632,2.80281110270674
MEB024,tru,1,3.89622641509434,2.91994620236392,4.29559748427673,2.9310268654777
MEB024,tru,1,3.97406340057637,3.25182943990993,3.835734870317,3.77015697774711
MEB024,tru,1,5.9125,3.88083973979893,5.72916666666667,4.48780450057263
MEB024,tru,1,5.05696202531646,2.62817733990148,4.27215189873418,2.55363370946106
MEB024,tru,1,3.99162011173184,4.55678482358232,3.68156424581006,3.86130808920135
MEB024,tru,1,4.36607142857143,1.962688900469,4.51190476190476,2.21255031681658
MEB024,tru,1,3.38243626062323,2.93614832279498,4.18696883852691,2.65299877600979
MEB024,tru,1,5.54948805460751,2.25877831159917,4.98976109215017,2.59726970852293
MEB024,tru,1,5.26217228464419,2.54636620534744,6.06741573033708,2.74940784507666
MEB024,tru,1,4.67987804878049,2.83129032258064,5.08841463414634,2.95310850439882
MEB024,tru,1,5.04276315789474,2.9296026940852,4.73355263157895,2.49792485021624
MEB024,tru,1,6.21719457013575,2.83676338078934,7.19909502262443,3.00077501856816
MEB024,tru,1,5.22622950819672,2.47472612526793,4.42950819672131,2.64646862089318
MEB024,tru,1,4.51369863013699,2.7107438016529,4.60958904109589,3.16540772203727
MEB024,tru,1,6.81614349775785,2.42535104364326,6.05829596412556,2.57987616099071
MEB024,tru,1,4.91118421052632,3.14257587073121,3.63815789473684,2.75834253465832
MEB024,tru,1,6.11808118081181,1.68975641583297,3.93357933579336,1.97217996822499
MEB024,tru,1,5.13919413919414,4.86983350372426,5.19413919413919,4.7540055025085
MEB024,tru,1,5.35763888888889,3.56985404400106,5.77430555555556,2.79174419072933
MEB024,tru,1,6.07906976744186,2.55326910248507,8.61860465116279,2.71513273385161
MEB024,tru,1,4.17843866171004,3.88030888030888,5.60594795539033,3.2969390271108
MEB024,tru,1,5.63176895306859,3.73441647597255,4.63898916967509,2.69640350877194
MEB024,tru,1,2.57070707070707,2.05575237740071,2.80555555555556,1.94498133830979
MEB024,tru,1,7.2994923857868,3.96537992394346,7.50253807106599,3.62213777025516
MEB024,tru,1,5.04088050314465,3.53963338211868,4.0314465408805,3.05700204575042
MEB024,tru,1,4.228,3.52761362037428,4.708,3.76673521347435
MEB024,tru,1,5.08695652173913,2.704147597254,6.60869565217391,3.2445938215103
MEB024,tru,1,4.56418918918919,2.95459143531527,3.78716216216216,2.47797627439528
MEB024,tru,1,6.46698113207547,2.28884512236004,5.49056603773585,3.24591088986458
MEB024,tru,1,5.81877022653722,3.42186278550819,3.59223300970874,3.29659852763329
MEB024,tru,1,8.21787709497207,3.6994420680677,7,3.3578203459178
MEB024,tru,1,14.5051546391753,2.6989837398374,15.8762886597938,2.310756338502
MEB024,tru,1,4.3598615916955,3.77237851662404,4.80622837370242,3.46803069053708
MEB024,tru,1,6.17972350230415,2.88136395927066,6.83410138248848,2.40867811097202
MEB024,tru,1,4.57142857142857,2.97098329836798,4.34090909090909,3.01886520477846
MEB024,tru,1,3.23770491803279,2.85880727800413,4.82513661202186,3.52476698107942
MEB024,tru,1,7.40340909090909,3.4339950731778,9.28977272727273,2.7578441803204
MEB024,tru,1,5.16037735849057,2.21489427948711,6.64622641509434,2.83007080383174
MEB024,tru,1,7.63981042654028,4.40434967498936,7.45971563981043,5.14486155857497
