Isos,Libs,Reads,Est16S,Est16Sgc,Est23S,Est23Sgc
MEB105,tru,1,7.43552311435523,6.15881606765328,7.52554744525547,6.73645665961945
MEB105,tru,1,6.22558139534884,8.43593238822246,5.92790697674419,10.2433094609876
MEB105,tru,1,11.3180212014134,8.0511558407313,12.6819787985866,7.87455197132617
MEB105,tru,1,11.9620253164557,6.64835164835165,13.8860759493671,6.69847778243555
MEB105,tru,1,10.8774834437086,6.88182608695653,9.14238410596026,6.77675805896524
MEB105,tru,1,7.41019417475728,5.74680656934309,7.64805825242718,5.8552608153819
MEB105,tru,1,7.72282608695652,5.88067496986742,8.10054347826087,5.34280835676979
MEB105,tru,1,9.48623853211009,7.84926775956284,9.80428134556575,7.68244702119153
MEB105,tru,1,5.79213483146067,5.39883322092435,6.46441947565543,5.8397008911556
MEB105,tru,1,5.07194244604317,5.49126899073315,5.49640287769784,5.08840914348964
MEB105,tru,1,5.77521008403361,5.38770435967302,7.06932773109244,4.95224444444445
MEB105,tru,1,7.98473282442748,5.31628554572272,7.39185750636132,5.56134985250738
MEB105,tru,1,8.02638522427441,6.85970819304152,8.20052770448549,6.82379349046015
MEB105,tru,1,6.90845070422535,9.86377777777778,7.65492957746479,9.5539387192536
MEB105,tru,1,6.16155419222904,8.0332302631579,7.60122699386503,9.37600128369706
MEB105,tru,1,7.30732860520095,7.56407020764024,7.46099290780142,8.35816770186336
MEB105,tru,1,6.71990740740741,5.7800462908168,7.30092592592593,5.37973664325442
MEB105,tru,1,6.55230125523013,7.59926147050196,5.26150627615063,5.96804898191372
MEB105,tru,1,8.61621621621622,6.18318755118756,8,5.16585380835381
MEB105,tru,1,7.53807106598985,7.22322463279882,6.92131979695431,8.31109806629834
MEB105,tru,1,8.41441441441441,7.60095597872176,10.1981981981982,7.85410606399642
MEB105,tru,1,8.05,6.88531839622641,8.54210526315789,6.67570324858433
MEB105,tru,1,8.85959885386819,8.07768706128341,7.91117478510029,8.25786163522013
MEB105,tru,1,6.89044289044289,6.74519632414369,6.76456876456876,5.17843694223151
MEB105,tru,1,8.41875,6.33307247152833,7.84375,6.62709708026051
MEB105,tru,1,5.81404958677686,10.9978702224691,5.33677685950413,10.6463954691062
MEB105,tru,1,6.36568848758465,5.89305445544555,6.38600451467269,4.95445544554455
MEB105,tru,1,24.7923076923077,7.3180429886423,24.7153846153846,7.60481264466084
MEB105,tru,1,9.40406976744186,7.9232832045832,8.93895348837209,6.33499465225079
MEB105,tru,1,8.0655737704918,7.80175706646294,7.20765027322404,6.79125704186457
MEB105,tru,1,6.5425,7.51399491094148,7.6825,8.21600000000001
MEB105,tru,1,9.10691823899371,6.62397800687285,7.81132075471698,6.96816023850384
MEB105,tru,1,7.77066666666667,6.70115384615384,7.06933333333333,8.55278846153846
MEB105,tru,1,7.31566265060241,7.50741839762611,8.19518072289157,7.55719584569733
MEB105,tru,1,6.51015801354402,7.1404230419898,6.43115124153499,7.07588121142712
MEB105,tru,1,6.94865525672372,4.71231958762887,7.59657701711491,5.47815807560138
MEB105,tru,1,9.08532423208191,7.52428358208956,11.4095563139932,7.25761230300503
MEB105,tru,1,6.62162162162162,5.84973885094415,6.56981981981982,6.71573392584363
MEB105,tru,1,9.20183486238532,6.38411851890205,7.92048929663609,6.12114014251781
MEB105,tru,1,11.5444015444015,8.55256064690027,9.82239382239382,6.47900248966071
MEB105,tru,1,8.64190981432361,8.3579090398359,7.18832891246684,9.45834633680407
MEB105,tru,1,6.79551122194514,7.49533367004106,8.47381546134663,7.3911072739046
MEB105,tru,1,8.35897435897436,7.4520824723332,8.21794871794872,7.60148633879782
MEB105,tru,1,5.93647912885662,6.23881578947368,5.88747731397459,5.93068035943517
MEB105,tru,1,5.626,8.26816860465116,5.962,8.33218023255814
MEB105,tru,1,5.76508620689655,6.74316261091631,6.59913793103448,6.74806451612903
MEB105,tru,1,5.11195445920304,7.42337164750957,5.47817836812144,6.96592289848669
MEB105,tru,1,10.1197411003236,6.49288643533124,10.0129449838188,5.72134858044165
MEB105,tru,1,5.86504424778761,8.25756644121064,7.01327433628319,7.40263850839163
MEB105,tru,1,7.62562814070352,6.16605016724523,7.321608040201,6.60469525959368
MEB105,tru,1,7.27777777777778,5.59834368530021,1.32608695652174,6.1479866926695
MEB105,tru,1,6.93392070484582,8.90063107947805,6.85242290748899,8.12493487456177
MEB105,tru,1,8.20435967302452,6.42927255233303,8.38964577656676,6.5789968878917
MEB105,tru,1,9.13013698630137,6.86937217635146,9.65753424657534,5.75265306122449
MEB105,tru,1,9.2691131498471,5.49297239699614,9.58715596330275,5.48291937284351
MEB105,tru,1,8.64973262032086,6.56617647058826,6.15775401069519,6.42297794117649
MEB105,tru,1,9.12612612612613,8.14182989282509,8.65765765765766,9.30524029885474
MEB105,tru,1,6.7223382045929,8.39100554617796,5.75991649269311,7.67412587412587
MEB105,tru,1,6.87612612612613,6.72749391727494,6.85135135135135,5.82344890510949
MEB105,tru,1,10.7926421404682,6.88763698101558,10.5551839464883,6.55569250088659
MEB105,tru,1,5.62674650698603,8.06326623672725,5.76646706586826,6.45959302325581
MEB105,tru,1,6.61425576519916,8.14584144284416,5.80503144654088,7.01428571428571
MEB105,tru,1,9.53644314868805,6.26202290076336,7.39067055393586,6.81370549501777
MEB105,tru,1,6.95529411764706,5.47885875155649,7.89882352941176,5.72813825387607
MEB105,tru,1,6.77536231884058,8.3674767204179,8.10144927536232,9.23429101370278
MEB105,tru,1,8.02356020942408,6.52212162455371,1.46596858638743,7.68170900562321
MEB105,tru,1,6.42222222222222,5.88727794105398,6.19333333333333,7.04418668122271
MEB105,tru,1,11.5769230769231,7.04120617620346,9.95384615384615,7.16400363306086
MEB105,tru,1,6.05813953488372,5.8245402223237,6.58139534883721,6.34762107969423
MEB105,tru,1,8.33795013850416,5.96893670763105,8.8421052631579,6.74221543210851
MEB105,tru,1,9.13687150837989,8.4327540505831,8.83798882681564,8.90167170070875
MEB105,tru,1,7.45368171021378,6.10247574790953,6.38717339667458,6.16046518109731
MEB105,tru,1,8.57817109144543,5.64263516727446,8.92035398230088,6.04645926352681
MEB105,tru,1,10.2885906040268,8.31004746835444,9.52348993288591,1.42163494057397
MEB105,tru,1,9.45671641791045,10.1373288539554,8.62686567164179,7.93665441176471
MEB105,tru,1,9.00595238095238,7.24610005379236,7.77083333333333,7.03244641537325
MEB105,tru,1,7.48628428927681,5.8595890410959,7.57107231920199,6.03041095890411
MEB105,tru,1,6.81662591687042,7.12046239815723,7.92420537897311,6.94559615608168
MEB105,tru,1,6.509977827051,6.12714062500001,5.49223946784922,6.72817758413462
MEB105,tru,1,6.19348659003831,6.04917291591961,5.20306513409962,5.37234467514713
MEB105,tru,1,10.2362459546926,5.07351249607863,10.5857605177994,6.04175342465754
MEB105,tru,1,8.15665796344648,6.66826040761132,8.03394255874674,6.09954022988506
MEB105,tru,1,9.82950819672131,7.32011940298508,9.01967213114754,6.61873195331246
MEB105,tru,1,7.74479166666667,5.89901864035088,8.640625,6.70622405249766
MEB105,tru,1,7.51780821917808,7.40281690140845,7.56164383561644,6.76472555650526
MEB105,tru,1,6.94075829383886,8.65126990393473,7.1303317535545,8.19455747918485
MEB105,tru,1,6.43176733780761,7.2548551693018,6.94854586129754,6.61921972587474
MEB105,tru,1,11.9963503649635,7.19151670951157,11.8868613138686,7.6408625051719
MEB105,tru,1,6.23946360153257,9.41198538526786,6.56513409961686,7.59281007372613
MEB105,tru,1,7.45658263305322,5.63403918513226,9.67226890756302,5.95600886665096
MEB105,tru,1,5.56015779092702,9.90278142507003,6.69033530571992,10.7185625
MEB105,tru,1,7.06349206349206,9.11540188594521,5.17233560090703,7.47242647058823
MEB105,tru,1,9.35344827586207,6.81055199144614,8.65804597701149,7.36141395348838
MEB105,tru,1,8.73177842565598,7.1737763480448,8.85131195335277,5.34717502787068
MEB105,tru,1,7.65722379603399,7.62823879551821,8.79036827195467,7.45556402439025
MEB105,tru,1,11.8282442748092,6.9,10.1030534351145,6.58052884615385
MEB105,tru,1,5.84375,8.02376366163594,5.0625,1.36257664493628
MEB105,tru,1,4.9006968641115,7.85884173297966,5.34146341463415,7.95339587242027
MEB105,tru,1,6.41428571428571,7.82017080829408,7.6452380952381,8.78891529943765
MEB105,tru,1,5.49598393574297,7.25667137191638,6.22690763052209,5.89065964317069
MEB105,tru,1,9.07309941520468,8.45106304817005,9.45906432748538,8.60782513661199
MEB105,tru,1,7.34889434889435,9.13573073236289,7.19164619164619,8.46365214213939
MEB105,tru,1,7.22170900692841,5.68070780109083,6.42263279445728,6.31873196191046
MEB105,tru,1,9.90506329113924,5.32515567208203,8.39240506329114,5.38673437214782
MEB105,tru,1,6.31799163179916,7.85331446205248,6.13598326359833,7.46368649059893
MEB105,tru,1,10.3434343434343,6.58980865977867,11.0606060606061,6.99307536313125
MEB105,tru,1,9.67676767676768,6.31573909401905,9.35353535353535,5.43512974051896
MEB105,tru,1,7.07073170731707,5.87303482587065,7.47804878048781,6.13542252286562
MEB105,tru,1,8.3623595505618,6.26262626262626,8.16011235955056,6.38859862997794
MEB105,tru,1,8.35672514619883,6.8086275047695,9.45321637426901,7.13775753768844
MEB105,tru,1,7.51443569553806,6.95225978432085,7.65354330708661,6.28515012722647
MEB105,tru,1,9.17534246575342,7.29085289288129,8.63287671232877,7.49758224336108
MEB105,tru,1,9.9938080495356,6.21115537848606,10.4117647058824,5.36606913778664
MEB105,tru,1,7.09647058823529,6.07281755677478,6.71058823529412,5.87994859907277
MEB105,tru,1,5.39616055846422,5.0466410803127,6,4.30312437810944
MEB105,tru,1,6.08433734939759,5.51101399633849,7.53815261044177,5.49803323928577
MEB105,tru,1,6.40508806262231,5.31382978723404,5.14872798434442,6.45245045753101
MEB105,tru,1,8.82561307901907,4.55053837953092,7.09536784741144,5.30501155686155
MEB105,tru,1,6.03205128205128,7.61042322387973,1.17521367521368,7.23175433441082
MEB105,tru,1,5.0359168241966,6.71357699706391,6.30434782608696,6.34597138554219
MEB105,tru,1,6.62114537444934,7.97707006369427,7.02643171806167,8.33633680285848
MEB105,tru,1,8.74754098360656,6.18996308947935,8.63934426229508,5.7180739280283
MEB105,tru,1,8.15384615384615,4.77505685889645,6.22527472527473,5.52548148148146
MEB105,tru,1,7.1325,7.46356085918855,8.63,8.17354244800546
MEB105,tru,1,8.56989247311828,9.45634042553195,8.18548387096774,10.0174762803444
MEB105,tru,1,9.57317073170732,6.58367329912819,10.1615853658537,6.82831147540984
MEB105,tru,1,9.12012012012012,7.69096374889478,10.2882882882883,8.10933225086259
MEB105,tru,1,8.43908629441624,6.99070363840359,7.35279187817259,5.49410940846927
MEB105,tru,1,12.4901960784314,7.09139952277207,11.9647058823529,5.72814814814815
MEB105,tru,1,8.26065162907268,7.06200831033117,7.27318295739348,7.45046999276934
MEB105,tru,1,6.72494172494172,6.88677518782505,7.26340326340326,5.94931564245808
MEB105,tru,1,6.10735586481113,6.08671351006068,5.17296222664016,6.82258663366337
MEB105,tru,1,6.80600461893764,8.44744768069041,7.20323325635104,7.90189151576538
MEB105,tru,1,7.13636363636364,5.64572488055338,6.29292929292929,6.21099250511015
MEB105,tru,1,9.73049645390071,6.3636141834743,11.1276595744681,6.2285534591195
MEB105,tru,1,8.96187683284457,6.8871925360475,8.58064516129032,7.09556380691812
MEB105,tru,1,8.5049504950495,5.53959055118111,11.6237623762376,5.83070866141732
MEB105,tru,1,9.32131147540984,6.57461446116905,8.17377049180328,6.81341463414631
MEB105,tru,1,7.8126582278481,7.19990123456791,8.1746835443038,6.78301033829589
MEB105,tru,1,8.39378238341969,5.58993602362204,7.43264248704663,5.52520546110351
MEB105,tru,1,8.69908814589666,9.38430721966206,9.90273556231003,10.3924961388265
MEB105,tru,1,9.0969696969697,5.26411657559198,10.5151515151515,4.95740626390189
MEB105,tru,1,8.3876404494382,5.89924370935821,9.20786516853933,5.57403516962341
MEB105,tru,1,7.77922077922078,7.06354515050167,7.63376623376623,6.84114528101803
MEB105,tru,1,10.0333333333333,5.96400116798066,10.0233333333333,5.62692634118017
MEB105,tru,1,9.02285714285714,6.27446603641457,8.49714285714286,6.41766006097562
MEB105,tru,1,11.9963099630996,5.32772268219452,9.31734317343173,6.12252631578948
MEB105,tru,1,6.90600522193211,5.30877573131094,7.60052219321149,6.14284896370091
MEB105,tru,1,5.9604743083004,5.64352720450281,6.39130434782609,4.49255975824585
MEB105,tru,1,9.67218543046358,7.13124034660593,9.52649006622516,5.77635030176475
MEB105,tru,1,7.11004784688995,5.30582113821139,7.52870813397129,5.60412757973734
MEB105,tru,1,8.7375,6.16973363431152,10.0375,7.26410835214447
MEB105,tru,1,6.85645933014354,10.6262443438914,8.11483253588517,9.73070600330986
MEB105,tru,1,7.83080808080808,6.83629346670342,1.38888888888889,6.69945394976338
MEB105,tru,1,9.6996699669967,6.70354337021005,10.1650165016502,5.8616039008196
MEB105,tru,1,7.38789237668161,6.85871329663938,7.09417040358744,6.68610117417801
MEB105,tru,1,11.4863813229572,7.77378461538462,11.5097276264591,7.63735207100592
MEB105,tru,1,8.39509536784741,5.78970905172414,7.27520435967302,5.7288725017807
MEB105,tru,1,9.95714285714286,7.36015959517322,8.52857142857143,7.25915639645895
MEB105,tru,1,7.09307875894988,7.33048554198237,8.20763723150358,7.25826793721973
MEB105,tru,1,7.30855855855856,4.74624077490775,7.0045045045045,5.48832521938665
MEB105,tru,1,8.07506702412869,8.20064868052484,8.87935656836461,7.99492134029003
MEB105,tru,1,7.7378640776699,6.16056323289169,7.73300970873786,6.01830436879914
MEB105,tru,1,6.89170506912442,9.19083389830509,7.40783410138249,9.37578813559322
MEB105,tru,1,8.28418230563003,6.25950811359026,8.68900804289544,4.88362068965517
MEB105,tru,1,5.64214711729622,6.39092198581561,6.57057654075547,6.55676465811272
MEB105,tru,1,9.875,6.10001867413632,11.1513157894737,5.98753333333334
MEB105,tru,1,12.5951417004049,5.32003593890386,12.5060728744939,5.7736112024193
MEB105,tru,1,9.55696202531646,6.19552065902948,10.1455696202532,6.53003696007944
MEB105,tru,1,7.16944444444444,6.88600077712244,7.83333333333333,6.84182194616977
MEB105,tru,1,8.52089136490251,6.73777724442687,8.82729805013928,7.40269371997504
MEB105,tru,1,7.19672131147541,4.73543963811139,6.48711943793911,4.98413279132792
MEB105,tru,1,10.888,6.99339790412074,12.796,6.92033556425111
MEB105,tru,1,6.49430523917995,6.78502663800355,7.16628701594533,5.69403288004871
MEB105,tru,1,8.7248322147651,6.73752627823102,12.5604026845638,9.19776273409324
MEB105,tru,1,6.9481981981982,6.73514623955432,5.70945945945946,6.52546394229956
MEB105,tru,1,7.18264840182648,6.7830492778401,6.88584474885845,6.519928232731
MEB105,tru,1,10.1704180064309,5.81855959819426,10.4212218649518,5.76430722891566
MEB105,tru,1,8.38483146067416,9.54132606721163,8.75561797752809,7.03478121493829
MEB105,tru,1,7.31367924528302,5.5852380952381,7.55896226415094,7.02431746031746
MEB105,tru,1,9.4559748427673,6.72329967409306,7.54088050314465,5.60539607843137
MEB105,tru,1,7.59815242494226,7.61753709198813,5.95150115473441,8.42333800490123
MEB105,tru,1,7.13095238095238,7.21697247305436,7.72142857142857,6.693967902601
MEB105,tru,1,8.77077363896848,7.19368288606127,7.79942693409742,7.34556515674042
MEB105,tru,1,7.74812967581047,6.33436092446282,7.75561097256858,6.62682548179872
MEB105,tru,1,7.62169312169312,8.55447985786287,8.2010582010582,8.83461018476791
MEB105,tru,1,8.17150395778364,5.84213886974718,7.44591029023747,6.6220879141721
MEB105,tru,1,6.92511013215859,6.90588797806338,6.47356828193833,6.99534883720931
MEB105,tru,1,8.53008595988539,7.47340999999999,7.83954154727794,8.28525866666666
MEB105,tru,1,8.83918128654971,8.01323817198109,10.3713450292398,6.98633561643833
MEB105,tru,1,8.02380952380952,7.04519265900341,8.70634920634921,6.03775094249704
MEB105,tru,1,7.01272264631043,6.91639395889529,6.80661577608142,7.98362039203651
MEB105,tru,1,6.67835051546392,7.34020618556701,5.42680412371134,6.20425749586842
MEB105,tru,1,7.09677419354839,6.2671311318954,6.85111662531017,6.66810344827586
MEB105,tru,1,8.02088772845953,9.1820320855615,8.35770234986945,7.82930909090909
MEB105,tru,1,8.96802325581395,6.70960698689956,9.27325581395349,6.87314573016785
MEB105,tru,1,10.3786764705882,7.82555282555283,11.6029411764706,5.65467836435578
MEB105,tru,1,9.37414965986395,5.95976463104325,10.6122448979592,6.87034739454094
MEB105,tru,1,10.8713235294118,6.00722222222223,11.3345588235294,6.32513580246914
MEB105,tru,1,7.59250585480094,7.88386195032792,6.62763466042155,7.39990074101963
MEB105,tru,1,10.641638225256,6.89253009911089,10.3754266211604,6.69171503957784
MEB105,tru,1,8.12169312169312,6.43928970676756,6.88888888888889,5.49945137157108
MEB105,tru,1,7.6875,5.74904938271605,7.74184782608696,5.84297530864198
MEB105,tru,1,7.01686746987952,6.88767187345436,7.83132530120482,7.64211221122111
MEB105,tru,1,5.97402597402597,7.85294117647059,6.9025974025974,7.76464155528554
MEB105,tru,1,7.49638554216867,8.92500211291413,7.11807228915663,9.19621230845279
MEB105,tru,1,10.1188811188811,6.98222049689441,10.972027972028,7.73615918322191
MEB105,tru,1,10.5967213114754,6.51504787961696,10.2590163934426,6.65625
MEB105,tru,1,8.22608695652174,6.09437121056772,7.17971014492754,7.3294080604534
MEB105,tru,1,10.7275862068966,5.59915794687635,12.2620689655172,6.37413330285949
MEB105,tru,1,7.26588235294118,5.64015032884435,7.19294117647059,6.81746090565478
MEB105,tru,1,8.50546448087432,6.48296439198248,8.84972677595628,6.07799221789884
MEB105,tru,1,6.86543535620053,5.93535113748764,1.4934036939314,6.42605218657946
MEB105,tru,1,8.73015873015873,9.76739495798319,7.81216931216931,9.54029268292684
MEB105,tru,1,8.73655913978495,7.8747633437029,7.78225806451613,7.76386920980927
MEB105,tru,1,8.27220630372493,5.79822897453605,9.20057306590258,5.79933000164754
MEB105,tru,1,7.04710920770878,9.09739354838711,7.08565310492505,8.48511909993847
MEB105,tru,1,6.84977578475336,6.20419843871692,6.70627802690583,6.44142335766424
MEB105,tru,1,7.64397905759162,6.78660049627789,7.95287958115183,8.53689567430022
MEB105,tru,1,8.34560906515581,6.88888888888889,8.22379603399433,7.03275778880617
MEB105,tru,1,7.62903225806452,5.35232854015028,8.18010752688172,5.53627461889393
MEB105,tru,1,6.94700460829493,7.597841378197,7.10829493087558,8.12296764373515
MEB105,tru,1,15.8252427184466,5.94335511982571,13.2281553398058,5.70078493917503
MEB105,tru,1,9.16774193548387,4.1539163750536,8.23548387096774,4.39797961985616
MEB105,tru,1,7.11060948081264,7.62649035812673,7.41534988713318,8.17129429721941
MEB105,tru,1,6.7,11.2069171566518,4.75,10.2789473684211
MEB105,tru,1,11.5381679389313,5.29330069675569,12.175572519084,6.23063446054748
MEB105,tru,1,7.11212814645309,5.06762024753576,7.87185354691076,5.52371945095413
MEB105,tru,1,10.0157232704403,6.71825851830302,9.4937106918239,7.36280711564674
MEB105,tru,1,10.0194805194805,7.89190600522194,8.60714285714286,6.34537206266319
MEB105,tru,1,5.7079107505071,5.75977300976813,6.41784989858012,6.15296790172565
MEB105,tru,1,5.83018867924528,6.78350515463918,5.65849056603774,5.61010309278351
MEB105,tru,1,6.146484375,6.64116749585407,6.23828125,6.0873631840796
MEB105,tru,1,6.21900826446281,6.1873417721519,6.59504132231405,7.82204590878808
MEB105,tru,1,7.54228855721393,7.40932642487047,9.31094527363184,7.44520725388601
MEB105,tru,1,6.10794297352342,6.88148303896831,6.33197556008147,6.5053788934001
MEB105,tru,1,10.0223642172524,6.97284446012288,9.9776357827476,5.35044094364088
MEB105,tru,1,9.49350649350649,7.03701923076923,10.8409090909091,7.08727918497056
MEB105,tru,1,6.85572139303483,6.53943191427423,7.24875621890547,7.57053659452608
MEB105,tru,1,10.8610038610039,5.65783839915704,9.45173745173745,5.66155388471176
MEB105,tru,1,5.92664092664093,7.41899686520375,5.98455598455598,6.65879894277459
MEB105,tru,1,7.1985111662531,8.01452296819787,7.68982630272953,6.7003130233496
MEB105,tru,1,10.6354515050167,7.22602763397085,12.695652173913,7.64960138315243
MEB105,tru,1,5.28714859437751,5.22518181818182,6.6425702811245,5.46010347376201
MEB105,tru,1,6.31524008350731,6.33445122281578,6.61169102296451,5.76855895196507
MEB105,tru,1,6.99305555555556,5.49505693905644,6.02083333333333,5.15877518202528
MEB105,tru,1,6.96061269146608,8.22429799426935,7.10284463894967,8.73772312491514
MEB105,tru,1,10.8375451263538,9.05987743732591,11.5523465703971,10.2742203954073
MEB105,tru,1,9.23051948051948,7.89937266332932,10.0422077922078,8.37491964454529
MEB105,tru,1,7.55025125628141,7.02364066193853,7.49246231155779,6.77076241134752
MEB105,tru,1,8.420054200542,8.57031575573009,8.82113821138211,7.79275248373955
MEB105,tru,1,7.90885416666667,6.48501492537313,7.08854166666667,5.60246097755496
MEB105,tru,1,8.4012539184953,6.4375,9.68965517241379,6.94493947167095
MEB105,tru,1,9.74914089347079,7.86391372759719,10.4398625429553,6.9198721742218
MEB105,tru,1,10.5034246575342,5.70849310469636,11.6883561643836,6.07336132090829
MEB105,tru,1,6.18588235294118,5.79695274592824,8.13882352941176,5.90782217718331
MEB105,tru,1,11.5375,6.39495596751533,12.55,7.1148051948052
MEB105,tru,1,6.80693069306931,5.01739960238569,7.1460396039604,5.02598151548723
MEB105,tru,1,6.62469135802469,5.00190839694656,7.07407407407407,5.87125340599455
MEB105,tru,1,5.6484962406015,5.96973758327992,5.79323308270677,6.20476662199173
MEB105,tru,1,6.8780487804878,6.29272975929979,7.43458980044346,6.61706783369803
MEB105,tru,1,12.2744360902256,7.19166097811671,10.6503759398496,6.89634244502395
MEB105,tru,1,7.15801886792453,6.77645988420181,7.37264150943396,7.54327111111111
MEB105,tru,1,8.20212765957447,6.3076783625731,8.55053191489362,6.41512651616892
MEB105,tru,1,9.46496815286624,7.75027808676307,9.90445859872611,7.42983870967742
MEB105,tru,1,10.1920529801325,5.51351351351351,9.63907284768212,6.17632472373852
MEB105,tru,1,5.8052738336714,6.91006173869514,6.8580121703854,5.38394793926247
MEB105,tru,1,9.4171974522293,6.06465398400882,8.04777070063694,6.73346055979644
MEB105,tru,1,5.79545454545455,6.4881912339175,5.87689393939394,6.85037451170125
MEB105,tru,1,6.08764940239044,12.4651260504202,6.17729083665339,10.0319338422392
MEB105,tru,1,8.76685393258427,7.45231425903691,8.07022471910112,6.58660159081856
MEB105,tru,1,5.35130434782609,8.84468895471861,4.94782608695652,8.2379592509199
MEB105,tru,1,5.97087378640777,5.60512892837835,6.14174757281553,5.19787321063395
MEB105,tru,1,5.95785440613027,6.62992244266655,5.00574712643678,5.43114167243324
MEB105,tru,1,9,6.47408067940553,10.4046822742475,6.45608979338202
MEB105,tru,1,6.07692307692308,6.72792390469294,6.49450549450549,6.26915332270253
MEB105,tru,1,7.18663594470046,6.50285620915033,6.42857142857143,7.32776845229407
MEB105,tru,1,7.14070351758794,6.84386339849209,7.16582914572864,6.152633861249
MEB105,tru,1,10.3699633699634,7.82384823848238,11.7692307692308,7.08739837398374
MEB105,tru,1,7.71186440677966,9.52245443631998,9.43502824858757,7.77833603896104
MEB105,tru,1,9.03525641025641,6.87350601845945,10.2884615384615,5.99109182935647
MEB105,tru,1,7.36153846153846,4.82249184605349,6.61282051282051,4.89690802348337
MEB105,tru,1,6.93548387096774,7.93866666666667,6.98847926267281,7.405
MEB105,tru,1,9.88486842105263,5.06046820159697,10.2039473684211,5.24967527781786
MEB105,tru,1,8.57654723127036,7.16440422322778,10.7100977198697,6.12539086929333
MEB105,tru,1,10.5397350993377,7.02733585303682,8.64238410596026,7.21247311827957
MEB105,tru,1,8.55864197530864,6.66621729490023,7.62037037037037,7.20842572062084
MEB105,tru,1,6.88837209302326,6.41160949868073,7.67906976744186,6.58608990670059
MEB105,tru,1,7.10666666666667,7.17074496024343,7.864,7.1915454764956
MEB105,tru,1,8.51319648093842,8.17367403840061,11.0117302052786,7.25092172433353
MEB105,tru,1,8.70114942528736,6.86305915100905,9.10344827586207,6.30760324430686
MEB105,tru,1,7.22926829268293,4.90435688248568,8.05365853658537,5.03542207792208
MEB105,tru,1,7.1007556675063,6.37122182206216,6.84382871536524,5.95527704485488
MEB105,tru,1,9.590625,7.51157888898136,10.665625,6.90530899991581
MEB105,tru,1,8.60830860534125,5.89186179904177,10.160237388724,5.12941156623254
MEB105,tru,1,5.45665961945032,5.06236994189201,6.54756871035941,5.53561714540889
MEB105,tru,1,5.26037735849057,7.54815780120839,5.45094339622641,7.94117647058823
MEB105,tru,1,7.90201005025126,6.42396313364055,8.12060301507538,6.55986583870408
MEB105,tru,1,10.700325732899,8.71925226957645,9.42345276872964,6.72311613970749
MEB105,tru,1,8.76770538243626,7.35358428364786,7.26062322946176,5.73960063845728
MEB105,tru,1,5.43300970873786,7.55053072625699,4.5631067961165,8.17573184357543
MEB105,tru,1,10.1966101694915,5.79869713552996,10.3796610169492,1.01138519924099
MEB105,tru,1,8.05974025974026,7.4720822622108,7.38961038961039,6.86045523607901
MEB105,tru,1,6.81374722838137,7.83718104495748,5.71175166297118,7.53846153846154
MEB105,tru,1,7.62068965517241,5.38288401455857,7.66256157635468,6.76734810126582
MEB105,tru,1,8.74931129476584,8.0382256104731,8.6198347107438,9.17569564146762
MEB105,tru,1,6.82057416267943,5.59978189749182,6.11722488038277,5.03697936940443
MEB105,tru,1,6.01113585746102,6.7814525979517,7.37416481069042,6.6333245590945
MEB105,tru,1,8.032,8.53570362155014,7.2,8.03808344682432
MEB105,tru,1,11.0266159695817,7.27706266729649,11.9771863117871,5.58289659160733
MEB105,tru,1,5.49404761904762,6.3826931727393,6.15079365079365,5.32585092348285
MEB105,tru,1,8.3394495412844,7.31363513147197,10.1467889908257,7.68102535962062
MEB105,tru,1,6.69631236442516,7.29739313984169,6.87852494577007,7.68240882103477
MEB105,tru,1,6.29106029106029,7.19245894055054,6.28274428274428,7.49410067057126
MEB105,tru,1,7.4841075794621,7.29209003215437,7.76039119804401,7.73820058350932
MEB105,tru,1,6.9185520361991,6.02434289127838,7.13574660633484,5.67934611403628
MEB105,tru,1,10.2172413793103,5.58768471720818,11.8896551724138,5.87149733539625
MEB105,tru,1,7.7972972972973,6.70299145299145,9.19189189189189,7.08694444444444
MEB105,tru,1,11.3414634146341,6.47571329157968,8.62717770034843,5.53820459290188
MEB105,tru,1,6.11157024793388,5.90324370014264,6.34297520661157,7.18501770107312
MEB105,tru,1,6.01918976545842,7.86589266674565,6.39445628997868,7.02086956521739
MEB105,tru,1,7.04872881355932,5.82653651617238,5.41949152542373,6.52502080497513
MEB105,tru,1,5.84388185654008,8.26333139099306,6.48523206751055,8.21764886404847
MEB105,tru,1,11.8605577689243,7.98097364232336,12.8525896414343,7.48668238634314
MEB105,tru,1,5.96281800391389,7.59090909090909,6.19765166340509,6.48187015271448
MEB105,tru,1,8.44412607449857,5.93819120866782,9.1432664756447,6.59329787234042
MEB105,tru,1,8.75862068965517,6.38803858298967,8.35919540229885,5.18685831622177
MEB105,tru,1,6.61244019138756,7.06604360121137,6.55980861244019,6.95682111211697
MEB105,tru,1,8.11168831168831,7.34695011295877,6.67012987012987,7.66567164179104
MEB105,tru,1,7.22015915119363,5.95568416045663,8.52254641909814,5.44888695293335
MEB105,tru,1,8.95253164556962,6.56310074591635,8.75,6.26706349748113
MEB105,tru,1,8.56438356164383,5.38594736842106,8.13150684931507,5.62177858439201
MEB105,tru,1,8.09308510638298,6.68067226890756,8.78191489361702,6.58923593738833
MEB105,tru,1,11.626334519573,7.25290755765157,9.34163701067616,6.75916884816754
MEB105,tru,1,8.52328767123288,7.59496184054829,6.99452054794521,9.08058345289336
MEB105,tru,1,6.69103773584906,5.28244151620291,8.18396226415094,5.11537585421413
MEB105,tru,1,9.0231884057971,7.44483769286069,9.17971014492754,6.55154789719626
MEB105,tru,1,5.11174242424242,6.75463704578029,6.47537878787879,6.49873838630807
MEB105,tru,1,7.86904761904762,9.73184395709503,7.98571428571429,9.56043360433605
MEB105,tru,1,7.84705882352941,7.85822680033109,9.12058823529412,7.82756024096386
MEB105,tru,1,7.88780487804878,6.50552204176334,7.36341463414634,7.05275792730086
MEB105,tru,1,7.82016348773842,8.0904376036027,7.84741144414169,9.41410506761451
MEB105,tru,1,9.28395061728395,6.04728105103199,10.1388888888889,7.00264700321422
MEB105,tru,1,12.152,6.85450534979424,11.848,5.76274691358025
MEB105,tru,1,10.5666666666667,8.92849414937,12.2814814814815,8.6625
MEB105,tru,1,8.11195928753181,6.00510148193355,9.03053435114504,5.97538361757639
MEB105,tru,1,7.58508158508158,8.71531626506024,7.25174825174825,8.68722983537202
MEB105,tru,1,10.8086642599278,7.52996177370031,11.6137184115523,7.46751299908342
MEB105,tru,1,8.87608069164265,6.19727412094192,9.17579250720461,6.53909833828137
MEB105,tru,1,7.97368421052632,6.61882352941176,8.25730994152047,6.5267175572519
MEB105,tru,1,10.46875,6.40529363110008,11.4340277777778,5.54481481481482
MEB105,tru,1,8.19476744186047,7.6137351492321,8.71802325581395,5.67737239559639
MEB105,tru,1,9.18934911242603,7.24477860190262,8.97633136094675,6.10313294278332
MEB105,tru,1,6.18589743589744,7.92571609288877,6.45726495726496,7.89432258064516
MEB105,tru,1,6.8,7.3405275342241,6.96739130434783,6.93223638960902
MEB105,tru,1,7.41745283018868,7.4925932906144,6.96462264150943,7.87913587848933
MEB105,tru,1,9.34256055363322,7.23473684210527,9.76124567474048,8.17317487266554
MEB105,tru,1,6.33920704845815,5.65195703612669,6.41409691629956,6.18380453236879
MEB105,tru,1,9.06430868167203,5.9298031062737,8.77491961414791,5.92156377332562
MEB105,tru,1,7.57178217821782,5.8490412826364,7.23267326732673,1.06346205138844
MEB105,tru,1,13.1949152542373,7.46771708683474,13.7584745762712,7.62484726575929
MEB105,tru,1,7.04666666666667,7.14380876054567,6.81333333333333,7.7395087355129
MEB105,tru,1,7.93633952254642,6.34407766990291,8.18567639257294,5.82030188492798
MEB105,tru,1,7.58529411764706,7.03738685828785,9.62352941176471,1.23518255260413
MEB105,tru,1,9.64383561643836,5.22516339869282,10.1198630136986,5.15608496732027
MEB105,tru,1,6.94376528117359,8.37998303647159,5.92176039119804,8.7273112807464
MEB105,tru,1,8.48369565217391,7.26511627906977,7.77717391304348,6.13527131782946
MEB105,tru,1,10.0354838709677,6.87178656796974,10.8322580645161,7.86830148385431
MEB105,tru,1,7.8075,6.82830418754802,8.2275,6.72859371885375
MEB105,tru,1,7.8005249343832,7.5375,7.48031496062992,6.848
MEB105,tru,1,10.2909698996656,9.23547183223743,9.91304347826087,9.53512990936557
MEB105,tru,1,11.3636363636364,6.6892666157372,11.3309090909091,7.24544255217078
MEB105,tru,1,7.0188679245283,6.19096509240246,7.22877358490566,5.79535414575489
MEB105,tru,1,7.68579234972678,6.48818501759678,1.58469945355191,5.97763030812849
MEB105,tru,1,8.64116094986807,6.50337692307693,7.30079155672823,8.20455449563629
MEB105,tru,1,9.82692307692308,6.91751046307547,8.38782051282051,1.25847222222222
MEB105,tru,1,8.41961852861035,6.88627985254047,7.36239782016349,6.695479718605
MEB105,tru,1,9.89492753623188,5.59290845394387,10.8297101449275,4.55930735930736
MEB105,tru,1,7.89950980392157,6.01621753246753,8.33578431372549,6.27762862137862
MEB105,tru,1,9.08985507246377,8.65081934914635,9.04927536231884,7.96467278287459
MEB105,tru,1,7.77023498694517,7.71734002401784,7.17754569190601,7.54231889333819
MEB105,tru,1,8.33419689119171,6.89478220140516,7.54922279792746,7.85173842550892
MEB105,tru,1,8.49852507374631,6.43123993963783,8.02064896755162,6.02981354795439
MEB105,tru,1,7.55968169761273,6.25790022985269,7.53580901856764,6.70930100755668
MEB105,tru,1,6.84599156118143,10.9447188544629,6.49367088607595,11.6427772101396
MEB105,tru,1,9.79666666666667,6.65205344366495,8.80666666666667,6.50898172048675
MEB105,tru,1,6.26170212765957,6.45760152284264,7.04042553191489,6.43401015228427
MEB105,tru,1,7.74390243902439,7.138975277228,7.44878048780488,6.55341148805198
MEB105,tru,1,8.01041666666667,7.20976948696207,7.3984375,8.44753465520267
MEB105,tru,1,7.73164556962025,9.26392371923829,6.24050632911392,9.66103563259569
MEB105,tru,1,8.8112676056338,13.1580379746835,9.2169014084507,12.0718987341772
MEB105,tru,1,9.96625766871166,7.51893606138108,9.65644171779141,6.38815856777494
MEB105,tru,1,10.0872483221477,11.8584582790091,10.3959731543624,11.7470945311295
MEB105,tru,1,6.41990291262136,6.3910319205959,6.22330097087379,5.34147829140713
MEB105,tru,1,8.04451038575668,8.50121212121213,9.44510385756677,8.72301235350016
MEB105,tru,1,9.07558139534884,8.84398697068404,8.02616279069767,9.14314841982246
MEB105,tru,1,9.5251572327044,6.25402340096996,8.91194968553459,5.55546856310215
MEB105,tru,1,11.2367491166078,5.66914540299717,11.6890459363958,5.62753333333333
MEB105,tru,1,7.33695652173913,4.80753234379431,8.3695652173913,4.91907226703634
MEB105,tru,1,6.68070953436807,7.11442303808716,6.86474501108647,7.23389474534513
MEB105,tru,1,9.60952380952381,6.74266365688488,10.8349206349206,6.86834010534237
MEB105,tru,1,10.7601351351351,8.14441416893733,10.6452702702703,7.95252748285258
MEB105,tru,1,10.3205128205128,7.95024651016138,9.68269230769231,7.31074824899474
MEB105,tru,1,6.13496932515337,8.15053379193281,6.56646216768916,7.72459016393443
MEB105,tru,1,10.1405750798722,6.28901764760478,10.4121405750799,6.53433018752299
MEB105,tru,1,7.12412177985949,6.79505396326207,6.61826697892272,7.09593013676055
MEB105,tru,1,6.73529411764706,6.38149517684887,6.97058823529412,6.21814710610932
MEB105,tru,1,6.58482142857143,9.25716588005066,6.95758928571429,10.106301369863
MEB105,tru,1,10.808362369338,6.58105709259556,10.7491289198606,5.81551351351352
MEB105,tru,1,8.82477341389728,5.14994983091159,9.68277945619335,4.87787726358149
MEB105,tru,1,10.5347222222222,5.75155128205126,11.8993055555556,6.29996701846963
MEB105,tru,1,9.95149253731343,7.57209302325581,10.839552238806,7.13912376511014
MEB105,tru,1,8.45054945054945,8.35651600321211,8.46153846153846,6.65675951086956
MEB105,tru,1,9.41040462427746,7.41140711169893,9.27745664739884,6.35090124797515
MEB105,tru,1,9.82153846153846,6.14742562929062,9.37846153846154,5.57829890447004
MEB105,tru,1,7.7911227154047,7.32686148586976,7.21671018276762,7.0395440251572
MEB105,tru,1,10.917695473251,8.46729976019184,12.4650205761317,9.11380819008913
MEB105,tru,1,8.68266666666667,6.85562360537438,8.44266666666667,6.44654735671481
MEB105,tru,1,9.759375,6.00846445448408,10.171875,6.39010604241697
MEB105,tru,1,9.71753246753247,5.86807674350427,9.95454545454546,6.56986547085202
MEB105,tru,1,9.77507598784194,8.40267175572519,7.4741641337386,8.9492709599028
MEB105,tru,1,8.18005540166205,6.11446384039901,8.93074792243767,5.18163885547371
MEB105,tru,1,8.0633608815427,7.09206521739131,8.61157024793388,7.75630434782609
MEB105,tru,1,7.38501291989664,7.94448510230023,7.67700258397933,9.28778398323811
MEB105,tru,1,13.7310924369748,6.62919191581015,12.2563025210084,6.00525216208338
MEB105,tru,1,7.21939953810624,8.30709819065728,6.77136258660508,9.80808813439711
MEB105,tru,1,7.73007712082262,5.23408906882591,8.73007712082262,5.33090647920859
MEB105,tru,1,10.8065573770492,8.68597161150968,7.79344262295082,9.4114964905989
MEB105,tru,1,5.79916317991632,6.06087111111112,6.26359832635983,5.82074796747968
MEB105,tru,1,9.89389067524116,5.48092307692308,10.411575562701,4.963005
MEB105,tru,1,9.88498402555911,6.30052946033902,8.66453674121406,7.07815970230475
MEB105,tru,1,7.44757033248082,7.75293457710926,8.29923273657289,6.8152634766808
MEB105,tru,1,13.2255319148936,6.65855113975415,13.5574468085106,5.64024565229868
MEB105,tru,1,8.79940119760479,7.404754601227,9.11077844311377,8.61073385472767
MEB105,tru,1,6.53956834532374,6.19287211740042,6.67625899280576,5.70661103341816
MEB105,tru,1,7.68304668304668,6.92767368339887,6.72727272727273,7.88525252525253
MEB105,tru,1,9.56426332288401,6.38403614457831,1.70532915360502,7.69796744228823
MEB105,tru,1,7.56382978723404,5.43170400846712,8.15425531914894,5.06532485875706
MEB105,tru,1,6.19120879120879,7.06546522223347,6.43296703296703,6.6442699558127
MEB105,tru,1,7.47441860465116,6.53260324825987,7.05813953488372,6.05067561732482
MEB105,tru,1,9.52758620689655,5.15383542816167,11.7310344827586,5.94734165886995
MEB105,tru,1,7.96174863387978,5.15038158559395,9.3224043715847,5.51255110501186
MEB105,tru,1,9.24702380952381,5.89034057545507,8.77976190476191,6.65084491420369
MEB105,tru,1,5.60037523452158,5.55954661558109,5.75046904315197,6.00925925925926
MEB105,tru,1,6.80846325167038,5.37116476213804,7.48329621380846,5.26452946718309
MEB105,tru,1,7.09839816933638,6.67689540566959,7.67048054919908,7.24699842552587
MEB105,tru,1,10.1666666666667,6.21581274847009,10.4281045751634,5.22326350113905
MEB105,tru,1,5.83650190114068,7.97365432659551,6.34030418250951,6.83103040540541
MEB105,tru,1,7.15384615384615,6.97052309986186,7.65508684863524,6.19321329639889
MEB105,tru,1,7.52770448548813,5.32388020143122,8.66754617414248,5.08131635721603
MEB105,tru,1,5.86758893280632,5.79488259668508,6.27272727272727,7.29296529037155
MEB105,tru,1,10.4424460431655,7.4887252124646,11.4676258992806,7.5715420465489
MEB105,tru,1,6.96818181818182,6.39246973803069,7.12045454545455,6.9836325803891
MEB105,tru,1,11.0170068027211,7.25278917910448,10.9965986394558,7.51455955516535
MEB105,tru,1,9.33908045977011,8.78625000000001,9.48563218390805,7.91484375
MEB105,tru,1,5.98426966292135,8.52373880797919,6.69887640449438,8.51624996371384
MEB105,tru,1,10.1854545454545,6.67590476190477,11.2036363636364,6.47234855059886
MEB105,tru,1,7.73756906077348,8.95625159154571,8.66022099447514,1.35357142857143
MEB105,tru,1,6.56631578947368,5.1864587973274,6.93684210526316,5.63647185316028
MEB105,tru,1,10.2697841726619,5.86233277230425,10.0791366906475,6.09018766756035
MEB105,tru,1,7.95026178010471,6.28814151481162,7.13089005235602,6.09380743982495
MEB105,tru,1,9.875,7.98538699690403,7.73125,6.72004643962849
MEB105,tru,1,8.05994550408719,7.08723087467208,7.55858310626703,7.76892057132451
MEB105,tru,1,10.1135646687697,7.38386567085121,7.63722397476341,7.22083465250173
MEB105,tru,1,6.51789473684211,5.62237098229122,6.66736842105263,6.25768561708154
MEB105,tru,1,8.77469135802469,6.28487911216805,10.1851851851852,5.93728579209788
MEB105,tru,1,8.04507042253521,6.4639000697599,9.17746478873239,6.88898247978437
MEB105,tru,1,7.5525,7.48717948717947,7.33,5.83766025641025
MEB105,tru,1,7.73901098901099,7.45706279091859,7.98076923076923,5.73327456382002
MEB105,tru,1,8.01851851851852,6.73024523160763,7.78306878306878,7.5278080697928
MEB105,tru,1,9.66666666666667,6.38106143178498,10.8566666666667,5.61682242990654
MEB105,tru,1,9.390625,6.86424570912376,9.903125,5.59481162093943
MEB105,tru,1,6.84841075794621,8.81032141670227,8.37408312958435,6.53342372881356
MEB105,tru,1,6.97596153846154,7.11891841491842,7.80288461538461,5.20937062937063
MEB105,tru,1,9.28746177370031,6.84767994154184,7.77981651376147,5.27650694701252
MEB105,tru,1,11.3152542372881,8.14320388349515,9.76271186440678,6.66747572815534
MEB105,tru,1,7.92140921409214,6.22807377049181,8.09485094850949,7.58102506123987
MEB105,tru,1,7.58397932816537,8.77831914524768,7.53488372093023,6.2642779587405
MEB105,tru,1,7.85492227979275,6.81476470588234,7.10621761658031,6.58361549497847
MEB105,tru,1,6.48492462311558,6.1961568941302,7.7035175879397,6.10118645159213
MEB105,tru,1,5.68103448275862,5.92230882352939,6.71551724137931,5.56479411764704
MEB105,tru,1,5.08955223880597,6.24831612034127,1.02425373134328,6.4764705882353
MEB105,tru,1,7.32124352331606,5.30880503144654,7.92487046632124,4.52171698113208
MEB105,tru,1,11.3917910447761,7.02730297120569,9.17537313432836,6.76295631042316
MEB105,tru,1,10.7517006802721,5.56126482213439,10.9965986394558,5.71345849802372
MEB105,tru,1,6.56867469879518,7.34509698275864,7.50120481927711,6.99012169471157
MEB105,tru,1,7.92533333333333,7.57178936483316,8.672,6.76796427955787
MEB105,tru,1,7.75197889182058,6.54496576576574,8.56992084432718,7.18270270270267
MEB105,tru,1,7.29665071770335,6.60670050761422,7.38995215311005,6.41198124539854
MEB105,tru,1,7.18937644341801,7.01275511711893,6.54965357967667,6.74646570424115
MEB105,tru,1,9.57817109144543,7.46651069232635,9.13274336283186,6.30513089005236
MEB105,tru,1,7.07551487414188,6.28611104222977,5.44622425629291,7.96105027376804
MEB105,tru,1,8.84659090909091,5.90333662596047,7.69318181818182,6.46820143884892
MEB105,tru,1,8.00268817204301,7.86688305183226,8.26344086021505,7.83713639683254
MEB105,tru,1,8.54213483146067,7.52155978854581,6.43820224719101,6.30920371127325
MEB105,tru,1,6.50854700854701,5.50404809619239,6.9465811965812,5.50300601202405
MEB105,tru,1,7.22673031026253,6.67900874635569,7.53221957040573,7.81597667638484
MEB105,tru,1,10.019801980198,5.54940711462451,11.4884488448845,5.72836772820925
MEB105,tru,1,8.24309392265193,7.84987831198054,7.03867403314917,6.3913311953469
MEB105,tru,1,7.27944572748268,5.67332105341763,5.91685912240185,5.68218029350105
MEB105,tru,1,9.14150943396226,6.35762525078412,10.7012578616352,7.24887567311672
MEB105,tru,1,6.5272373540856,5.2717816091954,5.04863813229572,0.92340848806366
MEB105,tru,1,8.00255102040816,7.48610426540285,1.42091836734694,6.51141644544005
MEB105,tru,1,5.6949806949807,6.57852021555842,5.97104247104247,8.20401992338586
MEB105,tru,1,6.98194130925508,6.24740124740125,8.29571106094808,7.21549110085696
MEB105,tru,1,8,8.5252467574843,6.71907216494845,8.23967933825219
MEB105,tru,1,8.58045977011494,5.33259414225942,8.24137931034483,5.90581066945607
MEB105,tru,1,7.02088772845953,6.90598802395212,6.81723237597911,5.5126939581328
MEB105,tru,1,9.12573099415205,6.74117882919005,9.30409356725146,7.23568497166308
MEB105,tru,1,7.60559796437659,8.16613334830364,6.74809160305344,7.91337772724808
MEB105,tru,1,8.559375,8.27855670570115,7.7375,7.76905214962026
MEB105,tru,1,6.57109004739336,8.77410468319559,7.40047393364929,8.0154143797447
MEB105,tru,1,7.97142857142857,5.19078624078624,8.52727272727273,5.87960018477729
MEB105,tru,1,8.72079772079772,7.19697552742617,8.76638176638177,7.56891814345992
MEB105,tru,1,6.71719457013575,6.01978021978022,6.98868778280543,6.02418162312621
MEB105,tru,1,9.61162079510703,8.81875,9.08256880733945,8.44990694789082
MEB105,tru,1,7.43279569892473,4.87202925045704,9.20698924731183,6.4819012797075
MEB105,tru,1,6.71261682242991,7.71950789692436,8.30841121495327,5.95802992518704
MEB105,tru,1,6.56136363636364,5.86142722302363,6.03863636363636,5.79379334430973
MEB105,tru,1,12.0614754098361,6.89818181818183,11.5450819672131,7.51172202797204
MEB105,tru,1,6.77962085308057,6.5223988607979,7.59478672985782,1.24980080588249
MEB105,tru,1,10.8357142857143,7.01597560975607,12.6821428571429,7.09247113479535
MEB105,tru,1,6.91219512195122,6.49727346559925,8.64390243902439,5.43005457016112
MEB105,tru,1,9.69496855345912,5.35961240310078,9.70754716981132,4.58139534883721
MEB105,tru,1,5.84067085953878,5.06022381975839,6.65828092243187,5.30953398058253
MEB105,tru,1,8.38068181818182,6.41731494470659,7.73863636363636,7.01617183770883
MEB105,tru,1,8.79411764705882,7.64660155471397,9.10294117647059,8.10565028901734
MEB105,tru,1,9.74675324675325,8.30291646070193,9.22402597402597,8.07355412753337
MEB105,tru,1,6.6359102244389,7.69469517022961,7.30673316708229,8.31701523666068
MEB105,tru,1,5.79651162790698,6.22351706036746,5.31007751937984,5.75613436603803
MEB105,tru,1,7.98477157360406,7.09156105438919,6.74619289340102,7.18799441600745
MEB105,tru,1,11.6093189964158,11.2563070207545,11.6308243727599,11.4905348258707
MEB105,tru,1,5.7030303030303,6.44587912087912,6.56969696969697,6.9661945683744
MEB105,tru,1,6.66,7.33556563639198,7.0525,6.91890092975851
MEB105,tru,1,9.05769230769231,6.11444141689373,9.2051282051282,6.08054751250329
MEB105,tru,1,7.66093366093366,7.96053388242715,8.91154791154791,5.43675055187639
MEB105,tru,1,6.33176470588235,6.42011254015198,1.35058823529412,5.81556647816359
MEB105,tru,1,7.02045454545455,6.64444360668954,6.275,7.53545811033146
MEB105,tru,1,10.2179487179487,6.10896854204474,9.88141025641026,5.36393231033986
MEB105,tru,1,7.23832923832924,5.04247787610619,6.48157248157248,4.89045974530542
MEB105,tru,1,6.66983372921615,7.33054799844539,6.90023752969121,7.66882897443433
MEB105,tru,1,6.41685649202733,7.42833480176212,7.10250569476082,6.52691629955947
MEB105,tru,1,6.57588357588358,6.5483281580487,5.57588357588358,6.15444444444445
MEB105,tru,1,6.55531914893617,6.74831233330268,6.44255319148936,7.27177710843374
MEB105,tru,1,6.16167664670659,8.50657948066687,6.0059880239521,8.68802446866913
MEB105,tru,1,8.13725490196078,5.60623376623377,7.45343137254902,6.07831862793695
MEB105,tru,1,6.13247863247863,12.7202766273974,6.35470085470085,11.2315071770335
MEB105,tru,1,6.60222222222222,6.1690924915764,7.27777777777778,6.60585106382979
MEB105,tru,1,9.53623188405797,6.78405361050328,9.40942028985507,6.40356787245332
MEB105,tru,1,9.37150837988827,6.76763633764563,9.41899441340782,6.36641291810842
MEB105,tru,1,6.97416020671835,9.10815146579805,7.37467700258398,7.53107919306898
MEB105,tru,1,7.28165374677003,7.06698653198654,6.01808785529716,7.32019360269361
MEB105,tru,1,6.80128205128205,6.08415145386604,6.63888888888889,6.25862419895023
MEB105,tru,1,7.5391061452514,6.84838066675203,7.70670391061453,8.3038926174497
MEB105,tru,1,9.67711598746082,5.08585131894485,8.60815047021944,5.55259316240811
MEB105,tru,1,8.69883040935673,8.10110397100013,7.59649122807018,6.96406327236774
MEB105,tru,1,7.66917293233083,7.80429963396402,8.19298245614035,7.87501712615507
MEB105,tru,1,10.2278911564626,6.34641891891892,11.0204081632653,6.90024116424117
MEB105,tru,1,8.43454038997215,11.1857142857143,9.38161559888579,10.2061004784689
MEB105,tru,1,8.62613981762918,6.65636675187505,8.95136778115502,6.39233012792746
MEB105,tru,1,6.42647058823529,8.52617000403947,6.96638655462185,8.546878053547
MEB105,tru,1,6.18181818181818,9.6958993507586,5.17588932806324,8.64800624379171
MEB105,tru,1,6.71557562076749,7.4347798821021,7.72234762979684,6.59888059701493
MEB105,tru,1,9.12195121951219,8.00610836234802,9.78048780487805,6.23069398893626
MEB105,tru,1,7.41,6.72110552763819,7.84,6.74424369722245
MEB105,tru,1,8.60322580645161,11.050117370892,9.13870967741935,11.798731319213
MEB105,tru,1,6.64770240700219,7.33917782253287,6.33260393873085,6.10156521739131
MEB105,tru,1,6.42823529411765,5.91674115556513,7.34117647058823,6.3455764363793
MEB105,tru,1,8.06199460916442,6.9697686139748,8.38005390835579,6.95945366945603
MEB105,tru,1,7.54916067146283,6.03414236260522,6.35491606714628,6.73318479221925
MEB105,tru,1,10.2473867595819,8.92791649666193,10.808362369338,9.47223169710689
MEB105,tru,1,12.0447154471545,4.59202027382017,10.9959349593496,4.86186596477831
MEB105,tru,1,7.35537190082645,7.32231325301205,7.4435261707989,5.310740562249
MEB105,tru,1,13.150234741784,5.21665200820873,12.3708920187793,5.03399486971784
MEB105,tru,1,7.94724220623501,6.4448345323741,7.39808153477218,6.41872302158274
MEB105,tru,1,7.125,4.6970515121451,6.7675,5.83691672885299
MEB105,tru,1,6.59227467811159,5.48806862745098,6.65236051502146,5.37474019607843
MEB105,tru,1,5.80543933054393,7.18640826873385,6.60251046025105,5.79987189993124
MEB105,tru,1,7.83195592286501,7.03468826405868,8.59504132231405,7.12224938875306
MEB105,tru,1,8.02680965147453,7.00072091708777,7.02144772117962,7.79072420013742
MEB105,tru,1,10.5972222222222,5.45523482129316,11.375,4.87008441093399
MEB105,tru,1,8.47927461139896,7.24311151079134,7.41968911917098,7.867932853717
MEB105,tru,1,5.82867783985102,9.59249919675977,5.59217877094972,1.55207525343783
MEB105,tru,1,8.15942028985507,6.41981340118744,9.4231884057971,6.91754666666667
MEB105,tru,1,6.17672413793103,5.08988405488778,7.06896551724138,6.00590717299579
MEB105,tru,1,7.13657407407407,6.37806347930895,7.03009259259259,7.40045766590389
MEB105,tru,1,6.13836477987421,5.57855058103844,5.28092243186583,6.33467656415695
MEB105,tru,1,7.75287356321839,7.42456869009582,9.79597701149425,8.24469648562297
MEB105,tru,1,7.82585751978892,6.50861195542046,6.19525065963061,7.22958119417979
MEB105,tru,1,7.78036175710594,4.77467207319009,8.81395348837209,5.11843100189036
MEB105,tru,1,6.57205240174673,5.52251798561151,6.6943231441048,5.17618705035972
MEB105,tru,1,6.44583333333333,7.78462845812482,6.68541666666667,7.82265034711574
MEB105,tru,1,5.87063655030801,6.25463681514822,5.87268993839836,6.13902614379085
MEB105,tru,1,6.4400871459695,7.10930680854342,5.74074074074074,7.31005173688098
MEB105,tru,1,9.38613861386139,6.66602961467966,10.5973597359736,6.70844574417695
MEB105,tru,1,5.60455486542443,6.67590476190477,6.01449275362319,6.04194692761674
MEB105,tru,1,9.24458204334365,7.67946067415731,10.0928792569659,7.76799039368728
MEB105,tru,1,6.25979381443299,8.60660786053552,6.07422680412371,8.30012422360249
MEB105,tru,1,6.17026378896882,8.08105513307986,7.30695443645084,7.85271357225028
MEB105,tru,1,8.56695156695157,7.02576112412178,8.58404558404558,7.26463700234192
MEB105,tru,1,7.31007751937984,5.96253488372093,8.50387596899225,5.32844651162791
MEB105,tru,1,9.67100977198697,5.90747935891209,9.99348534201954,5.41132579193264
MEB105,tru,1,6.36853448275862,6.27314968469963,6.97844827586207,7.85659282075583
MEB105,tru,1,8.11206896551724,5.41759472817134,7.25862068965517,5.40766125482601
MEB105,tru,1,7.53789731051345,6.75160599571734,5.96332518337408,6.10706638115632
MEB105,tru,1,9.66013071895425,8.32816868800199,10.1209150326797,8.20768680669893
MEB105,tru,1,6.13104838709677,7.27369014084508,6.19354838709677,7.86921126760564
MEB105,tru,1,7.74035989717224,8.89290351434012,9.1413881748072,8.40406976744186
MEB105,tru,1,9.31232091690544,7.44046569377216,8.15759312320917,6.13541755888651
MEB105,tru,1,8.29427083333333,6.77684995944851,8.5546875,6.91353513494338
MEB105,tru,1,8.10249307479224,7.16666666666667,9.90304709141274,7.05580439814815
MEB105,tru,1,7.86649214659686,7.21657083886186,7.75392670157068,7.11901259832449
MEB105,tru,1,6.56410256410256,8.01752440995365,6.65811965811966,1.29650371340444
MEB105,tru,1,14.506976744186,6.92544077570501,13.1162790697674,7.48148064501558
MEB105,tru,1,5.81914893617021,5.06581707070384,6.8936170212766,4.65575925985073
MEB105,tru,1,6.74829931972789,9.07571617604097,6.91156462585034,8.07023212975538
MEB105,tru,1,10.492700729927,5.64453274774304,8.29197080291971,5.98472602739726
MEB105,tru,1,10.2410071942446,8.68330861756463,11.3129496402878,7.90522064905363
MEB105,tru,1,8.20212765957447,6.17940789473685,8.59308510638298,6.13484503112986
MEB105,tru,1,9.7108843537415,7.92871799882744,10.7142857142857,6.59436493738819
MEB105,tru,1,6.78211009174312,5.27306041682728,7.19036697247706,4.83757218208634
MEB105,tru,1,8.36572890025576,7.64002699797512,7.41943734015345,6.98291937047808
MEB105,tru,1,8.20718232044199,6.70281652257444,6.25966850828729,6.00594618022552
MEB105,tru,1,5.42857142857143,6.05704286876274,4.76373626373626,6.08021390374332
MEB105,tru,1,6.70387243735763,6.73482415689761,7.36674259681093,6.77297828925428
MEB105,tru,1,8.65028901734104,6.15089305684251,8.73988439306358,5.49421803750537
MEB105,tru,1,10.687969924812,5.41240781472377,12.781954887218,5.86354460192623
MEB105,tru,1,6.93961352657005,7.98022665345554,6.99275362318841,6.94225568181818
MEB105,tru,1,8.89402173913044,6.31769795918368,7.62771739130435,5.56583060705198
MEB105,tru,1,7.07093821510297,6.60932328826355,6.07551487414188,7.73818646232438
MEB105,tru,1,9.33125,8.10409221953701,8.734375,9.20320787207871
MEB105,tru,1,10.5827586206897,5.26524139315468,11.1862068965517,5.30985299559323
MEB105,tru,1,8.60171919770774,7.14428236716798,9.73638968481375,7.14882838283825
MEB105,tru,1,12.9552845528455,8.6481091515311,13.2032520325203,6.27624045801527
MEB105,tru,1,7.38392857142857,7.65578652206154,7.31696428571429,7.13396741360912
MEB105,tru,1,10.0472972972973,6.08589919258949,11.3581081081081,5.6690539835355
MEB105,tru,1,7.85164835164835,7.28890338264505,1.46978021978022,7.80324532299886
MEB105,tru,1,10.6062717770035,7.19705034819499,11.2439024390244,6.59576024309697
MEB105,tru,1,6.47291666666667,7.32576859160781,6.775,8.14524497991968
MEB105,tru,1,6.472647702407,6.87096157840084,7.54485776805252,6.80974689464381
MEB105,tru,1,8.64210526315789,7.99585185185185,8.08157894736842,6.99753086419752
MEB105,tru,1,6.34273318872017,7.31387067021933,6.40130151843818,7.60231707317076
MEB105,tru,1,6.82926829268293,7.61435053885423,6.96674057649667,7.77739534883722
MEB105,tru,1,8.87009063444109,7.39191305437233,7.06948640483384,8.79008151115127
MEB105,tru,1,10.2682119205298,5.82946210268949,10.658940397351,6.04347307531755
MEB105,tru,1,5.63265306122449,5.79138912881173,6.35918367346939,6.49861445783133
MEB105,tru,1,7.375,7.03825699090752,8.05163043478261,5.94023880597014
MEB105,tru,1,7.62359550561798,6.51991891891892,8.54775280898876,6.22796257796258
MEB105,tru,1,8.5632183908046,5.70415707970321,9.36781609195402,6.66753213944871
MEB105,tru,1,11.5622641509434,8.69991406166076,12.411320754717,8.64099688473521
MEB105,tru,1,6.26851851851852,8.078667878761,5.91203703703704,7.62133602205098
MEB105,tru,1,7.66477272727273,8.60650441747172,9.88920454545454,6.92559166866555
MEB105,tru,1,5.78937381404175,5.5984898771988,4.67741935483871,6.25214072353136
MEB105,tru,1,7.53944020356234,7.14479083665339,8.0381679389313,9.23566971482237
MEB105,tru,1,6.75275938189845,6.88027806076587,6.09933774834437,7.03439803439803
MEB105,tru,1,5.74236641221374,7.51763297872341,6.36450381679389,7.50071273955969
MEB105,tru,1,7.26582278481013,6.28372189226723,7.55696202531646,6.17609254498715
MEB105,tru,1,10.5249169435216,7.25522581708096,9.40863787375415,8.61983007719843
MEB105,tru,1,12.5714285714286,6.92913385826772,13.6912442396313,6.44871391076116
MEB105,tru,1,5.29158878504673,5.49145228671943,5.13271028037383,6.11855699364213
MEB105,tru,1,7.20238095238095,7.67743549424631,7.45714285714286,7.75985294117647
MEB105,tru,1,5.89483747609943,7.14010655201421,4.88336520076482,7.36651583710408
MEB105,tru,1,8.48850574712644,6.89542831105711,8.88218390804598,7.11565917375456
MEB105,tru,1,7.2434554973822,8.96389380530974,7.73298429319372,8.9582742236934
MEB105,tru,1,6.04077669902913,8.10096548553414,6.0504854368932,8.73960498960499
MEB105,tru,1,6.72613065326633,5.71473799198048,7.09547738693467,6.4031607108983
MEB105,tru,1,7.92602040816327,8.5910290237467,7.88775510204082,7.36851790700732
MEB105,tru,1,6.81774580335731,8.10704789600248,8.19424460431655,7.81159007216717
MEB105,tru,1,6.46666666666667,7.79610933267668,6.70416666666667,5.90193548387097
MEB105,tru,1,6.25355450236967,9.38960740546222,7.42417061611374,9.1671278950954
MEB105,tru,1,8.64197530864197,6.47647950280135,9.83333333333333,5.76869200438767
MEB105,tru,1,6.76484560570071,6.58098008503021,5.62232779097387,5.63073394495413
MEB105,tru,1,6.28635346756152,5.71080195090749,5.73825503355705,5.06628787878788
MEB105,tru,1,8.18654434250764,7.38868432869331,10.4006116207951,6.89124382577458
MEB105,tru,1,7.49275362318841,6.21080854629242,7.52898550724638,6.64361932114059
MEB105,tru,1,9.94855305466238,6.61958747365252,10.2700964630225,6.57362654320988
MEB105,tru,1,8.21842105263158,7.76539129895115,6.82105263157895,7.86105182926829
MEB105,tru,1,8.29201101928375,7.29730411742443,8.81818181818182,6.3569491525424
MEB105,tru,1,10.3449477351916,5.80713456416327,11.1881533101045,4.87431192660551
MEB105,tru,1,7.17183770883055,6.16443661971831,6.56324582338902,6.63672032193159
MEB105,tru,1,6.76046511627907,5.2714487179487,7.52093023255814,5.89287179487177
MEB105,tru,1,6.6,6.4619526735841,5.778,6.05275779376499
MEB105,tru,1,5.34848484848485,5.47159090909091,6.03977272727273,5.82455687255328
MEB105,tru,1,8.4475138121547,7.50467128027684,8.3121546961326,8.09222959710039
MEB105,tru,1,5.37671232876712,6.71292300704066,5.44178082191781,7.18603715377909
MEB105,tru,1,6.40697674418605,7.50122438780609,6.0906976744186,7.32421962095876
MEB105,tru,1,9.51273885350319,7.70942408376963,8.27070063694267,6.66392670157068
MEB105,tru,1,7.3623595505618,7.62111764705883,7.85112359550562,7.61414565826331
MEB105,tru,1,8.70607028753994,6.25341669824428,9.77955271565495,6.90659047619048
MEB105,tru,1,10.6538461538462,5.81465266509506,11.9115384615385,6.81348314606742
MEB105,tru,1,6.22594142259414,8.40531561461794,6.19037656903766,8.41908098965377
MEB105,tru,1,12.14859437751,6.83171096743295,11.4056224899598,5.71992203321183
MEB105,tru,1,6.57111597374179,8.97337278106509,7.054704595186,8.86390532544379
MEB105,tru,1,6.23024830699774,5.30003974517664,5.55756207674944,6.01230510668741
MEB105,tru,1,8.89411764705882,5.0623176532302,1.68823529411765,5.92041815253289
MEB105,tru,1,15.2688679245283,5.57018649193548,15.75,5.15868371776321
MEB105,tru,1,8.52272727272727,6.51386124109167,9.11038961038961,7.05531570193808
MEB105,tru,1,7.84393063583815,8.09041368423328,8.55491329479769,8.38787001173915
MEB105,tru,1,9.35958904109589,6.63803470729349,10.3732876712329,5.81543589743587
MEB105,tru,1,7.62,7.9809465648855,8.45714285714286,8.07039216828856
MEB105,tru,1,7.62698412698413,7.3443893129771,8.10582010582011,6.31562977099236
MEB105,tru,1,7.5859375,6.38088467206122,6.76041666666667,5.9566931416314
MEB105,tru,1,10.0297397769517,7.14113603818616,12.4646840148699,5.64946694290338
MEB105,tru,1,8.81686046511628,6.85670329670332,8.94186046511628,6.09246222527475
MEB105,tru,1,7.42391304347826,6.35986807845861,7.80434782608696,7.30141986062719
MEB105,tru,1,8.79008746355685,6.57090425531915,8.11370262390671,7.17248226950355
MEB105,tru,1,8.16187989556136,5.65730337078652,8.00522193211488,6.02356410501454
MEB105,tru,1,8.5344262295082,6.84941220663038,9.37704918032787,7.0520889436024
MEB105,tru,1,12.064,5.7417542126267,11.168,5.92273425167054
MEB105,tru,1,7.64022662889518,7.46994069015094,8.77337110481586,8.12768026745685
MEB105,tru,1,7.90933333333333,7.41208791208794,7.65333333333333,7.66413416474173
MEB105,tru,1,5.53512396694215,5.83599881777282,6.65909090909091,6.43597911398641
MEB105,tru,1,13.068,5.93775100401606,12.888,4.71985542168675
MEB105,tru,1,10.0894039735099,10.6344980694981,10.8211920529801,11.3748745173745
MEB105,tru,1,5.13612565445026,5.98900324263358,4.83769633507853,5.58988328571745
MEB105,tru,1,6.05806451612903,7.46965452847806,1.20860215053763,7.70512820512821
MEB105,tru,1,6.48148148148148,5.52670298933628,7.4837962962963,5.41746183206107
MEB105,tru,1,8.89776357827476,7.84718742378218,10.5047923322684,6.60706534110036
MEB105,tru,1,6.84529147982063,5.07633266799732,5.57399103139013,5.10905019229831
MEB105,tru,1,8.00831024930748,6.40843548387097,6.9612188365651,6.60874901652243
MEB105,tru,1,10.7670250896057,7.66340397764349,11.1397849462366,7.07661632329202
MEB105,tru,1,9.53488372093023,6.21360103175433,9.43604651162791,5.54246575342466
MEB105,tru,1,7.23414634146341,7.16566263776087,6.58048780487805,6.87118887136097
MEB105,tru,1,14.4571428571429,6.01050188105339,14.3047619047619,6.31971151961745
MEB105,tru,1,6.38972162740899,6.12059969941716,6.64668094218415,6.29611246134712
MEB105,tru,1,7.31773399014778,6.75601166180757,7.64532019704434,6.57179029002596
MEB105,tru,1,6.29411764705882,7.12085308056872,5.82150101419878,6.85308056872038
MEB105,tru,1,7.03944315545244,8.73500124843942,7.58236658932715,1.60248656372729
MEB105,tru,1,8.40760869565217,5.90064604326065,8.5054347826087,5.46322580645162
MEB105,tru,1,8.75438596491228,7.39305187150013,9.32748538011696,7.41230769230768
MEB105,tru,1,8.978125,6.34850070256211,9.621875,6.01352525486562
MEB105,tru,1,7.89664082687339,5.82145808514977,7.82428940568475,6.34137179776125
MEB105,tru,1,5.81237911025145,6.49662225793895,5.63829787234043,7.36370268594288
MEB105,tru,1,8.79564032697548,6.24150988759993,1.54223433242507,7.31150374495871
MEB105,tru,1,7.60290556900726,6.61048510313216,7.76997578692494,6.22990576496674
MEB105,tru,1,9.02469135802469,6.869193578871,9.5462962962963,5.77438864535639
MEB105,tru,1,7.15690866510539,8.72240870715084,6.01639344262295,9.5575221238938
MEB105,tru,1,8.91071428571429,7.05539848584802,9.57142857142857,7.14953572446485
MEB105,tru,1,10.1222222222222,5.55925275536798,9.64444444444444,4.56571764184824
MEB105,tru,1,9.20496894409938,6.02940635066728,10.1335403726708,6.27308080080657
MEB105,tru,1,8.29737609329446,6.99941546762592,8.39650145772595,8.42324557240754
MEB105,tru,1,8.45251396648045,8.48007949357109,8.39664804469274,7.94019877675838
MEB105,tru,1,9.72100313479624,7.76001703940359,10.2445141065831,7.64702431444673
MEB105,tru,1,10.5620689655172,7.38457642944183,11.2862068965517,7.07725593364097
MEB105,tru,1,10.3084415584416,8.22666666666668,9.26623376623377,7.54666666666667
MEB105,tru,1,7.23188405797101,6.70726153868082,1.32850241545894,7.65234961733782
MEB105,tru,1,6.50114416475973,8.83027007594481,7.51716247139588,7.07162812354493
MEB105,tru,1,9.67295597484277,6.90749276790536,10.3616352201258,6.7912283279459
MEB105,tru,1,7.58932714617169,9.62471735682228,7.40603248259861,8.30911431987495
MEB105,tru,1,5.61702127659574,6.54647989400613,4.51063829787234,7.09442060085837
MEB105,tru,1,7.31185567010309,8.24492529032501,6.23711340206186,8.35306265664157
MEB105,tru,1,7.35917312661499,6.60358074508844,7.76227390180879,6.81567323091001
MEB105,tru,1,7.61695906432749,8.35808149464951,7.66374269005848,9.24071306113617
MEB105,tru,1,8.57549857549857,5.67359299781182,8.73504273504273,6.2482625820569
MEB105,tru,1,6.49244060475162,6.89737789203085,6.80129589632829,7.58021154261269
MEB105,tru,1,8.27848101265823,6.94857418307289,10.9177215189873,6.92002814258914
MEB105,tru,1,6.23166023166023,5.49987385344378,6.04826254826255,5.31459687817187
MEB105,tru,1,6.35031847133758,5.94816414686825,6.0552016985138,5.25269978401728
MEB105,tru,1,5.77735124760077,5.43894409284286,5.72168905950096,4.84253309481217
MEB105,tru,1,7.29382716049383,6.67058171745153,7.17037037037037,6.77599571684629
MEB105,tru,1,6.52272727272727,7.27711111111112,7.27954545454545,7.43028846153847
MEB105,tru,1,10.1762711864407,8.78245997846998,9.67457627118644,8.1294798706376
MEB105,tru,1,6.96990740740741,7.54301720688275,7.25925925925926,7.13785514205682
MEB105,tru,1,7.45391705069124,6.91434607259459,5.9815668202765,6.49283913952443
MEB105,tru,1,8.15659340659341,6.88721280238595,8.96978021978022,6.42313642146657
MEB105,tru,1,8.94910179640719,4.95272012578616,9.55988023952096,5.25803767183574
MEB105,tru,1,8.63607594936709,5.59278132543986,10.3512658227848,6.67882323928664
MEB105,tru,1,10.4192307692308,7.60617232006304,11.0730769230769,6.73544909939693
MEB105,tru,1,6.44520547945205,5.18761726078799,6.77168949771689,4.53952626641651
MEB105,tru,1,5.81666666666667,5.19335581806078,5.36875,5.23905701529148
MEB105,tru,1,6.9700272479564,8.32177777777775,8.83106267029973,8.12143890635131
MEB105,tru,1,9.16943521594684,7.35795741245332,10.3820598006645,7.9631812707016
MEB105,tru,1,7.84514435695538,5.30318076994993,8.11811023622047,5.39677357403496
MEB105,tru,1,7.97637795275591,7.75853658536585,8.85826771653543,6.71472601724802
MEB105,tru,1,6.62053571428571,6.32,5.19866071428571,6.78648947368421
MEB105,tru,1,6.1140350877193,9.42513305684399,6.38377192982456,10.3831024133889
MEB105,tru,1,9.95608108108108,7.29007633587789,9.21621621621622,7.245382585752
MEB105,tru,1,10.1302681992337,8.90034700315458,9.76628352490421,8.0560599128278
MEB105,tru,1,8.29329608938547,7.66070803430771,7.91061452513966,7.83394292269831
MEB105,tru,1,7.42600896860987,10.1265800437823,7.11434977578475,9.99373628079203
MEB105,tru,1,9.7192429022082,7.84877605779154,7.89274447949527,6.31228633545622
MEB105,tru,1,5.59454191033138,6.10763297996909,1.11890838206628,6.1701998353582
MEB105,tru,1,7.2258064516129,6.95091918140826,8.06699751861042,5.86835842293907
MEB105,tru,1,7.22900763358779,8.15016077170418,8.01272264631043,9.53913183279743
MEB105,tru,1,5.39247311827957,5.71002423840127,5.53046594982079,6.14863196922471
MEB105,tru,1,6.93647058823529,7.01807686465137,6.50588235294118,5.97356828193833
MEB105,tru,1,9.76282051282051,6.3736830601093,8.18589743589744,5.38668032786886
MEB105,tru,1,6.29423459244533,6.36763562663113,5.8727634194831,6.55229192019766
MEB105,tru,1,7.02257336343115,5.06265998887034,6.53498871331828,5.71775690612428
MEB105,tru,1,8.48158640226629,8.114010989011,9.07648725212465,7.24673015873017
MEB105,tru,1,11.32,7.12131206524346,11.3163636363636,8.40215128383067
MEB105,tru,1,10.6363636363636,9.53107882121224,11.5770750988142,6.7750985915493
MEB105,tru,1,8.97313432835821,6.16132669360142,8.82388059701493,5.53448275862069
MEB105,tru,1,5.87571701720841,6.97987764969879,5.96367112810707,6.99386555925077
MEB105,tru,1,7.07359307359307,9.20650990366473,7.08441558441558,7.82875129348732
MEB105,tru,1,24.7177419354839,7.39151955122917,25.8225806451613,7.6043683114796
MEB105,tru,1,7.32375979112272,7.09558378705384,6.88772845953003,7.23476803118909
MEB105,tru,1,7.21190476190476,7.41065088757396,6.7452380952381,6.28218138670746
MEB105,tru,1,7.24105011933174,7.19528244413554,6.236276849642,6.05017850808004
MEB105,tru,1,8.05714285714286,8.31742893235726,8.46,6.73127315442306
MEB105,tru,1,5.24131627056673,6.63868886592897,6.11334552102377,6.40601404049697
MEB105,tru,1,6.95486935866983,7.27522727272727,7.40142517814727,8.11429201101929
MEB105,tru,1,6.84632034632035,7.1859095477387,6.97402597402597,6.68539266252105
MEB105,tru,1,11.4312267657993,7.44112747012727,11.3048327137546,6.82682544518798
MEB105,tru,1,7.32474226804124,7.69141799676153,8.34536082474227,7.89549910873443
MEB105,tru,1,7.38461538461539,6.68638210268413,7.03962703962704,5.59311514195584
MEB105,tru,1,7.51988636363636,7.08269404623531,7.75284090909091,5.39617462904194
MEB105,tru,1,11.8560606060606,6.59680811223461,10.8636363636364,6.546773095203
MEB105,tru,1,9.01,8.49881695581692,8.7,8.10082025316456
MEB105,tru,1,8.20765027322404,5.71329815303428,7.03005464480874,6.25780123131044
MEB105,tru,1,11.9246031746032,9.37062500000001,14.9126984126984,9.62739583333334
MEB105,tru,1,9.81660899653979,5.99906386519658,11.8996539792388,6.27806540229278
MEB105,tru,1,10.8,5.7289566532258,9.22641509433962,5.3508064516129
MEB105,tru,1,7.50549450549451,8.07147338701247,9.09065934065934,7.96468158527661
MEB105,tru,1,8.45833333333333,7.33073717291795,7.78571428571429,5.90810732534806
MEB105,tru,1,13.4278846153846,8.63578888212429,16.0432692307692,10.2436816060194
MEB105,tru,1,9.66666666666667,6.22979014989294,10.7210884353741,5.76266388441514
MEB105,tru,1,7.51578947368421,7.24254316060163,9.10789473684211,8.18176339016647
MEB105,tru,1,7.2686170212766,6.09846831955923,8.34574468085106,5.9958375327555
MEB105,tru,1,7.33066666666667,6.36257577893701,8.61066666666667,5.56468693465121
MEB105,tru,1,7.55784061696658,6.16870545686629,8.01542416452442,5.05013192612137
MEB105,tru,1,6.55769230769231,5.69667558137475,6.92788461538461,6.35410832866629
MEB105,tru,1,10.4548611111111,6.59877893518519,10.7118055555556,6.81965856481482
MEB105,tru,1,7.17990654205607,10.1657848324515,5.98598130841121,11.1280687830688
MEB105,tru,1,10.0990415335463,6.11066492401139,10.0415335463259,6.17471381938262
MEB105,tru,1,11.7072243346008,7.88462745098039,10.5855513307985,8.24706523830906
MEB105,tru,1,6.53846153846154,6.36796348168897,7.95571095571096,5.98385185185186
MEB105,tru,1,7.16743119266055,6.50881456200226,7.01605504587156,6.35454357164082
MEB105,tru,1,6.47671840354767,6.50616168551914,6.53215077605322,6.56143341615133
MEB105,tru,1,10.128125,6.33268692092222,9.74375,6.74615384615385
MEB105,tru,1,7.08083140877598,6.9370026525199,6.51963048498845,6.55719032716561
MEB105,tru,1,5.83928571428571,6.12392307692308,5.16269841269841,7.30019230769231
MEB105,tru,1,6.82039911308204,8.0764072783585,6.22172949002217,9.43614951356887
MEB105,tru,1,7.52525252525253,6.9520911813001,7.81313131313131,5.53424536041329
MEB105,tru,1,7.05045871559633,5.6774654006082,6.57339449541284,6.26855284552846
MEB105,tru,1,8.91549295774648,5.43931451612903,8.83380281690141,5.78
MEB105,tru,1,12.2231075697211,7.97717787521789,12.7131474103586,8.57821661688236
MEB105,tru,1,6.3477366255144,7.63783790286684,5.33539094650206,8.10653360850597
MEB105,tru,1,8.08938547486034,5.91183023872677,8.43296089385475,5.89180371352783
MEB105,tru,1,8.86206896551724,6.30445518466655,9.39655172413793,6.74040987155431
MEB105,tru,1,8.65028901734104,6.78044829611031,9.36705202312139,8.34972811671088
MEB105,tru,1,9.696875,6.73216973761933,10.3375,6.51222347135154
MEB105,tru,1,9.41515151515152,6.16429118773946,9.32121212121212,6.20444444444444
MEB105,tru,1,11.2586206896552,5.8961964933648,11.4103448275862,5.80409260257659
MEB105,tru,1,6.07777777777778,6.09714285714286,6.72888888888889,6.74630541871921
MEB105,tru,1,7.71976401179941,9.73806660856707,9.69321533923304,9.125308581021
MEB105,tru,1,9.2171052631579,5.747162027833,10.7203947368421,1.02084268582056
MEB105,tru,1,8.08459214501511,8.06451612903229,9.40181268882175,8.62532981530346
MEB105,tru,1,9.40853658536585,6.34015254502364,9.09451219512195,6.2960594059406
MEB105,tru,1,7.99746835443038,5.28297142857143,6.24810126582279,4.79061274084361
MEB105,tru,1,4.82305194805195,7.39455908945859,4.21428571428571,6.76535948738891
MEB105,tru,1,6.1503416856492,7.24203182526387,8.05466970387244,7.08838438438436
MEB105,tru,1,7.50346420323326,6.65807811080836,7.2933025404157,7.0918040819963
MEB105,tru,1,9.31578947368421,6.28501996181218,7.46491228070175,5.24307455950837
MEB105,tru,1,7.43007915567282,7.34040697674421,6.57519788918206,7.20889864889415
MEB105,tru,1,7.52162162162162,7.68426823835794,8.95135135135135,7.06553470830506
MEB105,tru,1,8.865625,8.93911523259348,8.946875,8.31324711001396
MEB105,tru,1,8.21489971346705,6.16812121212119,9.05157593123209,5.55679999999998
MEB105,tru,1,6.09683794466403,6.57684311530465,5.64229249011858,6.40037903757416
MEB105,tru,1,7.11583924349882,5.2716062992126,8.8274231678487,4.6420253609738
MEB105,tru,1,8.975,7.38286713286713,8.13611111111111,7.21196130167106
MEB105,tru,1,13.4745762711864,6.8712718474951,12.9830508474576,6.98833631813381
MEB105,tru,1,9.32386363636364,6.11174563975922,8.49431818181818,6.66848070905925
MEB105,tru,1,8.11315789473684,5.31083746067111,7.98157894736842,4.5307182320442
MEB105,tru,1,8.18356164383562,6.00974981334817,9.32328767123288,6.4868941414513
MEB105,tru,1,8.09162303664922,8.25650133870583,7.63089005235602,9.02815036000674
MEB105,tru,1,9.2396449704142,9.9470684825654,7.80769230769231,8.3652281159332
MEB105,tru,1,8.82451253481894,9.51630565998689,8.30362116991643,9.00779753117441
MEB105,tru,1,11.6714285714286,11.3640935928275,10.7928571428571,11.0218830614707
MEB105,tru,1,7.6046511627907,7.47344178082192,8.47545219638243,6.94556743512641
MEB105,tru,1,7.69873417721519,6.39026617954071,6.54683544303797,5.13459011450967
MEB105,tru,1,7.5906862745098,6.25386335159571,7.03921568627451,5.71471794810101
MEB105,tru,1,9.40728476821192,6.71294117647059,9.09602649006623,5.46413927628349
MEB105,tru,1,11.7358490566038,6.32353141915127,13.1622641509434,5.29641441321728
MEB105,tru,1,7.21103117505995,8.54756559112194,7.39328537170264,7.95090555306092
MEB105,tru,1,6.82849604221636,6.20191489513837,6.63060686015831,7.17379584462509
MEB105,tru,1,8.20994475138122,5.62176935015858,7.16574585635359,6.19849846903738
MEB105,tru,1,7.03588516746411,7.6622887055457,6.7177033492823,7.77348484848485
MEB105,tru,1,7.10864745011086,7.10384559988478,7.46119733924612,8.26179845407845
MEB105,tru,1,8.4071661237785,6.2527731092437,9.66123778501629,5.89597518610422
MEB105,tru,1,8.48295454545454,6.99178027265437,8.34943181818182,7.14556154282473
MEB105,tru,1,7.51133501259446,7.54041182873727,6.43324937027708,5.89658940675697
MEB105,tru,1,6.28904428904429,8.15275801095441,7.52447552447552,8.41991525423729
MEB105,tru,1,8.85545722713864,7.21557294041704,8.41297935103245,7.54587705975722
MEB105,tru,1,6.65,5.51953125,6.60869565217391,5.143067617866
MEB105,tru,1,7.95224719101124,9.32159087533786,7.83707865168539,8.87254090803788
MEB105,tru,1,6.15702479338843,8.49948705521225,5.69834710743802,7.77322185871804
MEB105,tru,1,6.85677749360614,6.2215932872262,8.98976982097187,7.23580862221574
MEB105,tru,1,6.55580357142857,6.12308119598773,6.98660714285714,5.89907676233914
MEB105,tru,1,11.978354978355,7.63124350863941,14.4545454545455,8.32495564754583
MEB105,tru,1,9.25779036827196,4.82922487403071,9.5014164305949,6.07290400972054
MEB105,tru,1,10.8782287822878,6.90661640150131,9.07380073800738,6.41304347826087
MEB105,tru,1,7.31851851851852,6.27529036068157,7.74074074074074,5.85515759312323
MEB105,tru,1,7.5,7.28109452736318,9.65897435897436,6.81393034825871
MEB105,tru,1,6.66008771929825,5.3931654676259,6.64912280701754,6.27181013809642
MEB105,tru,1,12.5263157894737,5.71616025641026,11.7894736842105,5.80171628189551
MEB105,tru,1,9.37082066869301,5.6394089958159,9.90273556231003,6.6590949531513
MEB105,tru,1,8.4169014084507,6.96497448294386,7.47323943661972,5.69080136986302
MEB105,tru,1,6.48470588235294,7.80487804878049,6.89176470588235,7.52510410469959
MEB105,tru,1,10.1047297297297,9.00026433370852,9.16891891891892,8.7975237154364
MEB105,tru,1,7.35452322738386,6.74107595602798,7.36674816625917,7.7951553765703
MEB105,tru,1,8.86894586894587,8.47160814606742,10.1908831908832,8.28141205704409
MEB105,tru,1,6.93866666666667,6.61992592592593,7.77866666666667,7.07990691879214
MEB105,tru,1,7.47272727272727,7.11303985557562,1.42597402597403,7.53617012558645
MEB105,tru,1,7.96221662468514,8.40657905313077,7.38790931989924,8.90024733536183
MEB105,tru,1,13.0595238095238,8.65588273279094,10.8412698412698,7.83586356748723
MEB105,tru,1,8.25459317585302,5.19736721611722,7.96062992125984,4.75346520146521
MEB105,tru,1,7.37054631828979,6.40633663366337,6.3729216152019,5.6088970241562
MEB105,tru,1,6.87053571428571,6.37725445909589,6.59821428571429,6.13956939568435
MEB105,tru,1,9.475,6.56856026202072,9.85714285714286,6.32999203228208
MEB105,tru,1,7.92105263157895,6.26077320856931,6.78157894736842,5.2258064516129
MEB105,tru,1,8.55696202531646,7.49046831955923,9.79746835443038,8.14266187201649
MEB105,tru,1,6.67596566523605,6.91088541240068,5.15450643776824,5.90023752969121
MEB105,tru,1,9.73968253968254,5.74227357275719,10.1619047619048,5.37166493775934
MEB105,tru,1,7.97330097087379,6.03169978439485,7.50485436893204,6.85400763358779
MEB105,tru,1,6.61453744493392,9.94292405555214,7.31938325991189,10.5639793909595
MEB105,tru,1,7.15228426395939,6.8103,8.18781725888325,6.51995139732686
MEB105,tru,1,8.74766355140187,6.2392609147376,9.81308411214953,6.33427762039659
MEB105,tru,1,7.79945054945055,6.68410101010101,7.44230769230769,6.4744595959596
MEB105,tru,1,7.46388888888889,6.43553859202714,8.82777777777778,6.40161153519932
MEB105,tru,1,5.08925318761384,6.01206789001132,5.1511839708561,5.97037921537661
MEB105,tru,1,9.0404984423676,8.14467455896442,10.0778816199377,7.15538128859133
MEB105,tru,1,9.61279461279461,8.78887384615385,8.33670033670034,7.73608000747734
MEB105,tru,1,6.1804347826087,7.93223031783584,4.93260869565217,8.57086729362588
MEB105,tru,1,9.04761904761905,7.44274809160305,10.1650793650794,6.5275
MEB105,tru,1,11.2456747404844,5.75144077448747,11.1903114186851,6.60010457924883
MEB105,tru,1,8.52459016393443,5.19352941176471,8.82786885245902,5.14235294117647
MEB105,tru,1,5.80769230769231,6.05879758574648,5.99392712550607,6.62650478611217
MEB105,tru,1,9.47256097560976,7.08884089272859,9.9390243902439,7.26097637379849
MEB105,tru,1,8.13180515759312,6.75002509753421,9.19484240687679,6.6384189591966
MEB105,tru,1,12.1725490196078,6.5994090711417,9.98823529411765,6.77463917525774
MEB105,tru,1,7.4317617866005,7.43569997701222,7.78411910669975,8.78939955786917
MEB105,tru,1,9.7275641025641,6.26240809769962,9.02564102564103,6.41379433129184
MEB105,tru,1,5.66373626373626,5.88721472392638,7.63076923076923,6.05594792757744
MEB105,tru,1,7.31981981981982,7.01340616517062,7.29054054054054,7.57135782229281
MEB105,tru,1,6.19047619047619,7.54189373297003,7.27437641723356,6.97658311345646
MEB105,tru,1,9.66470588235294,5.64137158469946,1.7,6.49887456924885
MEB105,tru,1,9.12389380530973,8.56683070866145,9.14454277286136,9.68690918912184
MEB105,tru,1,8.58938547486034,6.13995215311005,8.99162011173184,5.94197775561475
MEB105,tru,1,6.16194331983806,7.07536945812808,6.54858299595142,7.67415475189236
MEB105,tru,1,8.76315789473684,9.21090943467574,9.94444444444444,9.73166368515206
MEB105,tru,1,7.65326633165829,5.46105517233219,8.51005025125628,5.57162491376337
MEB105,tru,1,7.79634464751958,5.41341036393317,8.5065274151436,5.41563908957575
MEB105,tru,1,6.20090293453725,6.10131979695429,8.50112866817156,5.902868667929
MEB105,tru,1,10.5,7.4757089034305,2.01034482758621,7.64066251084347
MEB105,tru,1,7.06753246753247,8.41049096128234,7.74285714285714,8.88130422125182
MEB105,tru,1,10.0521172638436,6.06229202007246,9.84690553745928,5.66319484691427
MEB105,tru,1,7.91545189504373,5.88733017377565,7.06997084548105,5.15817175631861
MEB105,tru,1,7.44611528822055,5.10403420235989,8.43107769423559,0.99036236768751
MEB105,tru,1,6.76148796498906,9.48626099233259,6.52516411378556,8.69085079065188
MEB105,tru,1,7.86876640419947,7.39135221424049,6.750656167979,6.04493483649156
MEB105,tru,1,6.38292682926829,6.38917321016167,8.15609756097561,6.06087477742714
MEB105,tru,1,7.18,5.94276923076923,7.10444444444444,6.99917448405254
MEB105,tru,1,9.22985074626866,5.91319894138184,8.37611940298507,6.03621888157338
MEB105,tru,1,6.30616302186879,8.17060367454068,4.53280318091451,7.37659448818898
MEB105,tru,1,7.082774049217,8.24125197189158,7.32885906040268,6.49317434210526
MEB105,tru,1,6.3625730994152,7.66306569126881,5.51656920077973,8.80292412107343
MEB105,tru,1,9.29965156794425,5.52271369400455,12.2473867595819,5.85635359116021
MEB105,tru,1,5.35523978685613,6.06943647024027,5.89520426287744,5.55732919254659
MEB105,tru,1,7.12793733681462,7.23111466808946,8.01827676240209,7.22626115755887
MEB105,tru,1,5.00183486238532,8.03007675218628,5.71376146788991,7.38030416494614
MEB105,tru,1,7.50507614213198,6.40623530736172,7.66751269035533,6.53095153664303
MEB105,tru,1,8.8299711815562,8.38204071437492,8.67435158501441,8.03964058787565
MEB105,tru,1,12.733606557377,11.4513074712644,12.2377049180328,10.6304266666667
MEB105,tru,1,12.3019607843137,5.13568281938326,13.2196078431373,5.96637185997243
MEB105,tru,1,9.9671052631579,7.35155642392397,10.2927631578947,6.71107991729423
MEB105,tru,1,5.3448275862069,6.61211481385575,4.91288566243194,7.92733249708032
MEB105,tru,1,8.1238670694864,5.38507129277567,8.80966767371601,5.77064291459492
MEB105,tru,1,7.27131782945736,6.71256470588235,7.0749354005168,1.20191588085616
MEB105,tru,1,6.97349397590361,7.42938138138135,6.03855421686747,6.92876876876874
MEB105,tru,1,10.9525423728814,7.13777877563238,9.66779661016949,7.73207720588235
MEB105,tru,1,8.84104046242775,7.25419596438459,9.13005780346821,7.27367213114753
MEB105,tru,1,9.01764705882353,8.14531119324467,9.45588235294118,6.36138613861386
MEB105,tru,1,10.9489051094891,5.5663082437276,9.15693430656934,5.70606206142106
MEB105,tru,1,5.94664031620553,4.98298676748582,6.08498023715415,5.65129366946132
MEB105,tru,1,11.0879120879121,6.77913157894737,11.7399267399267,7.12362105263159
MEB105,tru,1,7.83526011560694,6.39044117647061,8.78034682080925,7.3506960035923
MEB105,tru,1,9.83818770226537,6.92274976751445,10.8932038834951,6.38276849642005
MEB105,tru,1,9.621875,5.52984185800304,8.95625,5.13134387613313
MEB105,tru,1,11.9961685823755,7.85465014652203,9.83908045977011,7.40467924528302
MEB105,tru,1,8.37564766839378,7.84549828178697,8.32124352331606,7.22263436596662
MEB105,tru,1,10.996138996139,6.00179193628671,11.969111969112,5.58633173804151
MEB105,tru,1,6.61462450592885,6.87671390903099,6.03754940711462,6.94369369369369
MEB105,tru,1,7.45952380952381,9.04250965250962,8.15952380952381,9.49730319195964
MEB105,tru,1,7.46614583333333,16.7414634146342,8.5859375,15.4242093784078
MEB105,tru,1,5.50766283524904,6.80328448339344,6.2816091954023,5.95076036036034
MEB105,tru,1,7.18669527896996,6.43839755080666,7.77038626609442,6.92158311345647
MEB105,tru,1,9.61842105263158,10.1654567152305,10.6513157894737,9.07255890198221
MEB105,tru,1,6.54565217391304,8.26814432989691,6.99130434782609,9.40172637343706
MEB105,tru,1,7.95548961424332,6.56845292158642,9.52818991097923,6.45586655357646
MEB105,tru,1,6.34518828451883,6.33297638709912,6.63807531380753,5.91900647948164
MEB105,tru,1,7.39847715736041,6.54432737644799,7.70558375634518,6.14298348864885
MEB105,tru,1,6.70676691729323,7.63790229991482,6.93233082706767,8.04838403402834
MEB105,tru,1,8.16761363636364,6.82169618430526,9.17329545454546,7.22324550035998
MEB105,tru,1,9.21385542168675,6.92511029411765,9.58734939759036,6.94833333333334
MEB105,tru,1,10.9777777777778,6.57937017746168,10.562962962963,6.22911624203822
MEB105,tru,1,10.8493150684932,6.61938083121289,8.96232876712329,7.27134423251589
MEB105,tru,1,6.83969465648855,8.03740014524331,8.65139949109415,5.45236075770429
MEB105,tru,1,5.61669829222011,5.79856539629262,6.62428842504744,5.06441047309642
MEB105,tru,1,8.61621621621622,6.79407246669638,7.62702702702703,5.60629271070615
