Isos,Libs,Reads,Est16S,Est16Sgc,Est23S,Est23Sgc
MEP34,tru,2,4.56451612903226,4.32933630786392,5.18709677419355,4.56763385867864
MEP34,tru,2,6.03731343283582,5.57476606747105,6.02985074626866,4.13236880963197
MEP34,tru,2,5.35034013605442,5.68190999887779,5.6530612244898,5.12406015037594
MEP34,tru,2,6.17054263565892,4.97132798281469,5.21317829457364,5.95445184412527
MEP34,tru,2,5.61660079051383,5.93349428948135,6.20553359683794,6.37404053953351
MEP34,tru,2,6.65098039215686,4.54217993373545,5.85098039215686,4.87800526718206
MEP34,tru,2,8.0625,5.08818129834171,8.23958333333333,4.76174904081204
MEP34,tru,2,6.3099173553719,3.96824794433903,6.09504132231405,4.75583261868636
MEP34,tru,2,5.33691756272401,5.92264631043259,5.70609318996416,5.43861920172601
MEP34,tru,2,5.46825396825397,3.87144913264147,7.22619047619048,5.18775519261495
MEP34,tru,2,5.74181818181818,5.25148855091696,6.29818181818182,5.56213037411125
MEP34,tru,2,5.63706563706564,4.85754451733832,5.93436293436293,5.22357075913776
MEP34,tru,2,6.27572016460905,5.24048348790616,5.5679012345679,4.70167124318749
MEP34,tru,2,6.07751937984496,5.90168649032486,6.35658914728682,4.95035224604196
MEP34,tru,2,5.25961538461539,4.92320193960062,4.74038461538461,4.7398152505015
MEP34,tru,2,6.20136518771331,4.16636399526254,4.0580204778157,4.90848795894197
MEP34,tru,2,5.98604651162791,4.33920519623622,6.72558139534884,4.84072166528711
MEP34,tru,2,6.44978165938865,4.11863531208589,7.64628820960699,5.09817759894403
MEP34,tru,2,5.20363636363636,6.8156055167202,6.78545454545455,4.95881352730021
MEP34,tru,2,6.03097345132743,6.38809051642172,7.68141592920354,6.13735024856701
MEP34,tru,2,5.64905660377358,4.65112686295892,6.46792452830189,3.367672339694
MEP34,tru,2,5.81712062256809,4.69223739382864,6.75486381322957,4.53407062090856
MEP34,tru,2,6.53393665158371,4.35004459338938,6.82352941176471,4.55856340585804
MEP34,tru,2,6.23502304147465,5.99910363173722,7.83410138248848,5.68970634176819
MEP34,tru,2,8.06451612903226,5.9678714859438,8.66666666666667,5.63898916967511
MEP34,tru,2,5.11538461538461,6.04854368932039,5.625,4.99049144229807
MEP34,tru,2,4.01388888888889,5.52471566054243,5.05902777777778,4.78528407047824
MEP34,tru,2,5.44628099173554,4.27131992708216,7.10743801652893,4.09552489231695
MEP34,tru,2,7.27319587628866,7.04775657555442,8.02577319587629,6.21505930892213
MEP34,tru,2,6.02439024390244,4.45904925544102,6.43089430894309,5.5780852417303
MEP34,tru,2,6.68220338983051,5.37795275590551,7.23305084745763,4.67957746478873
MEP34,tru,2,5.83050847457627,4.48203028180399,7.47881355932203,6.28536422365784
MEP34,tru,2,5.25342465753425,4.19178214423613,6.03082191780822,4.03540634123159
MEP34,tru,2,6.25541125541126,5.98171038865425,7.33333333333333,6.41669009077531
MEP34,tru,2,4.98611111111111,5.83293715644035,5.07638888888889,5.49725396403579
MEP34,tru,2,6.32851985559567,4.17257494464316,5.71841155234657,5.23511664514045
MEP34,tru,2,5.20388349514563,6.11486048020766,5.13268608414239,5.78081577767817
MEP34,tru,2,5.79098360655738,5.43339425322368,6.30327868852459,4.4109254440031
MEP34,tru,2,4.02662721893491,5.38947974307654,4.94378698224852,5.1950482341738
MEP34,tru,2,5.96350364963504,5.25350752798479,5.59124087591241,5.66307225910434
MEP34,tru,2,5.15808823529412,5.58300082335804,5.24632352941176,4.99714294539165
MEP34,tru,2,9.61714285714286,6.26920753931063,8.74857142857143,7.23414459556192
MEP34,tru,2,8.5873786407767,4.7546638607667,7.27669902912621,5.54484120454172
MEP34,tru,2,5.3840830449827,4.79167542568846,5.40138408304498,4.67857142857142
MEP34,tru,2,5.74493927125506,5.15991770038168,6.7085020242915,5.15923867449665
MEP34,tru,2,5.17358490566038,5.26327370522798,6.1622641509434,4.97693351424695
MEP34,tru,2,4.24046920821114,5.41041414548877,4.82991202346041,4.51927184916875
MEP34,tru,2,5.52329749103943,5.93922651933702,5.39784946236559,6.27405539693723
MEP34,tru,2,5.91881918819188,4.45332242185272,6.09963099630996,5.04541903805378
MEP34,tru,2,6.66949152542373,4.8648992509423,6.22881355932203,4.93073999268438
MEP34,tru,2,5.0631970260223,5.7459735850619,6.01486988847584,6.26632744570515
MEP34,tru,2,4.70281124497992,5.72393479254482,6.8995983935743,5.94633889712564
MEP34,tru,2,7.82648401826484,7.41513930328981,7.32876712328767,6.2280686812251
MEP34,tru,2,5.9662447257384,5.79831932773111,6.40506329113924,5.31043485355309
MEP34,tru,2,5.24908424908425,5.68881903906601,5.33699633699634,6.06018384003804
MEP34,tru,2,5.30165289256198,5.09393601782588,7.72727272727273,5.09508196721311
MEP34,tru,2,7.79787234042553,3.98560160260423,6.28191489361702,5.05417618310862
MEP34,tru,2,6.11194029850746,5.02721315580784,5.97761194029851,5.43966776576652
MEP34,tru,2,5.50167224080268,4.76097915436668,4.54849498327759,5.36865446589599
MEP34,tru,2,4.56586826347305,5.43173431734317,5.22754491017964,5.05796582237667
MEP34,tru,2,5.30434782608696,4.07037197231834,6.17391304347826,4.58483754512635
MEP34,tru,2,5.34323432343234,5.95491886153379,5.07920792079208,5.4635761589404
MEP34,tru,2,5.70564516129032,4.69047915060795,7.1008064516129,5.47911331029167
MEP34,tru,2,4.21739130434783,4.8962690698819,4.78260869565217,4.39158190016779
MEP34,tru,2,4.28213166144201,4.44853156405503,5.39498432601881,5.28686740431707
MEP34,tru,2,3.96,5.10431654676259,4.08615384615385,4.43884892086331
MEP34,tru,2,7.25714285714286,7.32350545059547,7.07619047619048,7.16823291606083
MEP34,tru,2,5.63868613138686,4.62004204272245,6.01459854014599,4.82892225145746
MEP34,tru,2,8.65071770334928,5.7065227476572,5.68421052631579,5.9016786171788
MEP34,tru,2,6.80568720379147,4.31192660550459,6.19905213270142,4.5836663477233
MEP34,tru,2,5.55416666666667,6.78205084514723,5.5375,5.64926893576223
MEP34,tru,2,6.00377358490566,6.07507858105074,6.50566037735849,6.3571726972576
MEP34,tru,2,4.36421725239617,4.92869127516779,5.09584664536741,5.35514541387025
MEP34,tru,2,5.54198473282443,5.40520038167939,6.96564885496183,4.95
MEP34,tru,2,5.69550173010381,4.9726443768997,4.95847750865052,4.59679525101487
MEP34,tru,2,5.77642276422764,4.31344975534159,7.05284552845528,5.54296223429281
MEP34,tru,2,4.27925531914894,7.25345737295196,4.46808510638298,5.97692307692308
MEP34,tru,2,5,4.16572101038121,4.74397590361446,5.74233828746465
MEP34,tru,2,6.38775510204082,6.88185225944013,6.53469387755102,5.79824018804318
MEP34,tru,2,5.78508771929825,5.22930648769576,5.89912280701754,5.01781850579102
MEP34,tru,2,4.33231707317073,3.52712296855068,4.95121951219512,4.00113064312059
MEP34,tru,2,6.41818181818182,5.45554285007882,6.66363636363636,5.14020596147055
MEP34,tru,2,10.060773480663,5.31282563916151,9.91160220994475,5.95301128875136
MEP34,tru,2,5.48920863309352,4.61463748936573,5.41007194244604,4.23307968617072
MEP34,tru,2,6.85714285714286,5.83693851251841,6.44489795918367,5.27775220913108
MEP34,tru,2,6.036,4.2322252038663,6.48,5.22301539744158
MEP34,tru,2,4.93129770992366,4.76012925677356,7.15648854961832,5.09418353060965
MEP34,tru,2,5.11284046692607,4.63915854035212,6.21011673151751,4.69855789285501
MEP34,tru,2,8.18333333333333,4.1155896288497,8.23888888888889,4.15384170330942
MEP34,tru,2,7.97222222222222,5.68999657123264,8.69444444444444,5.36113564111621
MEP34,tru,2,5.87124463519313,4.05187036195668,7.69957081545064,3.94843761275888
MEP34,tru,2,5.16896551724138,4.015008315418,4.60344827586207,5.73509734968694
MEP34,tru,2,5.03658536585366,5.1122756704018,5.01524390243902,6.01129121936616
MEP34,tru,2,9.46,5.28481494000338,10.1933333333333,5.80674209189563
MEP34,tru,2,5.07094594594595,6.02753595397892,4.93918918918919,6.27097254536995
MEP34,tru,2,7.19838056680162,5.7071459809324,6.45344129554656,5.63348449120262
MEP34,tru,2,6.56880733944954,4.97244163938924,7.30733944954128,5.69473808349594
MEP34,tru,2,11.8489208633094,5.08563573883162,9.61151079136691,5.09522388059702
MEP34,tru,2,4.17028985507246,6.34117647058823,6.03260869565217,5.89869915603782
MEP34,tru,2,5.98809523809524,4.95266422615416,6.77777777777778,5.37266999895865
MEP34,tru,2,5.63498098859316,4.42155223880597,5.03802281368821,5.24222818791947
MEP34,tru,2,7.87931034482759,3.5601040092765,7.76293103448276,3.68359341906844
MEP34,tru,2,6.78629032258065,5.78203183317682,6.46370967741935,4.86850152905199
MEP34,tru,2,6.27555555555556,4.96237824862669,6.85777777777778,4.66794380587484
MEP34,tru,2,4.82252559726962,4.59716072333953,5.39590443686007,4.82136648696226
MEP34,tru,2,6.09454545454545,3.91383479699632,5.69090909090909,4.85015649452271
MEP34,tru,2,6.45679012345679,5.29328621908127,6.03703703703704,4.59601815957094
MEP34,tru,2,5.25182481751825,3.58256122493366,5.51459854014599,4.4114296351452
MEP34,tru,2,7.86448598130841,6.13632863962223,7.70560747663551,5.65841732861625
MEP34,tru,2,8.4093023255814,5.92650847673273,7.72093023255814,4.89170079295696
MEP34,tru,2,6.73096446700508,5.79049295774648,8.64467005076142,7.44664429530202
MEP34,tru,2,4.9512987012987,4.46767274567173,5.37662337662338,4.69825801915287
MEP34,tru,2,6.19172932330827,5.94043877092822,5.50375939849624,5.37456996221308
MEP34,tru,2,5.70980392156863,5.05166916118956,5.82745098039216,3.91101152368758
MEP34,tru,2,4.62650602409639,5.18238397830669,4.95180722891566,5.21690607063683
MEP34,tru,2,5.22592592592593,5.09941416651874,5.87037037037037,4.25881010129833
MEP34,tru,2,4.95652173913043,6.18203776329117,5.79347826086957,5.35882750110591
MEP34,tru,2,6.29296875,7.47739136828175,6.515625,6.12654837629729
MEP34,tru,2,5.17735849056604,7.52968851395198,5.84150943396226,7.3845627281779
MEP34,tru,2,6.03401360544218,4.01171681819911,5.40136054421769,4.96000112672883
MEP34,tru,2,7.875,4.68917105121873,7.905,4.16343971802424
MEP34,tru,2,5.77647058823529,4.79405239862781,6.31764705882353,5.05611859385682
MEP34,tru,2,8.87730061349693,7.29343370087645,8.73006134969325,6.88051314673452
MEP34,tru,2,4.62079510703364,4.81710736315404,4.85321100917431,4.95298278911272
MEP34,tru,2,7.98930481283422,4.67184206386661,8.19786096256684,6.30554233853204
MEP34,tru,2,7.81958762886598,5.95799306018016,6.92783505154639,5.35443218114545
MEP34,tru,2,5.44871794871795,4.92716816388213,6.74358974358974,4.67656355836532
MEP34,tru,2,5.29470198675497,8.50089671663756,5.24834437086093,6.55290288671466
MEP34,tru,2,6.418410041841,4.76847208907897,5.58995815899582,6.59861071031043
MEP34,tru,2,6.3041825095057,5.45430474203643,5.68441064638783,5.40670469095565
MEP34,tru,2,7.24413145539906,5.02631777392354,6.74178403755869,5.47892751389284
MEP34,tru,2,4.87889273356401,4.58658209466955,4.78200692041522,4.65407498537806
MEP34,tru,2,6.91709844559585,4.45555802693039,8.8860103626943,5.6822654751999
MEP34,tru,2,7.97126436781609,4.45139582441622,9.89080459770115,5.70193923885502
MEP34,tru,2,5.88172043010753,4.96063441606412,6.65591397849462,4.63140961762947
MEP34,tru,2,5.84307692307692,5.67098060058464,4.57846153846154,5.88451014718278
MEP34,tru,2,7.86448598130841,5.17272913571392,7.53738317757009,4.09959869923199
MEP34,tru,2,6.30288461538461,3.79575758947774,7.83173076923077,4.74296295309525
MEP34,tru,2,6.31272727272727,4.16610738255034,6.48363636363636,5.3971119133574
MEP34,tru,2,3.66037735849057,5.72636654852781,4.40970350404313,6.57299282902137
MEP34,tru,2,6.02572347266881,4.17505278636603,5.17363344051447,4.1204004015599
MEP34,tru,2,5.69318181818182,5.2453072206232,6.37121212121212,5.14268661467452
MEP34,tru,2,5.7841726618705,4.52831261370528,6.80935251798561,4.66760157671316
MEP34,tru,2,6.37777777777778,5.06211211981329,6.97333333333333,5.82178658944084
MEP34,tru,2,5.20216606498195,4.83452095185892,5.25992779783394,4.7911029902667
MEP34,tru,2,4.7108843537415,5.75978647686833,6.42857142857143,4.56789133376773
MEP34,tru,2,6,4.47858774267225,5.59770114942529,4.31497638415114
MEP34,tru,2,5.04561403508772,5.29655283505154,5.22456140350877,5.08024029783394
MEP34,tru,2,4.94478527607362,4.20047397254652,5.00306748466258,5.33426944777758
MEP34,tru,2,5.24013157894737,4.56748466257668,4.00986842105263,5.11552346570397
MEP34,tru,2,5.87037037037037,4.69958663280043,5.84814814814815,5.40945733677128
MEP34,tru,2,4.41721854304636,5.31134071953193,4.98344370860927,5.53274704929415
MEP34,tru,2,7.52093023255814,5.11760923728133,6.91627906976744,5.45338647753583
MEP34,tru,2,4.53481012658228,6.08841150752956,4.84810126582278,7.41876823468288
MEP34,tru,2,5.66985645933014,4.88911527886881,7.16746411483254,5.29312510645546
MEP34,tru,2,5.77542372881356,5.95196506550218,7.1228813559322,6.59934103699967
MEP34,tru,2,7.76521739130435,4.29250789910565,5.8304347826087,4.21010442086146
MEP34,tru,2,6.46218487394958,4.36653025891241,6.82773109243697,4.14266172888933
MEP34,tru,2,5.44147157190635,5.03812383164335,4.50167224080268,4.44259437810576
MEP34,tru,2,5.54285714285714,5.10860553805339,7.06938775510204,5.12878650462543
MEP34,tru,2,5.50191570881226,6.72675486425989,5.69731800766283,4.99635414038452
MEP34,tru,2,6.84579439252336,4.75035196875426,8.62616822429907,5.33886266125214
MEP34,tru,2,6.24774774774775,8.78058887677208,6.16216216216216,7.95515812431843
MEP34,tru,2,5.04887218045113,3.97604790419162,6.18045112781955,4.1253164811317
MEP34,tru,2,4.30792682926829,5.84390836515099,4.97256097560976,6.59520999652899
MEP34,tru,2,5.66666666666667,4.93505087681316,5.68181818181818,5.03213769860376
MEP34,tru,2,5.26839826839827,5.80396602192504,7.58008658008658,6.32299611845499
MEP34,tru,2,5.91803278688525,5.12566362284986,6.73360655737705,5.33315238847217
MEP34,tru,2,6.29482071713147,5.09430476889015,6.50996015936255,7.00560966002472
MEP34,tru,2,6.6047619047619,4.68346168907454,7.68571428571429,5.46057977001998
MEP34,tru,2,5.34313725490196,3.88184996374105,6.02614379084967,4.18326839752209
MEP34,tru,2,5.56826568265683,5.50408002105817,6.17343173431734,5.981837325612
MEP34,tru,2,4.3342939481268,5.20545047892254,4.44092219020173,5.05956836736927
MEP34,tru,2,5.74642857142857,5.28259898363769,4.82857142857143,5.99416429329313
MEP34,tru,2,5.20652173913043,5.7930848675348,5.68478260869565,5.04556428434566
MEP34,tru,2,7.16981132075472,4.62190429498894,8.08962264150943,4.76439975676326
MEP34,tru,2,6.62068965517241,5.53089175042549,7.8128078817734,5.55349096483486
MEP34,tru,2,9.49418604651163,5.64490263459336,9.3546511627907,5.9506253874485
MEP34,tru,2,7.50226244343891,3.51504211793022,6.72398190045249,4.8466372509694
MEP34,tru,2,4.6242774566474,7.57424913469055,5.21965317919075,6.39657275517432
MEP34,tru,2,5.17421602787456,4.88664184057223,6.50174216027875,4.75506574477439
MEP34,tru,2,6.34262948207171,5.26709150216902,6.54183266932271,4.21595445220185
MEP34,tru,2,4.67622950819672,6.15218458517428,6.09426229508197,6.04744713769985
MEP34,tru,2,6.15037593984962,4.2521407910187,5.3984962406015,4.45845459404882
MEP34,tru,2,5.28776978417266,5.19843669975368,5.71223021582734,4.78128953406094
MEP34,tru,2,5.18181818181818,6.06367278930456,5.63636363636364,4.46890223178883
MEP34,tru,2,6.36213991769547,6.82486658109842,6.52674897119342,6.20505770827963
MEP34,tru,2,6.16239316239316,4.3158851884312,7.43589743589744,5.12488954344624
MEP34,tru,2,5.96858638743455,5.55438670313487,8.16230366492147,7.10621002132197
MEP34,tru,2,6.52325581395349,6.97698747983716,6.21705426356589,5.47605633802817
MEP34,tru,2,7.97183098591549,4.62828947368421,7.15492957746479,4.13486842105263
MEP34,tru,2,8.6280193236715,4.51713265830522,7.80676328502415,5.92913593621958
MEP34,tru,2,5.85375494071146,4.88359363746734,4.699604743083,4.88659813922644
MEP34,tru,2,3.65168539325843,3.50288691071156,4.8623595505618,3.5304036971272
MEP34,tru,2,6.89903846153846,4.6984614899587,7.59615384615385,4.6114748931998
MEP34,tru,2,5.77075098814229,3.94421964978947,6.43083003952569,4.3264934357922
MEP34,tru,2,5.63052208835341,4.10199509228635,5.99196787148594,5.3270698766882
MEP34,tru,2,6.92307692307692,4.93085106382981,7.35576923076923,5.90311919024997
MEP34,tru,2,5.39245283018868,3.62803290638342,6.86792452830189,4.44424614240565
MEP34,tru,2,5.82720588235294,4.94462228788749,6.33088235294118,4.55197132616487
MEP34,tru,2,5.3859649122807,8.68036832244209,5.63859649122807,7.15697168808581
MEP34,tru,2,5.30882352941176,6.26976321100657,5.40073529411765,5.98763344765953
MEP34,tru,2,6.31004366812227,4.31498580606604,6.04803493449782,4.79590331188196
MEP34,tru,2,4.58282208588957,7.57280714388592,5.39570552147239,5.85788907179941
MEP34,tru,2,7.79601990049751,4.74986480198207,7.52238805970149,5.14842759880928
MEP34,tru,2,7.21518987341772,4.43074596282383,6.44303797468354,5.14146436407389
MEP34,tru,2,7.26027397260274,12.6675888665325,7.10045662100457,14.003120665742
MEP34,tru,2,5.66433566433566,3.92458100558659,5.68181818181818,4.1629590787165
MEP34,tru,2,6.23041474654378,3.92106798949519,8.73732718894009,3.91098909308233
MEP34,tru,2,7.94764397905759,4.80917592882118,7.8848167539267,5.53195215259443
MEP34,tru,2,4.48692810457516,6.19801263490394,5.62091503267974,6.12459500115716
MEP34,tru,2,4.82857142857143,4.42572338032216,4.76825396825397,4.25589920879836
MEP34,tru,2,5.38275862068966,5.31481760854479,5.11034482758621,5.52847706714062
MEP34,tru,2,5.36393442622951,4.64393457519309,5.01967213114754,4.62666161506819
MEP34,tru,2,7.10576923076923,7.08521129332701,7.25961538461539,6.56765155625709
MEP34,tru,2,7.04932735426009,5.38225396043668,5.89237668161435,6.31406509345457
MEP34,tru,2,7.83163265306122,5.28739213806328,9.46938775510204,5.83283031522468
MEP34,tru,2,6.60074626865672,5.47259568942309,5.8955223880597,6.9403705192837
MEP34,tru,2,5.52509652509652,5.06923677228033,5.64092664092664,5.53944612107226
MEP34,tru,2,5.45357142857143,3.79335044296547,5.96785714285714,4.83430059863821
MEP34,tru,2,6.80392156862745,4.84472454763203,9.21078431372549,5.0565371024735
MEP34,tru,2,5.26621160409556,5.21167096262516,5.66211604095563,3.78319253561972
MEP34,tru,2,4.31578947368421,6.03459823251711,5.10197368421053,6.38914027149321
MEP34,tru,2,5.11743772241993,4.84906315058987,6.16725978647687,4.54615781330583
MEP34,tru,2,7.66822429906542,4.98865021579417,7.68224299065421,4.12051292467266
MEP34,tru,2,6.57345971563981,4.34553995622698,7.49289099526066,5.0427721133828
MEP34,tru,2,4.47904191616766,5.74872074490395,4.83532934131737,5.22795906383693
MEP34,tru,2,5.40590405904059,2.83593164328442,6.45018450184502,3.65793263320572
MEP34,tru,2,7.62770562770563,5.39158747468453,7.07359307359307,4.91012190110944
MEP34,tru,2,5.67588932806324,3.85104101893346,6.89328063241107,3.82582959289676
MEP34,tru,2,5.61029411764706,5.77515991471216,5.59558823529412,5.90535132619823
MEP34,tru,2,6.48951048951049,6.28352243424446,6.31468531468532,5.5494966442953
MEP34,tru,2,6.72340425531915,4.89630088221636,7.05957446808511,6.10051186598417
MEP34,tru,2,5.648,6.30066971165971,6.044,4.3210812338605
MEP34,tru,2,6.58518518518519,4.66097889537495,6.42962962962963,5.21644573322287
MEP34,tru,2,6.02202643171806,5.51395086423552,7.72687224669604,5.81316342475349
MEP34,tru,2,6.84729064039409,5.61243675339062,7.75862068965517,5.47728926164363
MEP34,tru,2,5.90725806451613,5.23039917302799,6.67741935483871,4.19055374592834
MEP34,tru,2,4.3953488372093,5.84800907973138,6.17940199335548,5.1686392604524
MEP34,tru,2,6.04255319148936,4.15948424728502,5.5177304964539,4.48872682736738
MEP34,tru,2,4.98611111111111,3.59662576687117,5.01388888888889,4.79542719614923
MEP34,tru,2,6.8099173553719,6.30650869364517,5.43801652892562,6.91506636200107
MEP34,tru,2,6.23478260869565,5.55173876166244,6.75652173913043,5.50630011454755
MEP34,tru,2,4.35365853658537,5.19497042397807,4.91158536585366,5.16767270288398
MEP34,tru,2,7.12931034482759,4.19128655603538,7.09051724137931,5.79132785513528
MEP34,tru,2,7.3854748603352,6.3031110470978,8.41899441340782,7.22742813726732
MEP34,tru,2,6.4656862745098,4.29358072225172,7.37254901960784,5.29941084106129
MEP34,tru,2,5.60409556313993,4.35506268081003,5.44027303754266,5.95836539030598
MEP34,tru,2,6.55909090909091,5.72710319104849,5.85454545454545,5.05063445914735
MEP34,tru,2,5.17301038062284,4.79585918703305,5.52941176470588,4.60695578710223
MEP34,tru,2,7.09433962264151,4.1879411606229,6.35377358490566,4.20750615852776
MEP34,tru,2,6.95833333333333,5.36777707825801,8.0462962962963,6.01377458199774
MEP34,tru,2,5.02973977695167,4.19553827953355,5.88847583643123,5.35331169545605
MEP34,tru,2,5.37179487179487,4.87870607919687,6.18803418803419,5.1932153752288
MEP34,tru,2,5.08098591549296,5.94835179500868,5.24295774647887,6.12021666957889
MEP34,tru,2,5.46586345381526,5.43322859387275,6.85943775100402,4.68983527521093
MEP34,tru,2,6.44262295081967,4.73787726358149,6.5327868852459,4.64526121128063
MEP34,tru,2,7.00467289719626,5.19662105343628,6.89252336448598,4.68977906887853
MEP34,tru,2,3.68589743589744,4.76102959777384,5.24679487179487,4.16839949948811
MEP34,tru,2,7.375,5.22408884557183,7.51851851851852,4.5506875202029
MEP34,tru,2,3.86666666666667,5.4326972666323,4.02898550724638,5.12231201205316
MEP34,tru,2,5.17325227963526,4.12408480780964,4.8936170212766,4.16598293403348
MEP34,tru,2,8.30769230769231,4.9673132808425,8.18681318681319,5.36529070495429
MEP34,tru,2,6.53365384615385,6.55150857105254,7.625,7.78633348409468
MEP34,tru,2,3.97988505747126,3.81125041023958,4.15229885057471,5.06048655569782
MEP34,tru,2,5.40079365079365,4.06598432594131,6.13095238095238,4.998491928107
MEP34,tru,2,5.3914590747331,4.20552858718108,5.95373665480427,5.41886869156165
MEP34,tru,2,5.60714285714286,4.52221901060903,6.13095238095238,4.57595103330262
MEP34,tru,2,5.00423728813559,4.21473018959651,6.88135593220339,6.21036039873903
MEP34,tru,2,4.69102990033223,4.93752839618357,5.02990033222591,5.194170816194
MEP34,tru,2,7.76063829787234,5.97840411161995,9.02127659574468,5.13359636067508
MEP34,tru,2,4.02352941176471,4.86188896603152,4.53529411764706,5.71982084075333
MEP34,tru,2,5.75590551181102,5.21907216494845,7.10629921259843,5.88985854783875
MEP34,tru,2,6.22421524663677,4.39446003660769,7.6457399103139,4.89963898916968
MEP34,tru,2,4.27987421383648,5.53090909090909,4.78616352201258,4.85989017693716
MEP34,tru,2,7.42926829268293,5.64173228346457,8.97073170731707,5.60738255033557
MEP34,tru,2,5.69262295081967,5.59933774834437,6.72131147540984,4.63885664868801
MEP34,tru,2,6.06726457399103,4.11515151515152,6.9372197309417,3.91641244661379
MEP34,tru,2,6.61302681992337,5.29724409448821,6.54406130268199,5.13417569193744
MEP34,tru,2,5.79411764705882,5.39261744966443,7.69327731092437,5.72147651006711
MEP34,tru,2,6.81818181818182,5.83546421990751,7.28571428571429,5.72056476791786
MEP34,tru,2,5.81481481481481,4.79384048433798,6.62551440329218,5.00025733401956
MEP34,tru,2,4.24309392265193,4.62071079964961,3.92541436464088,4.67912356093161
MEP34,tru,2,7.78242677824268,3.8092658996962,7.27615062761506,4.75978546159991
MEP34,tru,2,6.23228346456693,5.60773091485428,5.87795275590551,5.31179280864974
MEP34,tru,2,5.93004115226337,4.74374739956546,7.01234567901235,4.68056946318953
MEP34,tru,2,5.07806691449814,4.65217391304348,6.05947955390335,4.89734698483698
MEP34,tru,2,4.88571428571429,4.33721529812735,5.28928571428571,4.99856705011344
MEP34,tru,2,4.7484076433121,4.49600449168255,4.99363057324841,4.51342979109214
MEP34,tru,2,4.70552147239264,4.35117904600968,4.64110429447853,5.64539007092199
MEP34,tru,2,5.02846975088968,5.28482824427482,5.81494661921708,5.65905386019824
MEP34,tru,2,5.17081850533808,4.59505624011696,5.43416370106762,4.13477767431033
MEP34,tru,2,7.34241245136187,4.57866267974571,5.94552529182879,4.87670599120981
MEP34,tru,2,7.484375,5.28726442033124,8.29166666666667,5.07737860244769
MEP34,tru,2,6.72,4.83083519761372,8.065,4.42905429701546
MEP34,tru,2,5.92410714285714,5.9172286310889,7.33482142857143,4.47429143628369
MEP34,tru,2,6.11255411255411,4.89814612868048,6.51082251082251,5.38473439917483
MEP34,tru,2,8.88690476190476,6.2257179440278,8.16071428571429,6.54072388093006
MEP34,tru,2,5.32699619771863,5.28064079422382,5.63878326996198,4.69922638436481
MEP34,tru,2,5.68650793650794,4.49098467394571,6.40079365079365,4.47821009456534
MEP34,tru,2,6.87404580152672,4.41833072139932,5.71374045801527,4.29405751366727
MEP34,tru,2,7.61538461538461,4.31248080719456,6.99547511312217,5.44173429845726
MEP34,tru,2,5.07641196013289,5.33066808813076,5.27574750830565,4.5300278186876
MEP34,tru,2,11.3962264150943,4.09858384223083,11.6289308176101,5.48089171974522
MEP34,tru,2,5.31851851851852,3.92887825233186,5.87037037037037,4.93071493037648
MEP34,tru,2,4.9593220338983,4.73295454545454,6.22372881355932,4.71393962632459
MEP34,tru,2,4.6027397260274,6.15305146901443,4.71232876712329,6.23443864466101
MEP34,tru,2,4.77430555555556,4.00252797663801,4.66666666666667,4.90490240318419
MEP34,tru,2,7.45771144278607,6.04896673649181,7.29353233830846,5.50528920194905
MEP34,tru,2,5.43346007604563,3.87918404542428,4.5893536121673,4.88255033557047
MEP34,tru,2,6.80365296803653,6.4020618556701,7.01826484018265,6.46129624770401
MEP34,tru,2,9.18012422360249,4.80589596170145,10.2422360248447,5.59910209130266
MEP34,tru,2,4.50584795321637,5.11142038067936,4.44736842105263,5.3101284605927
MEP34,tru,2,7.89528795811518,6.05517204185094,8.03141361256544,6.21696688598858
MEP34,tru,2,6.29385964912281,4.74155613291399,8.17543859649123,5.32422724265054
MEP34,tru,2,5.77700348432056,4.04310959326758,5.33101045296167,4.66081747158297
MEP34,tru,2,6.60546875,4.61661341853035,5.6796875,5.11544363663808
MEP34,tru,2,8.83333333333333,6.34340135055786,8.49462365591398,5.65767363704258
MEP34,tru,2,6.15062761506276,6.14241579177603,7.07531380753138,4.88347818677573
MEP34,tru,2,4.22455089820359,6.76459781337925,4.43413173652695,4.61229531251911
MEP34,tru,2,4.96641791044776,5.52703092189236,4.62686567164179,6.4188660600321
MEP34,tru,2,5.26122448979592,5.80245558332771,6.04489795918367,5.74559080144585
MEP34,tru,2,5.28251121076233,6.17828158844766,7.08071748878924,6.21611552346571
MEP34,tru,2,9.16477272727273,5.25907790492958,9.83522727272727,4.34845266990291
MEP34,tru,2,6.79385964912281,4.06098048802169,6.49122807017544,4.26014273773548
MEP34,tru,2,7.20603015075377,4.67805965121402,8.78391959798995,4.62603988377184
MEP34,tru,2,4.57225433526012,7.14977242922163,4.46820809248555,6.85089070584982
MEP34,tru,2,5.55595667870036,4.94270495599815,5.41516245487365,4.30892823148677
MEP34,tru,2,5.83870967741935,7.01076291847535,4.63799283154122,5.65248033138205
MEP34,tru,2,6.27881040892193,4.74782748817348,5.90334572490706,4.78881589868855
MEP34,tru,2,5.28363636363636,5.22473858301323,5.29454545454545,4.25646023340198
MEP34,tru,2,6.93518518518519,5.28489620615607,6.26851851851852,4.46892808683855
MEP34,tru,2,7.84183673469388,4.33426966292135,7.80612244897959,4.93466744589398
MEP34,tru,2,4.94788273615635,5.54410354745926,4.33550488599349,6.2197008767406
MEP34,tru,2,5.59210526315789,4.41317365269461,4.99671052631579,4.62270177953951
MEP34,tru,2,5.13257575757576,3.27335774776838,5.72727272727273,4.03192172566206
MEP34,tru,2,4.6565349544073,4.33029804645192,4.58966565349544,5.60481121433731
MEP34,tru,2,6.20481927710843,4.15321759156739,5.6425702811245,3.47880031067652
MEP34,tru,2,6.41101694915254,6.00891774274097,6.8771186440678,5.08082999554963
MEP34,tru,2,5.97697368421053,6.02995854172151,5.18421052631579,5.05091414024532
MEP34,tru,2,6.91304347826087,4.57588690317417,6.96086956521739,6.36600428308181
MEP34,tru,2,6.63135593220339,5.1433482897267,7.72881355932203,5.95017675085814
MEP34,tru,2,6.58222222222222,4.98707190945459,7.22666666666667,5.86058386630906
MEP34,tru,2,5.08305647840532,6.49746753596638,5.27574750830565,5.18354827802733
MEP34,tru,2,4.33333333333333,4.91744531747718,5.46474358974359,5.11209852038975
MEP34,tru,2,5.23938223938224,4.90856751846347,5.22779922779923,4.8733048050925
MEP34,tru,2,5.58888888888889,4.48910008591066,6.05555555555556,4.8410952669903
MEP34,tru,2,9.1340782122905,4.4455581855949,7.22905027932961,6.01395719036926
MEP34,tru,2,6.07983193277311,5.36604415440156,6.54621848739496,4.5182394924663
MEP34,tru,2,4.19287833827893,4.92392304860088,4.57270029673591,5.40456756396589
MEP34,tru,2,6.3758865248227,5.00453862526606,4.43971631205674,5.86837419531572
MEP34,tru,2,5.5962962962963,5.1702862503198,6.64444444444444,5.04501557429395
MEP34,tru,2,6.6431718061674,4.92868961253842,6.82819383259912,6.31950214836122
MEP34,tru,2,7.75714285714286,5.65921696087787,7.61904761904762,5.45163498711341
MEP34,tru,2,5.61538461538461,4.8477508650519,6.20769230769231,4.30303522909361
MEP34,tru,2,4.71153846153846,4.93584739974632,4.71474358974359,6.05156127000788
MEP34,tru,2,5.30859375,6.1488241843517,6.421875,6.23728282004641
MEP34,tru,2,6.43220338983051,5.36838530210894,6.53813559322034,5.62776555828697
MEP34,tru,2,6.75688073394495,6.6383309864374,7.57798165137615,5.39883712505433
MEP34,tru,2,6.11469534050179,5.13251438498786,5.09318996415771,4.78895921004672
MEP34,tru,2,5.70564516129032,5.32608299963597,5.39516129032258,5.66623015223441
MEP34,tru,2,6.57021276595745,3.73407109322602,7.36170212765957,4.26200063918185
MEP34,tru,2,4.18506493506494,5.99646248370881,5.35714285714286,5.44933366859442
MEP34,tru,2,5.4488188976378,4.4828880866426,5.51968503937008,5.0848322147651
MEP34,tru,2,4.72727272727273,6.80003706449221,4.82867132867133,7.00845990815966
MEP34,tru,2,6.6047619047619,6.03404268405191,6.40476190476191,5.75930010954546
MEP34,tru,2,4.5728813559322,7.07393800229622,5.62033898305085,5.52066590126292
MEP34,tru,2,5.65384615384615,6.42166158901859,6.31623931623932,6.11760014446083
MEP34,tru,2,8.47252747252747,9.22033183352082,8.15384615384615,8.09020618556701
MEP34,tru,2,5.42808219178082,4.79749190938512,5.27054794520548,6.31652684563759
MEP34,tru,2,6.07228915662651,4.91583666575594,5.30923694779116,5.25524415968974
MEP34,tru,2,7.00888888888889,7.4194205313339,6.84444444444444,5.09473412493547
MEP34,tru,2,6.57964601769912,5.92457817772777,7.58849557522124,5.49623080502558
MEP34,tru,2,6.54132231404959,4.83966871947335,7.58264462809917,5.09060301645088
MEP34,tru,2,5.32718894009217,4.65931488735311,7.34562211981567,4.79773810147128
MEP34,tru,2,8.78095238095238,4.14022717295874,7.72380952380952,4.92434808975136
MEP34,tru,2,5.05743243243243,5.6493134046358,5.45608108108108,6.01403556125377
MEP34,tru,2,4.70818505338078,6.22826610959345,4.67615658362989,4.82311942827673
MEP34,tru,2,6.65034965034965,3.85946470445541,5.29020979020979,4.43896390932859
MEP34,tru,2,5.47744360902256,5.26712013320578,5.67293233082707,5.1829808339533
MEP34,tru,2,5.83870967741935,4.38500865187981,5.91756272401434,5.41599555678978
MEP34,tru,2,4.25776397515528,5.1259842519685,4.94409937888199,5.4934481137619
MEP34,tru,2,4.70897832817337,4.4103199443575,4.87306501547988,4.21756809719772
MEP34,tru,2,6.86792452830189,5.4165850254318,7.44811320754717,5.00047122886015
MEP34,tru,2,5.92096219931272,5.59063308056596,5.64948453608247,5.72906355316779
MEP34,tru,2,4.76160990712074,6.48493171983105,4.671826625387,6.01364307740147
MEP34,tru,2,6.14716981132075,6.87575280985078,5.59622641509434,6.29371690668106
MEP34,tru,2,5.90322580645161,5.10499353300702,5.89516129032258,4.39291411300479
MEP34,tru,2,4.78859060402685,4.84965230714834,5.12751677852349,4.60024161706642
MEP34,tru,2,4.99303135888502,5.26298170198197,5.49825783972125,5.29011571669114
MEP34,tru,2,7.31696428571429,4.63029848110209,6.59821428571429,4.33881578947368
MEP34,tru,2,4.78688524590164,4.49870174407212,5.07213114754098,5.00247479247099
MEP34,tru,2,5.50357142857143,5.92538514920194,5.42857142857143,5.53415162454874
MEP34,tru,2,4.86170212765957,4.72344341545809,5.27659574468085,5.44406779661017
MEP34,tru,2,6.48971193415638,5.7364410578216,6.40740740740741,5.57752734062416
MEP34,tru,2,4.9512987012987,6.6790170371778,4.41558441558442,5.71637426900586
MEP34,tru,2,6.71264367816092,4.27028191621153,6.52873563218391,5.02950586562389
MEP34,tru,2,4.24814814814815,9.22900763358779,5.53703703703704,6.48829130211014
MEP34,tru,2,6.4952380952381,5.61729396495783,8.07619047619048,6.02827420645506
MEP34,tru,2,5.70682730923695,4.43205998581416,7.4136546184739,4.78074105133071
MEP34,tru,2,7.22457627118644,4.45443338909923,7.64830508474576,5.51400553180788
MEP34,tru,2,7.03501945525292,4.12611810986746,6.95330739299611,4.57068175926726
MEP34,tru,2,6.68202764976959,6.42500746300481,5.79723502304148,5.38562483596415
MEP34,tru,2,8.73988439306358,6.89116011318178,7.58959537572254,6.21463069567763
MEP34,tru,2,6.60251046025105,3.99384479498751,6.51046025104602,4.37659033078881
MEP34,tru,2,5.32467532467532,6.12387496048845,4.75,6.08268547507652
MEP34,tru,2,8.64761904761905,8.39502787268477,6.2047619047619,7.37632620032369
MEP34,tru,2,6.15833333333333,5.57516245487365,7.00416666666667,5.59672852233677
MEP34,tru,2,7.67015706806283,4.94504436343629,8.33507853403141,5.37983386276528
MEP34,tru,2,5.2226148409894,5.65224042637188,5.63604240282686,6.14275854746229
MEP34,tru,2,6.18702290076336,4.74577512687701,4.82442748091603,5.20829080764783
MEP34,tru,2,6.06273062730627,5.01383270259689,6.34686346863469,6.24754392593992
MEP34,tru,2,8.07329842931937,4.43261751460792,7.75392670157068,4.58477398688158
MEP34,tru,2,7.44278606965174,4.40242185299916,6.89054726368159,3.72971868401335
MEP34,tru,2,6.41517857142857,6.26177913542535,5.58035714285714,6.23809523809524
MEP34,tru,2,6.11363636363636,4.68619229273726,5.75,4.5614767219775
MEP34,tru,2,6.64173228346457,3.74642958479145,5.99212598425197,4.54728804337629
MEP34,tru,2,5.76113360323887,5.06106870229008,6.52226720647773,5.15100818878225
MEP34,tru,2,5.93467336683417,4.05263770816351,8.32663316582915,4.0863823338385
MEP34,tru,2,8.24186046511628,4.50958440721648,6.66976744186046,4.27177066368077
MEP34,tru,2,5.62809917355372,6.55911552346571,6.17768595041322,6.18750000000001
MEP34,tru,2,4.20055710306407,6.71727694687984,4.62674094707521,4.89261744966443
MEP34,tru,2,4.59090909090909,4.74543784981344,4.18181818181818,4.7386984223301
MEP34,tru,2,4.13157894736842,4.3894166637668,5.29824561403509,4.57180159873874
MEP34,tru,2,6.67410714285714,5.44560057540158,8.45535714285714,5.81905801360088
MEP34,tru,2,8.03571428571429,6.39340906089024,9.41071428571429,6.04568908362399
MEP34,tru,2,5.27244582043344,4.47525773195876,5.27244582043344,4.68724832214765
MEP34,tru,2,5.98744769874477,6.35715117536476,5.64016736401674,6.47004608294931
MEP34,tru,2,5.98755186721992,5.21980605757057,7.4896265560166,5.82186234817814
MEP34,tru,2,5.35294117647059,6.73502313499473,7.14509803921569,6.8994033606624
MEP34,tru,2,6.82186234817814,5.67044912424182,6.93522267206478,5.95851182350266
MEP34,tru,2,5.30065359477124,4.58856506439053,5.00980392156863,5.22682988000154
MEP34,tru,2,7.28085106382979,6.66412213740458,6.73617021276596,6.46441947565543
MEP34,tru,2,6.95175438596491,4.17405063291139,6.48245614035088,4.51968626232818
MEP34,tru,2,6.17521367521368,4.78451178451178,6.44871794871795,4.16498316498317
MEP34,tru,2,5.47670250896057,4.32890365448505,5.48745519713262,5.00664451827243
MEP34,tru,2,5.65234375,6.2563025210084,6.32421875,5.63660515752693
MEP34,tru,2,6.85116279069767,5.46488294314381,7.49767441860465,5.48212253904768
MEP34,tru,2,4.48928571428571,4.83006535947712,5.13214285714286,4.86942910929204
MEP34,tru,2,6.43965517241379,5.58495970346241,6.68965517241379,6.66945606694561
MEP34,tru,2,5.90697674418605,6.8334936163157,5.98837209302326,6.71303811955278
MEP34,tru,2,5.31833910034602,5.22137404580153,4.66782006920415,5.84466019417475
MEP34,tru,2,5.60215053763441,4.59563758389262,5.46594982078853,5.6502690334909
MEP34,tru,2,8.83243243243243,4.71219146811242,7.90810810810811,5.34458404869674
MEP34,tru,2,7.23076923076923,5.97049562315007,8.65384615384615,5.43967404700799
MEP34,tru,2,5.61092150170648,4.38316431308619,6.12286689419795,4.71509326106747
MEP34,tru,2,7.83980582524272,5.01121818815678,7.53398058252427,5.0922089290925
MEP34,tru,2,6.1078431372549,5.21902922913826,5.44444444444444,5.67943765876743
MEP34,tru,2,9.87671232876712,6.15719820476429,9.68493150684932,5.23715894910797
MEP34,tru,2,4.82142857142857,4.69430582904,6.13571428571429,5.79332871905091
MEP34,tru,2,4.58561643835616,3.88795433496513,5.48972602739726,4.36533312017905
MEP34,tru,2,6.68503937007874,4.15339521944019,6.11811023622047,5.40837704226201
MEP34,tru,2,5.41390728476821,5.10540003506516,4.84105960264901,5.57609512935476
MEP34,tru,2,4.82491582491583,4.62023329647201,5.01010101010101,4.77383542035323
MEP34,tru,2,6.03358208955224,4.96406992068032,5.77985074626866,4.61908909267894
MEP34,tru,2,5.75357142857143,5.35346732974168,5.51785714285714,5.16840766037231
MEP34,tru,2,3.28927680798005,4.4398617073016,4.37406483790524,5.19002976805722
MEP34,tru,2,5.68837209302326,4.34795583790153,7.48372093023256,4.31732586173193
MEP34,tru,2,6.27004219409283,4.58652936849848,6.61603375527426,5.20105361910948
MEP34,tru,2,5.05743243243243,4.2242614255973,5.91891891891892,4.73682544891931
MEP34,tru,2,5.64233576642336,4.83017932987258,5.9051094890511,5.31262261228704
MEP34,tru,2,4.95402298850575,9.13594409970275,6.11877394636015,6.930441352949
MEP34,tru,2,5.22727272727273,4.23388628593137,5.22377622377622,4.49601114347221
MEP34,tru,2,4.01680672268908,5.47343400447429,4.28571428571429,5.25526474127559
MEP34,tru,2,4.54166666666667,9.39567430025446,5.47435897435897,8.45738942826322
MEP34,tru,2,7.71014492753623,4.86051671699624,8.71014492753623,4.74294628627865
MEP34,tru,2,8.70481927710843,4.94845360824741,8.77710843373494,6.40206185567009
MEP34,tru,2,5.78861788617886,5.33987934006402,6.96341463414634,4.87107859439086
MEP34,tru,2,6.92307692307692,6.300395256917,8.625,5.2781604459837
MEP34,tru,2,5.94423791821561,5.17785234899328,6.40148698884758,5.41155234657039
MEP34,tru,2,8.45614035087719,4.1311766696751,8.70175438596491,4.56474196742958
MEP34,tru,2,5.75,5.68185684313987,5.3,5.97649249797957
MEP34,tru,2,5.56809338521401,5.69679002249031,5.1556420233463,5.17905749878088
MEP34,tru,2,5.27147766323024,4.22053312893885,5.4020618556701,5.76864770987873
MEP34,tru,2,5.03703703703704,5.40667670142995,5.55218855218855,5.28383244450522
MEP34,tru,2,6.375,3.88712686567165,7.78571428571429,4.264440433213
MEP34,tru,2,4.76375404530744,4.26776815574406,4.86407766990291,4.61963190184049
MEP34,tru,2,4.05952380952381,3.79841417910448,4.36607142857143,4.81836569579288
MEP34,tru,2,6.02040816326531,4.63485594681113,6.32244897959184,5.43973159320364
MEP34,tru,2,7.2032967032967,4.84324818649639,8.96703296703297,3.70521146196933
MEP34,tru,2,5.88372093023256,4.50681262373355,6.32945736434108,4.56450259796493
MEP34,tru,2,5.72592592592593,6.66849492095931,5.84814814814815,5.64875526945426
MEP34,tru,2,5.91417910447761,5.76019200640022,5.88805970149254,5.61824096597404
MEP34,tru,2,6.1440329218107,5.10818961455094,6.14814814814815,4.93453820372491
MEP34,tru,2,4.6411149825784,5.35070202347944,5.33449477351916,5.31066378713174
MEP34,tru,2,5.30111524163569,5.79068241469817,5.25650557620818,5.6972137014315
MEP34,tru,2,5.36507936507936,4.71776999124014,6.54365079365079,4.57843501774548
MEP34,tru,2,5.47945205479452,3.72311685814546,6.30479452054795,4.86798299796896
MEP34,tru,2,4.8489932885906,4.50169266511782,5.5503355704698,3.9257465227118
MEP34,tru,2,4.95205479452055,5.50925558115517,5.63356164383562,6.07909653040193
MEP34,tru,2,6.27947598253275,5.20244963586492,6.57205240174673,4.93048910902233
MEP34,tru,2,5.44155844155844,6.08191426893718,6.96103896103896,5.98606091894683
MEP34,tru,2,7.32945736434108,4.79288579518639,6.81395348837209,5.74846734641196
MEP34,tru,2,5.58181818181818,5.12766636048173,5.49818181818182,5.13935901176928
MEP34,tru,2,6.30290456431535,4.9119592875318,7.25311203319502,4.88473972254041
MEP34,tru,2,5.31333333333333,5.34732869792595,5.18666666666667,5.91609322345878
MEP34,tru,2,4.71631205673759,4.54378444580526,5.34397163120567,4.31643384084131
MEP34,tru,2,7.48292682926829,4.31500116372997,7.3219512195122,4.71634074389466
MEP34,tru,2,7.61111111111111,3.78658536585366,7.21212121212121,5.00352024138798
MEP34,tru,2,4.89105058365759,5.09151233308859,7.22178988326848,4.90096038415367
MEP34,tru,2,8.435,5.0021070196278,7.02,5.72277027573381
MEP34,tru,2,6.91416309012876,4.72039473684211,7.05579399141631,4.8127649240551
MEP34,tru,2,6.80803571428571,4.13452784854449,7.29464285714286,4.79567269961243
MEP34,tru,2,4.84057971014493,6.46723142803947,5.64855072463768,5.32828065956716
MEP34,tru,2,6.73127753303965,7.99431414356786,7.46255506607929,9.19063982981507
MEP34,tru,2,5.48739495798319,5.06615769835035,7.04621848739496,4.64541815704309
MEP34,tru,2,8.76666666666667,5.44702934860416,8.36111111111111,4.2947161142107
MEP34,tru,2,7.02427184466019,4.46941747572815,7.4126213592233,4.5558844765343
MEP34,tru,2,5.84615384615385,4.67016587139286,5.47435897435897,5.43307250912884
MEP34,tru,2,5.72839506172839,5.07704119453563,6.440329218107,4.79686632689105
MEP34,tru,2,4.58966565349544,5.23986528013374,4.81155015197568,5.69958597320161
MEP34,tru,2,5.21183800623053,5.01971200517744,5.30529595015576,4.65491403879746
MEP34,tru,2,5.48580441640379,4.73100290569693,4.98738170347003,5.38343558282209
MEP34,tru,2,5.05925925925926,6.18831241595695,5.36296296296296,5.40109480458326
MEP34,tru,2,5.92988929889299,7.09351145038168,5.94464944649446,5.64010067114094
MEP34,tru,2,5.98214285714286,4.52215022632751,7.10714285714286,4.48314606741573
MEP34,tru,2,5.98648648648649,3.96748529149581,5.34121621621622,4.42875289712961
MEP34,tru,2,5.64980544747082,4.34687085806489,6.87548638132296,4.25325853178203
MEP34,tru,2,6.65536723163842,5.84657594381036,8.80790960451977,5.73914330833005
MEP34,tru,2,5.77902621722846,4.42245518565941,5.97003745318352,4.90820254663903
MEP34,tru,2,5.05015673981191,4.50555052400052,5.26959247648903,4.25224255032736
MEP34,tru,2,6.52325581395349,5.9373843400176,6.01550387596899,7.05577979223186
MEP34,tru,2,5.13240418118467,7.88813013788004,5.22996515679443,8.7066010520957
MEP34,tru,2,5.76833976833977,4.44104793036148,6.26640926640927,5.19675629050381
MEP34,tru,2,6.44813278008299,5.72718199193034,5.46473029045643,6.65173072839244
MEP34,tru,2,5.63541666666667,4.33675302845883,5.95833333333333,4.70095526734116
MEP34,tru,2,5.54193548387097,5.49050926618964,4.21290322580645,6.04174669750304
MEP34,tru,2,5.768,5.43693521700395,6.444,4.85783377879598
MEP34,tru,2,6.33333333333333,4.49272930648769,6.50416666666667,5.30288299966393
MEP34,tru,2,7.04661016949153,3.7135579636156,7.34322033898305,4.24600638977636
MEP34,tru,2,5.58695652173913,4.46084859765642,5.68115942028986,4.30751558910404
MEP34,tru,2,7.91099476439791,5.3313507798044,6.80628272251309,5.27355446566857
MEP34,tru,2,3.86686390532544,6.13730294484767,4.23076923076923,5.07684270103183
MEP34,tru,2,5.32941176470588,4.41563565409439,6.28627450980392,4.26296894041698
MEP34,tru,2,6.67741935483871,4.36599423631124,7.8294930875576,4.80764130761478
MEP34,tru,2,4.23355263157895,5.21547810295453,5.46052631578947,4.84177606368513
MEP34,tru,2,6.61832061068702,5.53896261653861,7.16793893129771,6.39519469759735
MEP34,tru,2,5.38910505836576,4.4341102644554,5.12062256809338,4.6855213170114
MEP34,tru,2,5.03038674033149,4.24494545014959,4.30386740331492,5.39553940089594
MEP34,tru,2,5.11610486891386,4.42264631043257,5.04868913857678,5.02860696517413
MEP34,tru,2,5.95154185022026,5.34692728994798,6.82378854625551,5.40420292443923
MEP34,tru,2,6.95175438596491,5.21557982065517,7.80263157894737,6.74075577296907
MEP34,tru,2,7.02834008097166,7.13615023474178,6.24696356275304,6.73636449569903
MEP34,tru,2,4.83098591549296,4.62984929408355,5.21830985915493,4.572620579405
MEP34,tru,2,5.26119402985075,4.37055133309205,5.72761194029851,4.76843495119669
MEP34,tru,2,9.01986754966887,6.97603813626429,11.4635761589404,5.06188456059949
MEP34,tru,2,8.39664804469274,6.07496226731513,9.91620111731844,4.55577435422218
MEP34,tru,2,4.96710526315789,5.27569783565443,5.04605263157895,5.96675107011515
MEP34,tru,2,6.17832167832168,5.20132720164178,5.60839160839161,4.29503358001455
MEP34,tru,2,7.35714285714286,4.98694748019999,6.28968253968254,5.32203953333736
MEP34,tru,2,4.23076923076923,5.2993440867412,4.95238095238095,5.36461311583954
MEP34,tru,2,7.15270935960591,4.44475920679887,7.35960591133005,4.23634441208155
MEP34,tru,2,6.48898678414097,7.72957565824634,7.22466960352423,6.03174790337082
MEP34,tru,2,5.3169014084507,5.46584507042254,5.04577464788732,5.31262135922331
MEP34,tru,2,5.05844155844156,5.27817124590074,5.05844155844156,5.17469844414661
MEP34,tru,2,7.56650246305419,5.70793650793651,7.76354679802956,4.57594904196846
MEP34,tru,2,6.92307692307692,4.93376288659794,6.85972850678733,6.20032573289902
MEP34,tru,2,7.37931034482759,5.19205443371379,7.2807881773399,5.55408606395579
MEP34,tru,2,5.32075471698113,6.09539685459395,6.14716981132075,4.85717237179766
MEP34,tru,2,5.56445993031359,5.16379381443299,5.39721254355401,5.31524832214765
MEP34,tru,2,9.25,4.09510417264537,9.295,4.28285502488617
MEP34,tru,2,5.01020408163265,4.19750700550778,5.49659863945578,3.62473152675593
MEP34,tru,2,5.85152838427948,4.23142694280829,6.29694323144105,4.15022994379152
MEP34,tru,2,7.60185185185185,4.59560476857155,7.02314814814815,5.60277070964094
MEP34,tru,2,4.31095406360424,4.15638448859994,5.38515901060071,4.64502392617068
MEP34,tru,2,3.71388888888889,5.15606794023821,4.02777777777778,5.25401224303785
MEP34,tru,2,4.97132616487455,4.32057252357859,5.56989247311828,4.79551021378802
MEP34,tru,2,7.07798165137615,4.52952001011393,8.35321100917431,5.21977010128613
MEP34,tru,2,5.02166064981949,5.07061685549998,5.36462093862816,5.58706944638125
MEP34,tru,2,5.26168224299065,4.77741846323936,5.41433021806854,5.25475248711494
MEP34,tru,2,6.31162790697674,4.51400508667426,6.93023255813953,5.64238756584963
MEP34,tru,2,5.87822878228782,6.90563881127763,5.02952029520295,7.4447932452912
MEP34,tru,2,5.87603305785124,5.74419846387645,6.63636363636364,4.79354224891479
MEP34,tru,2,6.10593220338983,4.90076923076923,6.41949152542373,5.19517322372284
MEP34,tru,2,5.21453287197232,4.85219276714122,5.23529411764706,4.84431927133269
MEP34,tru,2,6.84878048780488,4.26909859899552,8.05853658536585,3.64030335861323
MEP34,tru,2,4.49652777777778,6.72994855817998,5.63888888888889,5.98643306663293
MEP34,tru,2,7.33484162895928,6.22914455892924,8.18099547511312,5.85277881206391
MEP34,tru,2,5.64878048780488,4.32799391778524,8.31219512195122,4.18081507731959
MEP34,tru,2,7.65482233502538,6.2933799473988,7.73096446700508,5.50537108047102
MEP34,tru,2,5.98712446351931,5.36150201374082,7.48068669527897,5.49868043602983
MEP34,tru,2,4.82978723404255,5.35159117798743,5.67375886524823,5.51749631150169
MEP34,tru,2,7.29850746268657,3.62113153470941,8.97014925373134,4.66868655072008
MEP34,tru,2,7.29245283018868,4.03572107163215,6.5188679245283,4.44154278826839
MEP34,tru,2,5.26449275362319,5.50710028825577,4.84057971014493,5.54952666820594
MEP34,tru,2,7.49738219895288,5.66232512549381,7.49738219895288,4.78270560235729
MEP34,tru,2,5.61111111111111,4.91564320932317,6.95634920634921,5.66393346950686
MEP34,tru,2,5.39405204460967,5.63395536995954,5.82156133828996,6.30672840030584
MEP34,tru,2,10.7835820895522,7.47731485998634,12.3880597014925,6.0880492142628
MEP34,tru,2,6.6036866359447,4.46876655393016,7.64516129032258,4.94200932098402
MEP34,tru,2,5.43153526970954,4.19625134879508,6.52697095435685,4.26537280639983
MEP34,tru,2,5.92255892255892,4.63531149963064,5.75420875420875,4.34552933535397
MEP34,tru,2,5.7710843373494,3.68097812421423,6.48995983935743,4.32264242317514
MEP34,tru,2,4.60927152317881,4.65037228144024,5.33112582781457,5.12601492467264
MEP34,tru,2,5.83829787234043,5.28742136894044,7.25106382978723,5.16372031380261
MEP34,tru,2,5.96761133603239,8.01044429031863,6.75708502024291,7.50634813906577
MEP34,tru,2,5.46283783783784,3.78574387501479,5.39527027027027,3.61353414605279
MEP34,tru,2,6.08294930875576,6.13675373134328,6.8294930875576,4.87847836202885
MEP34,tru,2,5.05633802816901,4.63212276214834,5.24647887323944,4.9311995468064
MEP34,tru,2,6.82213438735178,4.80405591832981,6.14624505928854,4.49096385542169
MEP34,tru,2,6.22222222222222,5.61110139095442,7.440329218107,5.95364790952072
MEP34,tru,2,7.25581395348837,5.02123019095571,8.10697674418605,4.28889659533669
MEP34,tru,2,5.85057471264368,4.13860832097591,6.4176245210728,3.67040019014231
MEP34,tru,2,5.39298245614035,5.00863184079602,5.68771929824561,4.95805774278215
MEP34,tru,2,5.68085106382979,5.20366724992711,5.209726443769,5.66777538055856
MEP34,tru,2,6.95454545454545,3.90957004160887,6.51652892561984,3.7032748839608
MEP34,tru,2,5.4169741697417,6.52867234983031,5.85608856088561,6.8167048616795
MEP34,tru,2,6.76706827309237,4.52826843522227,6.59839357429719,4.81553956172825
MEP34,tru,2,5.63358778625954,5.67176514123597,5.16412213740458,5.28993780352731
MEP34,tru,2,5.4261744966443,4.02669007901668,5.26845637583893,5.36333523700743
MEP34,tru,2,6.72444444444444,4.84706238643247,7.26666666666667,4.38832079048659
MEP34,tru,2,5.41290322580645,3.62937531936638,5.22903225806452,4.44423863055697
MEP34,tru,2,8.15111111111111,5.474631873811,7.00888888888889,4.46113787629843
MEP34,tru,2,5.1238670694864,6.66488724261902,4.70090634441088,5.14464891539015
MEP34,tru,2,8.86708860759494,5.02751418256834,8.22784810126582,4.69393203883495
MEP34,tru,2,7.58986175115207,5.13176144244106,7.53456221198157,4.77861065109388
MEP34,tru,2,6.61776061776062,5.52901023890785,5.15057915057915,5.80586457546309
MEP34,tru,2,6.43873517786561,4.66857260750391,5.33596837944664,4.87217453236871
MEP34,tru,2,6.20080321285141,5.24050971425515,6.56224899598394,5.97154118343344
MEP34,tru,2,6.92272727272727,5.16698473282443,7.24090909090909,5.04963898916968
MEP34,tru,2,4.77319587628866,6.25027830211508,5.5085910652921,5.94129879950845
MEP34,tru,2,6.8110599078341,5.54284967491097,7.74193548387097,5.53666339362073
MEP34,tru,2,7.625,6.35028422933247,6.33620689655172,5.47556761387977
MEP34,tru,2,8.61077844311377,8.73897822995296,9.53293413173653,5.88155927506108
MEP34,tru,2,6.96984924623116,7.89637305699482,7.82914572864322,7.95177490484095
MEP34,tru,2,7.32735426008969,5.80170260667676,7.18385650224215,4.69771581626712
MEP34,tru,2,5.85836909871245,5.09499259428051,6.30042918454936,4.2583474380674
MEP34,tru,2,5.95258620689655,5.74131274131274,7.02155172413793,6.003861003861
MEP34,tru,2,4.96794871794872,3.7906976744186,5.20833333333333,3.87209302325581
MEP34,tru,2,5.54924242424242,4.99169939968873,5.03409090909091,4.90787815904543
MEP34,tru,2,5.06049822064057,4.66592152604799,5.82562277580071,4.82672834391973
MEP34,tru,2,9.78125,4.19729026133733,9.8875,5.31756469268557
MEP34,tru,2,4.53650793650794,4.53012389064268,4.6031746031746,5.52330430720982
MEP34,tru,2,6.55760368663594,4.51816273813367,6.74193548387097,5.37369425472077
MEP34,tru,2,7.27179487179487,5.88476044551829,8.54358974358974,6.67782426778243
MEP34,tru,2,5.82014388489209,4.72358208955225,4.78057553956835,5.454776119403
MEP34,tru,2,6.60425531914894,5.09549079145265,6.76595744680851,4.92026894635835
MEP34,tru,2,10.1807228915663,6.57170881487485,9.09036144578313,7.37469509796209
MEP34,tru,2,5.05429864253394,5.13528757301357,6.64253393665158,5.08082550168814
MEP34,tru,2,8.80729166666667,4.00707091713954,8.58333333333333,4.51613104589103
MEP34,tru,2,5.39144736842105,5.05388362433036,5.76644736842105,5.19582012138647
MEP34,tru,2,4.7626582278481,5.9789267705276,5.81012658227848,6.27546675401246
MEP34,tru,2,6.93548387096774,4.58451104890649,6.43145161290323,5.68898080187439
MEP34,tru,2,5.24734982332155,4.85044286336576,6.67844522968198,4.39503570720095
MEP34,tru,2,4.28443113772455,3.70847651775487,5.46706586826347,4.69525350593312
MEP34,tru,2,7.35217391304348,4.31510096575944,6.44782608695652,4.86908242293686
MEP34,tru,2,5.68456375838926,4.94895944955164,4.4496644295302,4.89787080476362
MEP34,tru,2,4.13829787234043,4.76848669975818,5.79787234042553,4.95448119875601
MEP34,tru,2,6.01345291479821,4.85601872603217,6.89237668161435,5.66474564731057
MEP34,tru,2,7.32850241545894,6.44265481810609,8.78743961352657,5.33980582524272
MEP34,tru,2,5.83266932270916,5.0492908224867,5.46215139442231,6.20654496382652
MEP34,tru,2,6.02252252252252,5.81260510345836,6.68918918918919,7.11874685877031
MEP34,tru,2,6.56746031746032,8.31060479142239,5.26984126984127,6.36799520527422
MEP34,tru,2,6.10313901345291,5.18517420311341,7.12107623318386,5.37292085174769
MEP34,tru,2,5.76340694006309,4.70358764311093,5.43533123028391,4.83641502203487
MEP34,tru,2,5.77338129496403,4.63779639715124,6.41007194244604,5.14824735064633
MEP34,tru,2,5.5531914893617,4.2690985989955,5.59929078014184,4.98445649545783
MEP34,tru,2,7.10280373831776,4.398761697703,8.41588785046729,4.28391152282824
MEP34,tru,2,9.2603550295858,5.58546575029799,9.57988165680473,4.9034642793741
MEP34,tru,2,4.803125,4.61383256517458,4.553125,5.54610691123987
MEP34,tru,2,6.685,4.73365248445293,7.92,4.89025601960719
MEP34,tru,2,6.23673469387755,5.74427480916031,6.03673469387755,5.62783101045296
MEP34,tru,2,5.44117647058824,5.07204166878916,6.54201680672269,4.29974485569436
MEP34,tru,2,4.77914110429448,4.88145080208287,4.40184049079755,6.00099041102058
MEP34,tru,2,6.31188118811881,4.70861268695204,7.10891089108911,5.47280571777216
MEP34,tru,2,5.30188679245283,5.91335740072203,6.08301886792453,6.48196308724833
MEP34,tru,2,6.02978723404255,3.90589504770559,7.27659574468085,3.38484994382924
MEP34,tru,2,5.61904761904762,5.48282604445024,5.12087912087912,5.03972527239581
MEP34,tru,2,4.84046692607004,4.78102855752564,6.26459143968872,4.98756651247361
MEP34,tru,2,5.43396226415094,5.59650284407261,5.66792452830189,5.53746353781185
MEP34,tru,2,6.81363636363636,5.76770096115215,7.01363636363636,5.8023302531137
MEP34,tru,2,4.71314741035857,6.56824279007378,6.40637450199203,5.86016346837243
MEP34,tru,2,5.25093632958801,4.09121033605569,5.66292134831461,4.77414612946109
MEP34,tru,2,6.64285714285714,4.17933164002191,5.57518796992481,4.73669230366766
MEP34,tru,2,6.00760456273764,6.27862595419849,5.84410646387833,5.18456375838927
MEP34,tru,2,6.84322033898305,4.82971521083229,6.19915254237288,4.5767421438876
MEP34,tru,2,5.95744680851064,4.29782730999009,5.69858156028369,5.69404806931886
MEP34,tru,2,5.94190871369295,4.04601226993865,5.67634854771784,4.16083807667605
MEP34,tru,2,12.5496183206107,6.35119180218312,12.2519083969466,4.71815596285673
MEP34,tru,2,6.02489626556017,4.62579383871869,6.54356846473029,4.20193599761111
MEP34,tru,2,5.09830508474576,4.43424416746564,5.2135593220339,5.58694703540064
MEP34,tru,2,6.86574074074074,4.87858471251973,6.93055555555556,5.75080338884019
MEP34,tru,2,6.98584905660377,6.96117825563753,7.66037735849057,7.12858671335473
MEP34,tru,2,4.88461538461539,4.19291211707613,5.30128205128205,5.4114051211901
MEP34,tru,2,8.51173708920188,5.0278580335148,7.24413145539906,4.82716115404155
MEP34,tru,2,7.35102040816327,7.73195953822435,5.10204081632653,7.28614408040467
MEP34,tru,2,6.58878504672897,3.79295220243674,7.64018691588785,5.12584502745577
MEP34,tru,2,5.66796875,6.18320610687024,6.78125,5.67194685743485
MEP34,tru,2,7.19431279620853,5.70105740827947,7.2654028436019,4.70428187800632
MEP34,tru,2,7.26190476190476,4.11993356542846,8.21428571428571,5.4454469960714
MEP34,tru,2,6.185667752443,6.40117522933091,4.86644951140065,6.38568596458327
MEP34,tru,2,8.71028037383178,5.06329113924051,7.79439252336449,4.80213838023842
MEP34,tru,2,4.24367088607595,5.15474563838509,5.51898734177215,5.68812116156313
MEP34,tru,2,7.02577319587629,4.7282628648351,8.09278350515464,4.42438390350421
MEP34,tru,2,4.58125,4.44215349369988,4.753125,4.83294951090055
MEP34,tru,2,4.77027027027027,4.86122739336233,5.47972972972973,5.26845489952512
MEP34,tru,2,4.96078431372549,4.69553159665961,5.55228758169935,4.96075479731169
MEP34,tru,2,7.06280193236715,4.98971812080537,6.68599033816425,5.008
MEP34,tru,2,5.690036900369,5.47928231562253,6.61992619926199,5.50148894948336
MEP34,tru,2,5.6304347826087,4.11632558855209,5.01863354037267,3.87306471374472
MEP34,tru,2,5.21523178807947,5.54980079681275,5.63907284768212,5.88902123464903
MEP34,tru,2,5.8801652892562,5.48420348804814,6.05371900826446,4.89322980453632
MEP34,tru,2,8.94029850746269,5.06067343560858,8.66666666666667,4.61861627781959
MEP34,tru,2,4.61180124223602,5.09269607705486,5.85714285714286,4.37376091657074
MEP34,tru,2,4.06020066889632,4.21459797702726,4.73578595317726,4.76175268267757
MEP34,tru,2,5.27969348659004,4.24619653776035,6.62068965517241,4.9906418376028
MEP34,tru,2,5.92105263157895,5.91373694260362,6.96491228070175,6.22525612741395
MEP34,tru,2,5.56779661016949,5.85239787891148,7.96610169491525,5.26210359137251
MEP34,tru,2,5.90254237288136,7.12341633028257,6.19491525423729,6.34964235675835
MEP34,tru,2,9.01162790697674,5.39480180049368,9.93023255813953,5.78614015380627
MEP34,tru,2,6.78280542986425,5.8768275130672,5.65610859728507,5.9012677357065
MEP34,tru,2,5.61570247933884,6.21718411552348,5.70661157024793,5.26971592952176
MEP34,tru,2,5.6390977443609,5.78450082323006,5.66165413533835,4.77705343305707
MEP34,tru,2,4.25073746312684,4.76996805111821,4.69321533923304,4.72599716741872
MEP34,tru,2,7.0327868852459,4.86400900518223,6.75409836065574,4.38091434189505
MEP34,tru,2,3.70540540540541,5.60346769118671,3.98918918918919,4.84183547811096
MEP34,tru,2,5.60536398467433,5.08190148911799,5.91954022988506,5.0796229442439
MEP34,tru,2,5.32258064516129,5.22467036780015,5.60931899641577,4.23605688789739
MEP34,tru,2,9.7037037037037,6.58393637871252,11.1296296296296,6.30705682252076
MEP34,tru,2,5.21086261980831,5.1980198019802,5.1405750798722,5.26284138480962
MEP34,tru,2,4.97106109324759,5.36750546626262,5.05787781350482,5.39222960439784
MEP34,tru,2,4.81884057971014,4.27821749478983,4.52898550724638,3.81839106443757
MEP34,tru,2,7.29807692307692,4.73682605585072,7.63461538461539,4.55766276110388
MEP34,tru,2,6.98695652173913,4.64110501937801,6.96086956521739,4.85712260138009
MEP34,tru,2,5.95617529880478,5.17430025445293,5.62549800796813,4.89144856415849
MEP34,tru,2,5.01509433962264,5.41030534351145,5.93584905660377,4.92444560982919
MEP34,tru,2,5.12267657992565,5.71833787666692,5.84386617100372,4.40542391453226
MEP34,tru,2,5.41044776119403,4.65120849567286,6.48880597014925,4.96321070234114
MEP34,tru,2,5.27046263345196,6.03735005452563,5.28113879003559,5.62910434932096
MEP34,tru,2,4.44514106583072,4.97430295932616,4.89968652037618,5.26177754610022
MEP34,tru,2,6.93333333333333,5.09033778476041,7.37333333333333,5.36614098422953
MEP34,tru,2,6.89473684210526,4.69106529209621,6.97744360902256,5.59415807560136
MEP34,tru,2,6.54222222222222,4.49866620071058,6.52,4.5211466272324
MEP34,tru,2,6.27626459143969,5.8509764247831,6.05836575875486,6.16243668833409
MEP34,tru,2,6.01731601731602,8.11238450604122,6.87878787878788,7.41046277665995
MEP34,tru,2,6.85,5.86406820444739,7.15,5.72818238894993
MEP34,tru,2,5.92028985507246,5.1642608127247,6.34057971014493,5.18340701141153
MEP34,tru,2,8.32142857142857,3.7216336034055,7.08035714285714,4.36141800149994
MEP34,tru,2,7,5.3042071197411,7.02991452991453,4.88926174496644
MEP34,tru,2,7.85074626865672,6.15146375636015,7.50746268656716,5.02482862848815
MEP34,tru,2,5.5,3.75145922853382,4.81386861313869,5.07001933651581
MEP34,tru,2,4.93258426966292,4.61591012965769,6.87640449438202,5.37018594693416
MEP34,tru,2,5.45161290322581,6.30256324342437,6.69354838709677,6.47325766460045
MEP34,tru,2,8.40414507772021,6.10762242300205,8.98963730569948,5.44571390092254
MEP34,tru,2,5.95670995670996,4.05488913122502,7.85714285714286,4.37885221202576
MEP34,tru,2,4.8086642599278,4.49690721649485,5.27436823104693,5.11610738255034
MEP34,tru,2,5.33582089552239,4.43551530182913,5.53731343283582,4.09471882907647
MEP34,tru,2,7,5.46046299369398,6.77542372881356,4.15737905695039
MEP34,tru,2,7.67592592592593,3.90849270841884,7.37962962962963,3.79400540534271
MEP34,tru,2,4.23475609756098,7.29842152930522,4.60365853658537,5.91268432968244
MEP34,tru,2,6.93913043478261,4.45785830618892,6.39130434782609,4.19043624161074
MEP34,tru,2,5.44055944055944,4.41848250039004,4.19230769230769,5.39623038608142
MEP34,tru,2,5.18789808917197,4.40642097430735,4.96178343949045,3.72726323681538
MEP34,tru,2,9.21857923497268,4.412850363039,8.06010928961749,4.12591057294887
MEP34,tru,2,4.83333333333333,5.89468268160195,4.95283018867925,5.1299943548893
MEP34,tru,2,9.11731843575419,5.60459415925485,8.1340782122905,5.69940435437492
MEP34,tru,2,4.83450704225352,4.65845070422535,5.82042253521127,5.39155031295137
MEP34,tru,2,6.87614678899083,5.62171499553589,6.25229357798165,6.43656635635419
MEP34,tru,2,7.24892703862661,5.56185567010309,6.33047210300429,5.47274873851727
MEP34,tru,2,5.85655737704918,4.810873683624,7.11885245901639,4.69299487961652
MEP34,tru,2,5.84232365145228,3.78356411480715,6.04564315352697,4.90408612674333
MEP34,tru,2,5.34351145038168,5.37459283387622,6.03053435114504,6
MEP34,tru,2,7.02892561983471,8.71098265895954,6.2396694214876,7.56732127054659
MEP34,tru,2,5.90566037735849,4.87880973284838,4.87547169811321,5.20811008967347
MEP34,tru,2,7.05936073059361,5.4439866147238,7.78082191780822,4.86524822695035
MEP34,tru,2,5.71631205673759,8.38888888888889,6.40425531914894,9.67591531967248
MEP34,tru,2,7.96506550218341,5.0635109120023,6.36244541484716,6.04502218136766
MEP34,tru,2,9.0632183908046,4.87116242456048,8.41954022988506,5.19082360186655
MEP34,tru,2,5.34883720930233,5.7511119793232,7.71162790697674,4.85329195414092
MEP34,tru,2,6.58775510204082,6.59670801526717,6.25714285714286,5.20167525773196
MEP34,tru,2,5.99186991869919,6.65110868774991,7.63008130081301,4.48216982585914
MEP34,tru,2,4.44117647058824,3.63125339120998,4.96732026143791,4.79794273958512
MEP34,tru,2,6.38823529411765,7.14866120043559,5.51764705882353,5.92618645512155
MEP34,tru,2,6.77985074626866,7.49295710650673,5.59328358208955,6.81537631831256
MEP34,tru,2,4.98972602739726,4.42477611940299,4.88698630136986,5.10747239263803
MEP34,tru,2,6.20973782771536,5.18378733180178,6.21348314606742,5.51517693715681
MEP34,tru,2,6.78367346938775,4.73263196081988,6.20816326530612,4.09513195080206
MEP34,tru,2,7.47511312217195,5.22838257781286,6.24886877828054,5.30001083910129
MEP34,tru,2,5.61129568106312,4.95198167239404,5.67441860465116,4.59501618122977
MEP34,tru,2,7.52427184466019,4.88475836431227,7.46116504854369,4.65233332055851
MEP34,tru,2,5.42857142857143,5.38659793814434,6.25641025641026,5.51925992779785
MEP34,tru,2,6.50205761316872,6.22242805583059,5.51851851851852,5.62423615005248
MEP34,tru,2,7.11353711790393,5.38596201238205,7.20960698689956,5.09019861323305
MEP34,tru,2,7.37128712871287,4.21206527598544,7.85643564356436,5.72724728273546
MEP34,tru,2,7.30384615384615,5.67326928138984,6.45,4.37410321684795
MEP34,tru,2,6.09708737864078,5.18398066485753,4.80582524271845,4.93429682733374
MEP34,tru,2,6.0387323943662,3.90743520058411,5.99295774647887,4.42025488273886
MEP34,tru,2,5.48262548262548,6.53256720876202,6.96911196911197,5.74235480207656
MEP34,tru,2,4.46031746031746,4.89798927454547,5.46984126984127,5.5982443510369
MEP34,tru,2,5.78823529411765,4.45410320591688,5.82745098039216,4.76148657248314
MEP34,tru,2,5.93950177935943,4.45639469119976,4.92170818505338,4.92668934958063
MEP34,tru,2,6.743961352657,4.53737538702324,7.76328502415459,4.25806085763215
MEP34,tru,2,7.17735849056604,4.99630160417919,6.12452830188679,6.21555471878959
MEP34,tru,2,4.6890243902439,4.82223424860431,4.46036585365854,4.51659921102516
MEP34,tru,2,5.46332046332046,4.55476932105453,5.06177606177606,4.88156685876555
MEP34,tru,2,4.33663366336634,4.98879172033534,5.88778877887789,5.04790169738623
MEP34,tru,2,7.17,4.66703817219282,9.46,5.76387456158449
MEP34,tru,2,6.10188679245283,5.1162258849666,5.56981132075472,5.56846050222791
MEP34,tru,2,5.79411764705882,5.23281204842492,5.80252100840336,5.96769532128064
MEP34,tru,2,7.42259414225941,5.49097472924188,6.17991631799163,5.6353920942538
MEP34,tru,2,5.76893939393939,4.10737993534981,4.5,5.59299476085855
MEP34,tru,2,6.38351254480287,3.59268198244708,6.07168458781362,4.39631171067738
MEP34,tru,2,5.904,3.98841253876456,5.88,3.96441725323293
MEP34,tru,2,4.67202572347267,4.236439652327,5.0064308681672,4.39868176440765
MEP34,tru,2,8.06547619047619,6.26233714962496,9.77380952380952,5.74047572048955
MEP34,tru,2,7.33179723502304,5.45107353220597,7.4331797235023,5.17312686047248
MEP34,tru,2,4.38,4.21620172824152,4.91333333333333,4.22462851384094
MEP34,tru,2,4.95087719298246,3.00504927309982,4.67368421052632,4.26866932230739
MEP34,tru,2,4.8448275862069,5.32348672185786,5.7,5.85211267605634
MEP34,tru,2,4.63556851311953,5.42411255761301,5.52186588921283,4.97020573267801
MEP34,tru,2,6.41176470588235,5.01551342033982,6.6,5.34752244762221
MEP34,tru,2,4.43234323432343,5.22019817836051,5.48184818481848,4.71910641907813
MEP34,tru,2,6.00413223140496,4.88192280028771,6.47933884297521,4.97292739215339
MEP34,tru,2,4.08814589665653,4.28556599110233,4.73252279635258,5.1469178275337
MEP34,tru,2,6.69306930693069,7.21841155234658,6.7970297029703,5.94648534086895
MEP34,tru,2,6.68859649122807,6.57737094061328,6.9780701754386,5.83594688375818
MEP34,tru,2,4.19881305637982,5.81807632800414,4.64985163204748,4.40436241610739
MEP34,tru,2,5.46886446886447,4.17827892162439,6.09157509157509,4.04416263843848
MEP34,tru,2,6.62008733624454,4.34375984299663,6.84279475982533,4.87567908590656
MEP34,tru,2,7.33160621761658,4.60560089509018,8.10362694300518,6.00682300326817
MEP34,tru,2,5.53469387755102,7.27862169883632,6.42448979591837,6.14113675759511
MEP34,tru,2,4.56756756756757,5.23821718726346,5.82432432432432,5.08270676691729
MEP34,tru,2,6.05371900826446,4.29975509991403,6.92148760330578,4.38308176705283
MEP34,tru,2,7.71830985915493,4.85247945060502,7.16431924882629,4.31537294653042
MEP34,tru,2,8.55681818181818,6.09701492537313,9,5.52013422818792
MEP34,tru,2,5.18681318681319,4.97367150313873,5.1025641025641,4.7651754798444
MEP34,tru,2,6.27232142857143,3.69823184463422,6.625,4.6734610123119
MEP34,tru,2,6.86580086580087,5.7942849404117,6.09090909090909,5.22376742385132
MEP34,tru,2,4.90196078431373,5.66784086199754,4.76190476190476,4.1004197610591
MEP34,tru,2,6.7603305785124,6.60326086956522,5.93388429752066,6.55197340650063
MEP34,tru,2,4.75925925925926,5.25335537833107,4.66358024691358,6.33373432949222
MEP34,tru,2,9.53591160220994,7.56306622930334,8.20994475138122,8.29959796521168
MEP34,tru,2,6.12648221343874,6.03715212722205,6.13438735177866,5.250154620047
MEP34,tru,2,7.07407407407407,5.277914443628,9.93650793650794,5.29796551409543
MEP34,tru,2,5.31598513011152,5.76287564015847,6.60594795539033,5.93031449823829
MEP34,tru,2,6.06024096385542,4.76433437168384,6.8433734939759,4.46257685728815
MEP34,tru,2,5.14893617021277,4.24791731913561,5.54609929078014,4.32484203525108
MEP34,tru,2,6.87449392712551,5.98196442027324,6.20242914979757,5.00655298556904
MEP34,tru,2,5.31275720164609,4.59782002848825,6.55555555555556,5.11114692019497
MEP34,tru,2,6.41089108910891,4.83488043803739,8.80693069306931,5.55387656418467
MEP34,tru,2,7.2877358490566,4.02958719196359,8.72641509433962,4.99211749087289
MEP34,tru,2,5.53877551020408,6.37602688573563,6.0734693877551,7.07117965926692
MEP34,tru,2,4.30546623794212,4.42493614380177,5.18006430868167,5.28885174836132
MEP34,tru,2,9.2289156626506,4.51106434083639,7.90963855421687,4.67306388898798
MEP34,tru,2,6.10112359550562,4.91945172564439,6.22097378277154,5.91031033683305
MEP34,tru,2,5.68778280542986,5.52496397026298,8.41176470588235,5.46849078661693
MEP34,tru,2,5.71590909090909,5.22697368421053,5.86363636363636,4.99671052631579
MEP34,tru,2,7.07042253521127,4.69930657325661,6.15492957746479,5.14496726545619
MEP34,tru,2,6.3625,6.69916260467442,5.98333333333333,4.93650793650794
MEP34,tru,2,7.28855721393035,5.41625207296851,8.12935323383085,5.4740499457112
MEP34,tru,2,5.84982935153584,4.50310253127154,5.32764505119454,5.50450556155254
MEP34,tru,2,5.34523809523809,3.38868041041231,6.33333333333333,3.73168820064602
MEP34,tru,2,5.25179856115108,5.03238464150516,5.51438848920863,4.36578476846933
MEP34,tru,2,5.66666666666667,5.33305756117128,6.49612403100775,5.06184401013391
MEP34,tru,2,7.18269230769231,3.51639260891677,7.89423076923077,4.36733659379136
MEP34,tru,2,5.65964912280702,4.75913348946136,5.14035087719298,5.02803982701398
MEP34,tru,2,5.7991452991453,4.41833966359198,7.84188034188034,4.44453968798219
MEP34,tru,2,5.732,5.52773022937351,5.256,4.4794280711993
MEP34,tru,2,5.76086956521739,6.05601212404973,5.73913043478261,4.73604518015364
MEP34,tru,2,6.23282442748092,4.76942074539738,6.03053435114504,4.92970906774261
MEP34,tru,2,12.8114754098361,4.03965311302444,12.327868852459,4.21670749420105
MEP34,tru,2,6.13636363636364,4.7035136202132,6.65909090909091,4.88100799886743
MEP34,tru,2,5.92217898832685,5.04848170184105,6.22178988326848,4.14138349514563
MEP34,tru,2,5.75933609958506,4.65778043376867,7.42738589211618,3.84630831866198
MEP34,tru,2,4.48606811145511,5.17209569728091,4.95356037151703,5.26945160384821
MEP34,tru,2,6.42436974789916,5.20197605928178,6.5,4.76306958671848
MEP34,tru,2,5.62758620689655,7.44846861534879,5.11724137931034,6.88260724975058
MEP34,tru,2,5.44047619047619,4.95486449100876,6.68650793650794,4.42196297464078
MEP34,tru,2,6.83333333333333,5.17325958366512,6.34615384615385,5.24720149253732
MEP34,tru,2,4.67192429022082,6.7128674574523,5.23028391167192,5.68258492322011
MEP34,tru,2,4.85314685314685,5.55014699231117,5.1958041958042,5.39201059676519
MEP34,tru,2,4.84142394822006,5.61921708185053,5.93203883495146,5.39596058851649
MEP34,tru,2,4.67761194029851,4.35614173228347,4.24477611940299,4.66115523465704
MEP34,tru,2,6.07692307692308,4.41867847090478,6.26720647773279,5.2577849777572
MEP34,tru,2,4.52564102564103,5.10181860303487,5.62179487179487,4.89668954075862
MEP34,tru,2,6.70232558139535,4.90324567556934,7.44651162790698,6.37095660976397
MEP34,tru,2,7.22857142857143,5.28125,8.06190476190476,5.7167020631068
MEP34,tru,2,5.7593984962406,5.85286720804777,5.71428571428571,5.75681148415324
MEP34,tru,2,5.28744939271255,6.66203659123737,5.82186234817814,4.86172113060839
MEP34,tru,2,8.02790697674419,7.26188704877733,6.84651162790698,5.68032190741209
MEP34,tru,2,6.79044117647059,5.42732036799814,5.55882352941176,4.77739770513098
MEP34,tru,2,4.77543859649123,4.73449103018858,5.2421052631579,4.81200398091204
MEP34,tru,2,3.76221498371335,5.15558737676931,4.85016286644951,4.1837341192204
MEP34,tru,2,4.19540229885058,4.92141485275288,4.28448275862069,6.06788569736453
MEP34,tru,2,7.2936170212766,6.07127540955485,6.98297872340426,4.00565244364789
MEP34,tru,2,5.77446808510638,4.00178112012665,6.74893617021277,4.65364797575233
MEP34,tru,2,4.79929577464789,5.41713662564262,5.8943661971831,5.03420558407412
MEP34,tru,2,6.30612244897959,6.24356405890013,7.11836734693878,5.52188444281659
MEP34,tru,2,5.80165289256198,4.48337707786527,6.06611570247934,3.56125356125356
MEP34,tru,2,6.96969696969697,6.10870437224228,7.07792207792208,6.97036094618792
MEP34,tru,2,7.08429118773946,9.51060939319446,5.77394636015326,6.11601297191458
MEP34,tru,2,4.96103896103896,3.9831248700199,7.51082251082251,3.69936947565905
MEP34,tru,2,8.61052631578947,5.71681812523341,6.91578947368421,4.27375042120633
MEP34,tru,2,4.675,5.45230860446158,4.096875,5.20743393973671
MEP34,tru,2,7.40909090909091,4.87434321403787,6.71717171717172,4.87701560184782
MEP34,tru,2,5.91011235955056,4.97445255474453,5.78651685393258,4.69302762975236
MEP34,tru,2,8.34615384615385,5.32532807273351,8.2032967032967,4.85373430270985
MEP34,tru,2,5.16233766233766,5.23263888888889,6.03571428571429,5.20873445647814
MEP34,tru,2,6.28571428571429,5.44554029722394,5.83516483516483,5.51826616231934
MEP34,tru,2,4.85855263157895,4.61036990055949,5.64144736842105,4.66717372441055
MEP34,tru,2,4.83025830258303,6.62665396422145,4.70110701107011,5.57121568115563
MEP34,tru,2,6.80434782608696,4.157964187406,6.25652173913043,4.61375867298324
MEP34,tru,2,5.73507462686567,4.33984000479388,6.50373134328358,4.24153583413232
MEP34,tru,2,5.38924050632911,5.10767443641656,4.76582278481013,4.39130434782609
MEP34,tru,2,6.48878923766816,4.99176902621247,6.52017937219731,5.16882364961514
MEP34,tru,2,6.15178571428571,4.40261934432516,7.19642857142857,5.29347770765473
MEP34,tru,2,5.88372093023256,5.02352550572723,6.87596899224806,5.25397048130525
MEP34,tru,2,5.83402489626556,7.40493355951374,6.60995850622407,6.03270083463747
MEP34,tru,2,6.45018450184502,4.26671983593482,5.54981549815498,4.3714316765686
MEP34,tru,2,8.41884816753927,5.71208415822367,8.21989528795812,6.25028085379554
MEP34,tru,2,6.65502183406114,4.39972050774427,8.15720524017467,4.83840658151115
MEP34,tru,2,8.51176470588235,6.15079936626819,7.72352941176471,6.34484614410536
MEP34,tru,2,4.23099415204678,4.94613006087545,4.44152046783626,4.96984113499278
MEP34,tru,2,6.05907172995781,4.97844969763607,7.05485232067511,5.38568838052727
MEP34,tru,2,7.29831932773109,6.09973535480399,6.41176470588235,6.94357226159505
MEP34,tru,2,4.2410071942446,4.89991135874383,4.48561151079137,5.15215904773965
MEP34,tru,2,6.003861003861,6.10956559376723,6.13127413127413,6.1741949197577
MEP34,tru,2,6.95024875621891,6.27305305157381,7.34825870646766,6.00634432375276
MEP34,tru,2,6.52036199095023,3.70751704401056,7.25339366515837,5.05187787980243
MEP34,tru,2,4.85423728813559,4.67343336275376,5.25762711864407,5.50144905430141
MEP34,tru,2,8.10752688172043,4.82932320247643,9.37634408602151,5.20364537671418
MEP34,tru,2,5.01748251748252,6.15253224170409,5.24825174825175,5.71981402980991
MEP34,tru,2,7.15720524017467,4.9382615494885,6.55021834061135,5.88196043105462
MEP34,tru,2,6.65724381625442,7.09714988941997,5.32508833922261,5.6857687506326
MEP34,tru,2,7.42857142857143,4.35152617748131,7.36453201970443,5.07674338827451
MEP34,tru,2,7.25247524752475,4.407289445629,8.76237623762376,4.79708737864078
MEP34,tru,2,7.16216216216216,8.94807721083348,7.28828828828829,9.53594278210826
MEP34,tru,2,5.34523809523809,5.59131430848149,7.00396825396825,6.09405869204701
MEP34,tru,2,7.12444444444444,5.94709628817971,7.64444444444444,6.03161387254289
MEP34,tru,2,5.71074380165289,4.66635452083212,6.68181818181818,3.98663603241067
MEP34,tru,2,5.06622516556291,5.20725968715518,6.0364238410596,5.34342622088887
MEP34,tru,2,4.33006535947712,5.58271481021686,4.6797385620915,5.96885813148789
MEP34,tru,2,4.62987012987013,4.56995006443299,5.19805194805195,4.50648513349514
MEP34,tru,2,8.29357798165138,5.30912940012981,6.79357798165138,5.54223497504029
MEP34,tru,2,5.28571428571429,4.50897231400251,5.55952380952381,5.29284287104872
MEP34,tru,2,5.00760456273764,4.66,5.47528517110266,4.30915422885572
MEP34,tru,2,4.41254125412541,4.62432533470408,4.61056105610561,4.96734736792916
MEP34,tru,2,6.2274678111588,4.05071517412936,7.29184549356223,3.8520901194354
MEP34,tru,2,4.83142857142857,4.91311118833417,4.73428571428571,5.56173014778458
MEP34,tru,2,5.70212765957447,6.47195884741011,5.59574468085106,4.89522169372916
MEP34,tru,2,7.31538461538462,3.74637115654752,4.83846153846154,4.6043835982965
MEP34,tru,2,6.87772925764192,6.37886757931192,6.76855895196507,6.82519702581525
MEP34,tru,2,4.56976744186047,6.21621621621624,4.34302325581395,6.16281229683293
MEP34,tru,2,4.2332361516035,5.72535137219166,5.35276967930029,5.36220433961035
MEP34,tru,2,5.22442244224422,5.45038167938933,4.89438943894389,5.51177527664808
MEP34,tru,2,4.8391167192429,6.19618615465387,4.38801261829653,5.53222136742344
MEP34,tru,2,11.1587301587302,5.96595636916176,11.6190476190476,5.70342568147842
MEP34,tru,2,4.67567567567568,4.99150563068089,5.59459459459459,5.59035570686056
MEP34,tru,2,5.76045627376426,4.03527467269802,4.99619771863118,5.10674620305326
MEP34,tru,2,5.34827586206897,4.38786565547129,5.66551724137931,4.15955885269965
MEP34,tru,2,7.92146596858639,5.40771334168851,6.98952879581152,4.96712314715084
MEP34,tru,2,4.98473282442748,4.2519031002685,6.06106870229008,4.81768895702081
MEP34,tru,2,5.21316614420063,4.23529250694816,4.77429467084639,5.11678476931968
MEP34,tru,2,5.34262948207171,6.09497835251225,5.93625498007968,5.4607574297784
MEP34,tru,2,6.07905138339921,4.84347940173183,6.73122529644269,4.09230168796956
MEP34,tru,2,5.84615384615385,4.37789500772003,6.60633484162896,4.66616523952789
MEP34,tru,2,7.17924528301887,5.2888896083923,7.67452830188679,5.7109582480735
MEP34,tru,2,7.35686274509804,4.65608006331538,6.4,4.56332874286839
MEP34,tru,2,7.03286384976526,3.47823390028162,7.22065727699531,4.50657260175822
MEP34,tru,2,6.85258964143426,5.88432835820895,6.24701195219123,4.95524952556803
MEP34,tru,2,4.6448275862069,4.86711762984162,4.68965517241379,5.10877629239922
MEP34,tru,2,6.0983606557377,4.91814040072503,6.54508196721311,6.26258474476177
MEP34,tru,2,5.72111553784861,6.41400647698357,6.35856573705179,5.35548627064873
MEP34,tru,2,5.83266932270916,4.27998030041862,5.9003984063745,4.77983088005011
MEP34,tru,2,9.72560975609756,5.1025630577401,10.1219512195122,5.68344961137491
MEP34,tru,2,7.85365853658537,5.88525255806401,7.99512195121951,5.33814079680139
MEP34,tru,2,6.10820895522388,5.81477323753929,5.16417910447761,4.04279598976205
MEP34,tru,2,6.72058823529412,6.28078664769052,8.2156862745098,5.98808052377165
MEP34,tru,2,6.29694323144105,4.72621327574264,6.65938864628821,4.38409840042237
MEP34,tru,2,6.3411214953271,4.62730117820324,7.59345794392523,4.6457180583501
MEP34,tru,2,5.88167938931298,4.27944189677042,6.16793893129771,4.25364722344588
MEP34,tru,2,6.42918454935622,5.49948511570102,6.79828326180257,4.94411548813311
MEP34,tru,2,6.50649350649351,3.77946472417744,6.54978354978355,4.26565250188584
MEP34,tru,2,4.54671280276817,4.20111731843576,5.61245674740484,3.86092572456976
MEP34,tru,2,4.69846153846154,5.39766866102746,4.08923076923077,6.54660566077891
MEP34,tru,2,6.23430962343096,6.47552761562642,6.57740585774059,6.57913887204367
MEP34,tru,2,6.26811594202899,4.64867965500994,5.94202898550725,4.81005445105736
MEP34,tru,2,5.16346153846154,6.17598273525006,5.04166666666667,5.79121676798839
MEP34,tru,2,6.25523012552301,6.74817518248175,6.43096234309623,4.43853592980052
MEP34,tru,2,7.14509803921569,5.70950125214977,5.30980392156863,5.64357803446026
MEP34,tru,2,4.28173374613003,6.17886904761905,4.60990712074303,7.293893129771
MEP34,tru,2,6.03448275862069,5.15821990842376,5.9698275862069,5.82639528761353
MEP34,tru,2,9.74251497005988,4.41398390342052,11.0958083832335,4.77278289956759
MEP34,tru,2,6.20425531914894,5.53559443911794,6.0468085106383,6.05608350210314
MEP34,tru,2,5.72222222222222,5.69846535550508,6.85042735042735,4.47379673764039
MEP34,tru,2,6.3943661971831,7.19980314960631,7.44131455399061,6.45089285714286
MEP34,tru,2,4.33644859813084,4.84965978012349,4.75389408099688,5.11868676496762
MEP34,tru,2,5.92887029288703,4.88763961465118,6.48953974895398,4.98828599024245
MEP34,tru,2,4.43620178041543,5.54780920443012,4.24925816023739,5.29756574126841
MEP34,tru,2,5.31641791044776,5.17739586809454,4.1910447761194,5.19499061760627
MEP34,tru,2,5.26315789473684,5.18823529411765,5.36437246963563,5.50027606710555
MEP34,tru,2,5.05833333333333,5.78517692950682,6.27083333333333,6.42135818128598
MEP34,tru,2,4.44508670520231,5.38238558025356,3.64161849710983,5.61152820003723
MEP34,tru,2,8.24418604651163,4.8332830091015,8.40697674418605,5.87096070761724
MEP34,tru,2,6.66315789473684,6.15240629008502,5.92982456140351,5.27619748119904
MEP34,tru,2,6.0936170212766,6.16566038785788,5.94042553191489,5.64310954063604
MEP34,tru,2,10.0736196319018,5.7254881595347,9.06748466257669,4.73197755149272
MEP34,tru,2,6.9634703196347,4.7141019002338,6.77625570776256,4.56714473966473
MEP34,tru,2,6.3801652892562,6.92341726157397,6.5702479338843,7.69098430625779
MEP34,tru,2,4.40853658536585,5.21344482341292,4.5609756097561,6.07343165096166
