Gene,Reads,Gene_gc,Reads_gc,Class,Name,GeneLen,GeneWin
16S_1_503_1,934,0.48,814.960784313725,16S,1,503,1
16S_1_503_2,980,0.56,1132.72727272728,16S,1,503,2
16S_1_503_3,786,0.55,874.425,16S,1,503,3
16S_2_921_1,513,0.56,592.948051948054,16S,2,921,1
16S_2_921_2,492,0.59,673.661538461539,16S,2,921,2
16S_2_921_3,423,0.51,400.5,16S,2,921,3
16S_2_921_4,766,0.55,852.175,16S,2,921,4
16S_2_921_5,581,0.6,861.816666666665,16S,2,921,5
23S_1_1188_1,848,0.52,829.362637362637,23S,1,1188,1
23S_1_1188_2,892,0.53,912.50574712644,23S,1,1188,2
23S_1_1188_3,980,0.49,881.010101010101,23S,1,1188,3
23S_1_1188_4,740,0.58,954.49275362319,23S,1,1188,4
23S_1_1188_5,809,0.55,900.0125,23S,1,1188,5
23S_1_1188_6,451,0.57,557.486111111111,23S,1,1188,6
23S_1_1188_7,802,0.54,849.738095238096,23S,1,1188,7
23S_2_1209_1,730,0.49,656.262626262626,23S,2,1209,1
23S_2_1209_2,758,0.46,636.433962264151,23S,2,1209,2
23S_2_1209_3,832,0.57,1028.44444444444,23S,2,1209,3
23S_2_1209_4,767,0.54,812.654761904762,23S,2,1209,4
23S_2_1209_5,524,0.49,471.070707070707,23S,2,1209,5
23S_2_1209_6,720,0.53,736.551724137934,23S,2,1209,6
23S_2_1209_7,652,0.55,725.35,23S,2,1209,7
23S_3_545_1,841,0.5,779.677083333333,23S,3,545,1
23S_3_545_2,688,0.56,795.220779220782,23S,3,545,2
23S_3_545_3,635,0.53,649.597701149428,23S,3,545,3
Sing_alaS_2501_1,125,0.53,127.873563218391,Sing,alaS,2501,1
Sing_alaS_2501_10,98,0.55,109.025,Sing,alaS,2501,10
Sing_alaS_2501_11,132,0.56,152.571428571429,Sing,alaS,2501,11
Sing_alaS_2501_12,114,0.54,120.785714285714,Sing,alaS,2501,12
Sing_alaS_2501_13,85,0.54,90.0595238095239,Sing,alaS,2501,13
Sing_alaS_2501_14,119,0.59,162.938461538462,Sing,alaS,2501,14
Sing_alaS_2501_15,69,0.5,63.96875,Sing,alaS,2501,15
Sing_alaS_2501_16,90,0.55,100.125,Sing,alaS,2501,16
Sing_alaS_2501_2,114,0.56,131.766233766234,Sing,alaS,2501,2
Sing_alaS_2501_3,192,0.42,160.450704225352,Sing,alaS,2501,3
Sing_alaS_2501_4,114,0.54,120.785714285714,Sing,alaS,2501,4
Sing_alaS_2501_5,87,0.58,112.217391304348,Sing,alaS,2501,5
Sing_alaS_2501_6,171,0.5,158.53125,Sing,alaS,2501,6
Sing_alaS_2501_7,59,0.6,87.5166666666665,Sing,alaS,2501,7
Sing_alaS_2501_8,127,0.52,124.208791208791,Sing,alaS,2501,8
Sing_alaS_2501_9,152,0.51,143.914893617021,Sing,alaS,2501,9
Sing_argS_1733_1,98,0.43,80.0183486238532,Sing,argS,1733,1
Sing_argS_1733_10,90,0.51,85.2127659574468,Sing,argS,1733,10
Sing_argS_1733_11,116,0.56,134.077922077923,Sing,argS,1733,11
Sing_argS_1733_2,94,0.57,116.194444444444,Sing,argS,1733,2
Sing_argS_1733_3,112,0.52,109.538461538462,Sing,argS,1733,3
Sing_argS_1733_4,115,0.54,121.845238095238,Sing,argS,1733,4
Sing_argS_1733_5,141,0.55,156.8625,Sing,argS,1733,5
Sing_argS_1733_6,123,0.49,110.575757575758,Sing,argS,1733,6
Sing_argS_1733_7,83,0.55,92.3375,Sing,argS,1733,7
Sing_argS_1733_8,143,0.5,132.572916666667,Sing,argS,1733,8
Sing_argS_1733_9,65,0.57,80.3472222222222,Sing,argS,1733,9
Sing_atpD_1382_1,76,0.54,80.5238095238096,Sing,atpD,1382,1
Sing_atpD_1382_2,70,0.57,86.5277777777777,Sing,atpD,1382,2
Sing_atpD_1382_3,99,0.54,104.892857142857,Sing,atpD,1382,3
Sing_atpD_1382_4,85,0.52,83.1318681318681,Sing,atpD,1382,4
Sing_atpD_1382_5,61,0.54,64.6309523809524,Sing,atpD,1382,5
Sing_atpD_1382_6,92,0.56,106.337662337663,Sing,atpD,1382,6
Sing_atpD_1382_7,132,0.63,255.391304347826,Sing,atpD,1382,7
Sing_atpD_1382_8,85,0.54,90.0595238095239,Sing,atpD,1382,8
Sing_atpD_1382_9,93,0.51,88.0531914893617,Sing,atpD,1382,9
Sing_fusA_2114_1,102,0.46,85.6415094339623,Sing,fusA,2114,1
Sing_fusA_2114_10,121,0.51,114.563829787234,Sing,fusA,2114,10
Sing_fusA_2114_11,133,0.5,123.302083333333,Sing,fusA,2114,11
Sing_fusA_2114_12,100,0.51,94.6808510638298,Sing,fusA,2114,12
Sing_fusA_2114_13,118,0.51,111.723404255319,Sing,fusA,2114,13
Sing_fusA_2114_14,56,0.51,53.0212765957447,Sing,fusA,2114,14
Sing_fusA_2114_2,135,0.52,132.032967032967,Sing,fusA,2114,2
Sing_fusA_2114_3,170,0.45,142.735849056604,Sing,fusA,2114,3
Sing_fusA_2114_4,121,0.52,118.340659340659,Sing,fusA,2114,4
Sing_fusA_2114_5,137,0.49,123.161616161616,Sing,fusA,2114,5
Sing_fusA_2114_6,122,0.51,115.510638297872,Sing,fusA,2114,6
Sing_fusA_2114_7,139,0.55,154.6375,Sing,fusA,2114,7
Sing_fusA_2114_8,149,0.52,145.725274725275,Sing,fusA,2114,8
Sing_fusA_2114_9,156,0.51,147.702127659574,Sing,fusA,2114,9
Sing_gyrA_2627_1,132,0.48,115.176470588235,Sing,gyrA,2627,1
Sing_gyrA_2627_10,61,0.51,57.7553191489362,Sing,gyrA,2627,10
Sing_gyrA_2627_11,77,0.51,72.9042553191489,Sing,gyrA,2627,11
Sing_gyrA_2627_12,63,0.55,70.0875,Sing,gyrA,2627,12
Sing_gyrA_2627_13,105,0.56,121.363636363637,Sing,gyrA,2627,13
Sing_gyrA_2627_14,101,0.56,116.74025974026,Sing,gyrA,2627,14
Sing_gyrA_2627_15,133,0.52,130.076923076923,Sing,gyrA,2627,15
Sing_gyrA_2627_16,119,0.55,132.3875,Sing,gyrA,2627,16
Sing_gyrA_2627_17,134,0.49,120.464646464646,Sing,gyrA,2627,17
Sing_gyrA_2627_2,96,0.52,93.8901098901099,Sing,gyrA,2627,2
Sing_gyrA_2627_3,51,0.56,58.9480519480522,Sing,gyrA,2627,3
Sing_gyrA_2627_4,122,0.51,115.510638297872,Sing,gyrA,2627,4
Sing_gyrA_2627_5,74,0.55,82.325,Sing,gyrA,2627,5
Sing_gyrA_2627_6,100,0.52,97.8021978021978,Sing,gyrA,2627,6
Sing_gyrA_2627_7,107,0.49,96.1919191919192,Sing,gyrA,2627,7
Sing_gyrA_2627_8,105,0.57,129.791666666667,Sing,gyrA,2627,8
Sing_gyrA_2627_9,88,0.61,141.117117117117,Sing,gyrA,2627,9
Sing_gyrB_236_1,76,0.49,68.3232323232323,Sing,gyrB,236,1
Sing_gyrB_236_2,88,0.56,101.714285714286,Sing,gyrB,236,2
Sing_hisS_1274_1,91,0.47,77.875,Sing,hisS,1274,1
Sing_hisS_1274_2,87,0.52,85.0879120879121,Sing,hisS,1274,2
Sing_hisS_1274_3,97,0.57,119.902777777778,Sing,hisS,1274,3
Sing_hisS_1274_4,94,0.56,108.649350649351,Sing,hisS,1274,4
Sing_hisS_1274_5,102,0.53,104.344827586207,Sing,hisS,1274,5
Sing_hisS_1274_6,48,0.57,59.3333333333333,Sing,hisS,1274,6
Sing_hisS_1274_7,82,0.51,77.6382978723404,Sing,hisS,1274,7
Sing_hisS_1274_8,93,0.54,98.5357142857143,Sing,hisS,1274,8
Sing_ileS_2816_1,49,0.51,46.3936170212766,Sing,ileS,2816,1
Sing_ileS_2816_10,149,0.56,172.22077922078,Sing,ileS,2816,10
Sing_ileS_2816_11,117,0.53,119.689655172414,Sing,ileS,2816,11
Sing_ileS_2816_12,109,0.53,111.505747126437,Sing,ileS,2816,12
Sing_ileS_2816_13,82,0.53,83.8850574712647,Sing,ileS,2816,13
Sing_ileS_2816_14,122,0.54,129.261904761905,Sing,ileS,2816,14
Sing_ileS_2816_15,112,0.59,153.353846153846,Sing,ileS,2816,15
Sing_ileS_2816_16,142,0.55,157.975,Sing,ileS,2816,16
Sing_ileS_2816_17,107,0.55,119.0375,Sing,ileS,2816,17
Sing_ileS_2816_18,69,0.56,79.753246753247,Sing,ileS,2816,18
Sing_ileS_2816_2,95,0.46,79.7641509433962,Sing,ileS,2816,2
Sing_ileS_2816_3,98,0.6,145.366666666666,Sing,ileS,2816,3
Sing_ileS_2816_4,119,0.57,147.097222222222,Sing,ileS,2816,4
Sing_ileS_2816_5,111,0.52,108.56043956044,Sing,ileS,2816,5
Sing_ileS_2816_6,122,0.54,129.261904761905,Sing,ileS,2816,6
Sing_ileS_2816_7,79,0.62,135.211538461538,Sing,ileS,2816,7
Sing_ileS_2816_8,124,0.58,159.942028985507,Sing,ileS,2816,8
Sing_ileS_2816_9,112,0.6,166.133333333333,Sing,ileS,2816,9
Sing_lepA_1799_1,59,0.4,49.0747663551402,Sing,lepA,1799,1
Sing_lepA_1799_10,133,0.52,130.076923076923,Sing,lepA,1799,10
Sing_lepA_1799_11,65,0.49,58.4343434343434,Sing,lepA,1799,11
Sing_lepA_1799_12,87,0.51,82.3723404255319,Sing,lepA,1799,12
Sing_lepA_1799_2,106,0.57,131.027777777778,Sing,lepA,1799,2
Sing_lepA_1799_3,116,0.56,134.077922077923,Sing,lepA,1799,3
Sing_lepA_1799_4,78,0.64,169.317073170731,Sing,lepA,1799,4
Sing_lepA_1799_5,103,0.51,97.5212765957447,Sing,lepA,1799,5
Sing_lepA_1799_6,59,0.54,62.5119047619048,Sing,lepA,1799,6
Sing_lepA_1799_7,83,0.58,107.057971014493,Sing,lepA,1799,7
Sing_lepA_1799_8,86,0.49,77.3131313131313,Sing,lepA,1799,8
Sing_lepA_1799_9,108,0.54,114.428571428571,Sing,lepA,1799,9
Sing_leuS_2582_1,147,0.51,139.18085106383,Sing,leuS,2582,1
Sing_leuS_2582_10,93,0.52,90.956043956044,Sing,leuS,2582,10
Sing_leuS_2582_11,54,0.53,55.241379310345,Sing,leuS,2582,11
Sing_leuS_2582_12,65,0.56,75.1298701298704,Sing,leuS,2582,12
Sing_leuS_2582_13,73,0.49,65.6262626262626,Sing,leuS,2582,13
Sing_leuS_2582_14,85,0.5,78.8020833333333,Sing,leuS,2582,14
Sing_leuS_2582_15,123,0.57,152.041666666667,Sing,leuS,2582,15
Sing_leuS_2582_16,118,0.53,120.712643678161,Sing,leuS,2582,16
Sing_leuS_2582_2,134,0.57,165.638888888889,Sing,leuS,2582,2
Sing_leuS_2582_3,42,0.58,54.1739130434783,Sing,leuS,2582,3
Sing_leuS_2582_4,152,0.51,143.914893617021,Sing,leuS,2582,4
Sing_leuS_2582_5,84,0.52,82.1538461538461,Sing,leuS,2582,5
Sing_leuS_2582_6,115,0.52,112.472527472527,Sing,leuS,2582,6
Sing_leuS_2582_7,118,0.51,111.723404255319,Sing,leuS,2582,7
Sing_leuS_2582_8,120,0.52,117.362637362637,Sing,leuS,2582,8
Sing_leuS_2582_9,93,0.64,201.878048780488,Sing,leuS,2582,9
Sing_lrp10_497_1,110,0.46,92.3584905660377,Sing,lrp10,497,1
Sing_lrp10_497_2,131,0.54,138.797619047619,Sing,lrp10,497,2
Sing_lrp10_497_3,110,0.54,116.547619047619,Sing,lrp10,497,3
Sing_lrp10_497_4,92,0.43,75.1192660550459,Sing,lrp10,497,4
Sing_lrp11_428_1,20,0.49,17.979797979798,Sing,lrp11,428,1
Sing_lrp11_428_2,126,0.49,113.272727272727,Sing,lrp11,428,2
Sing_lrp11_428_3,128,0.54,135.619047619048,Sing,lrp11,428,3
Sing_lrp13_428_1,100,0.43,81.651376146789,Sing,lrp13,428,1
Sing_lrp13_428_2,72,0.52,70.4175824175824,Sing,lrp13,428,2
Sing_lrp13_428_3,122,0.52,119.318681318681,Sing,lrp13,428,3
Sing_lrp14_353_1,138,0.45,115.867924528302,Sing,lrp14,353,1
Sing_lrp14_353_2,67,0.52,65.5274725274725,Sing,lrp14,353,2
Sing_lrp14_353_3,158,0.52,154.527472527473,Sing,lrp14,353,3
Sing_lrp15_434_1,77,0.51,72.9042553191489,Sing,lrp15,434,1
Sing_lrp15_434_2,128,0.51,121.191489361702,Sing,lrp15,434,2
Sing_lrp15_434_3,115,0.57,142.152777777778,Sing,lrp15,434,3
Sing_lrp16_410_1,154,0.51,145.808510638298,Sing,lrp16,410,1
Sing_lrp16_410_2,145,0.5,134.427083333333,Sing,lrp16,410,2
Sing_lrp16_410_3,75,0.56,86.688311688312,Sing,lrp16,410,3
Sing_lrp1_704_1,124,0.51,117.404255319149,Sing,lrp1,704,1
Sing_lrp1_704_2,77,0.54,81.5833333333334,Sing,lrp1,704,2
Sing_lrp1_704_3,161,0.55,179.1125,Sing,lrp1,704,3
Sing_lrp1_704_4,66,0.48,57.5882352941176,Sing,lrp1,704,4
Sing_lrp1_704_5,110,0.51,104.148936170213,Sing,lrp1,704,5
Sing_lrp17_383_1,51,0.51,48.2872340425532,Sing,lrp17,383,1
Sing_lrp17_383_2,59,0.53,60.3563218390807,Sing,lrp17,383,2
Sing_lrp17_383_3,54,0.51,51.1276595744681,Sing,lrp17,383,3
Sing_lrp18_353_1,103,0.52,100.736263736264,Sing,lrp18,353,1
Sing_lrp18_353_2,113,0.48,98.5980392156863,Sing,lrp18,353,2
Sing_lrp18_353_3,96,0.57,118.666666666667,Sing,lrp18,353,3
Sing_lrp19_347_1,113,0.45,94.877358490566,Sing,lrp19,347,1
Sing_lrp19_347_2,132,0.51,124.978723404255,Sing,lrp19,347,2
Sing_lrp19_347_3,156,0.45,130.981132075472,Sing,lrp19,347,3
Sing_lrp20_356_1,77,0.46,64.6509433962264,Sing,lrp20,356,1
Sing_lrp20_356_2,143,0.48,124.774509803922,Sing,lrp20,356,2
Sing_lrp20_356_3,65,0.44,53.5648148148148,Sing,lrp20,356,3
Sing_lrp21_311_1,115,0.47,98.4134615384616,Sing,lrp21,311,1
Sing_lrp21_311_2,112,0.47,95.8461538461539,Sing,lrp21,311,2
Sing_lrp22_332_1,119,0.51,112.670212765957,Sing,lrp22,332,1
Sing_lrp22_332_2,179,0.48,156.186274509804,Sing,lrp22,332,2
Sing_lrp22_332_3,169,0.49,151.929292929293,Sing,lrp22,332,3
Sing_lrp23_302_1,126,0.5,116.8125,Sing,lrp23,302,1
Sing_lrp23_302_2,151,0.44,124.435185185185,Sing,lrp23,302,2
Sing_lrp24_314_1,117,0.4,97.3177570093457,Sing,lrp24,314,1
Sing_lrp24_314_2,62,0.49,55.7373737373737,Sing,lrp24,314,2
Sing_lrp25_284_1,77,0.51,72.9042553191489,Sing,lrp25,284,1
Sing_lrp25_284_2,59,0.48,51.4803921568627,Sing,lrp25,284,2
Sing_lrp27_257_1,103,0.52,100.736263736264,Sing,lrp27,257,1
Sing_lrp27_257_2,89,0.49,80.010101010101,Sing,lrp27,257,2
Sing_lrp28_200_1,109,0.43,89,Sing,lrp28,200,1
Sing_lrp28_200_2,63,0.56,72.8181818181821,Sing,lrp28,200,2
Sing_lrp2_821_1,174,0.46,146.094339622642,Sing,lrp2,821,1
Sing_lrp2_821_2,119,0.59,162.938461538462,Sing,lrp2,821,2
Sing_lrp2_821_3,162,0.51,153.382978723404,Sing,lrp2,821,3
Sing_lrp2_821_4,123,0.56,142.168831168832,Sing,lrp2,821,4
Sing_lrp2_821_5,116,0.49,104.282828282828,Sing,lrp2,821,5
Sing_lrp2_821_6,112,0.51,106.042553191489,Sing,lrp2,821,6
Sing_lrp31_263_1,125,0.47,106.971153846154,Sing,lrp31,263,1
Sing_lrp31_263_2,122,0.44,100.537037037037,Sing,lrp31,263,2
Sing_lrp3_629_1,148,0.52,144.747252747253,Sing,lrp3,629,1
Sing_lrp3_629_2,101,0.54,107.011904761905,Sing,lrp3,629,2
Sing_lrp3_629_3,129,0.5,119.59375,Sing,lrp3,629,3
Sing_lrp3_629_4,112,0.51,106.042553191489,Sing,lrp3,629,4
Sing_lrp4_605_1,103,0.51,97.5212765957447,Sing,lrp4,605,1
Sing_lrp4_605_2,151,0.52,147.681318681319,Sing,lrp4,605,2
Sing_lrp4_605_3,121,0.54,128.202380952381,Sing,lrp4,605,3
Sing_lrp4_605_4,136,0.54,144.095238095238,Sing,lrp4,605,4
Sing_lrp5_539_1,117,0.47,100.125,Sing,lrp5,539,1
Sing_lrp5_539_2,81,0.52,79.2197802197802,Sing,lrp5,539,2
Sing_lrp5_539_3,65,0.51,61.5425531914894,Sing,lrp5,539,3
Sing_lrp5_539_4,109,0.42,91.0892018779343,Sing,lrp5,539,4
Sing_lrp6_533_1,131,0.56,151.415584415585,Sing,lrp6,533,1
Sing_lrp6_533_2,116,0.52,113.450549450549,Sing,lrp6,533,2
Sing_lrp6_533_3,55,0.55,61.1875,Sing,lrp6,533,3
Sing_lrp6_533_4,113,0.46,94.877358490566,Sing,lrp6,533,4
Sing_lrp7_365_1,105,0.35,91.6176470588235,Sing,lrp7,365,1
Sing_lrp7_365_2,98,0.5,90.8541666666666,Sing,lrp7,365,2
Sing_lrp7_365_3,112,0.49,100.686868686869,Sing,lrp7,365,3
Sing_lrp9_449_1,155,0.47,132.644230769231,Sing,lrp9,449,1
Sing_lrp9_449_2,127,0.49,114.171717171717,Sing,lrp9,449,2
Sing_lrp9_449_3,69,0.56,79.753246753247,Sing,lrp9,449,3
Sing_pheSa_983_1,131,0.48,114.303921568627,Sing,pheSa,983,1
Sing_pheSa_983_2,94,0.56,108.649350649351,Sing,pheSa,983,2
Sing_pheSa_983_3,113,0.48,98.5980392156863,Sing,pheSa,983,3
Sing_pheSa_983_4,90,0.61,144.324324324324,Sing,pheSa,983,4
Sing_pheSa_983_5,115,0.54,121.845238095238,Sing,pheSa,983,5
Sing_pheSa_983_6,36,0.56,41.6103896103898,Sing,pheSa,983,6
Sing_pheSa_983_7,121,0.51,114.563829787234,Sing,pheSa,983,7
Sing_pheSb_2387_1,97,0.46,81.4433962264151,Sing,pheSb,2387,1
Sing_pheSb_2387_10,125,0.56,144.48051948052,Sing,pheSb,2387,10
Sing_pheSb_2387_11,75,0.52,73.3516483516484,Sing,pheSb,2387,11
Sing_pheSb_2387_12,65,0.59,89,Sing,pheSb,2387,12
Sing_pheSb_2387_13,49,0.51,46.3936170212766,Sing,pheSb,2387,13
Sing_pheSb_2387_14,53,0.59,72.5692307692308,Sing,pheSb,2387,14
Sing_pheSb_2387_15,57,0.57,70.4583333333333,Sing,pheSb,2387,15
Sing_pheSb_2387_2,123,0.48,107.323529411765,Sing,pheSb,2387,2
Sing_pheSb_2387_3,117,0.59,160.2,Sing,pheSb,2387,3
Sing_pheSb_2387_4,88,0.48,76.7843137254902,Sing,pheSb,2387,4
Sing_pheSb_2387_5,88,0.54,93.2380952380953,Sing,pheSb,2387,5
Sing_pheSb_2387_6,144,0.52,140.835164835165,Sing,pheSb,2387,6
Sing_pheSb_2387_7,63,0.55,70.0875,Sing,pheSb,2387,7
Sing_pheSb_2387_8,100,0.52,97.8021978021978,Sing,pheSb,2387,8
Sing_pheSb_2387_9,139,0.6,206.183333333333,Sing,pheSb,2387,9
Sing_ppK_2066_1,113,0.51,106.989361702128,Sing,ppK,2066,1
Sing_ppK_2066_10,56,0.47,47.9230769230769,Sing,ppK,2066,10
Sing_ppK_2066_11,116,0.47,99.2692307692308,Sing,ppK,2066,11
Sing_ppK_2066_12,73,0.52,71.3956043956044,Sing,ppK,2066,12
Sing_ppK_2066_13,80,0.46,67.1698113207547,Sing,ppK,2066,13
Sing_ppK_2066_2,52,0.5,48.2083333333333,Sing,ppK,2066,2
Sing_ppK_2066_3,105,0.48,91.6176470588235,Sing,ppK,2066,3
Sing_ppK_2066_4,69,0.51,65.3297872340426,Sing,ppK,2066,4
Sing_ppK_2066_5,56,0.5,51.9166666666667,Sing,ppK,2066,5
Sing_ppK_2066_6,101,0.52,98.7802197802198,Sing,ppK,2066,6
Sing_ppK_2066_7,102,0.49,91.6969696969697,Sing,ppK,2066,7
Sing_ppK_2066_8,117,0.46,98.2358490566038,Sing,ppK,2066,8
Sing_ppK_2066_9,91,0.49,81.8080808080808,Sing,ppK,2066,9
Sing_pyrG_1637_1,80,0.51,75.7446808510638,Sing,pyrG,1637,1
Sing_pyrG_1637_10,83,0.54,87.9404761904762,Sing,pyrG,1637,10
Sing_pyrG_1637_11,49,0.5,45.4270833333333,Sing,pyrG,1637,11
Sing_pyrG_1637_2,83,0.52,81.1758241758242,Sing,pyrG,1637,2
Sing_pyrG_1637_3,102,0.56,117.896103896104,Sing,pyrG,1637,3
Sing_pyrG_1637_4,86,0.51,81.4255319148936,Sing,pyrG,1637,4
Sing_pyrG_1637_5,132,0.49,118.666666666667,Sing,pyrG,1637,5
Sing_pyrG_1637_6,87,0.47,74.4519230769231,Sing,pyrG,1637,6
Sing_pyrG_1637_7,137,0.48,119.539215686275,Sing,pyrG,1637,7
Sing_pyrG_1637_8,127,0.51,120.244680851064,Sing,pyrG,1637,8
Sing_pyrG_1637_9,114,0.57,140.916666666667,Sing,pyrG,1637,9
Sing_recA_1061_1,97,0.51,91.8404255319149,Sing,recA,1061,1
Sing_recA_1061_2,108,0.51,102.255319148936,Sing,recA,1061,2
Sing_recA_1061_3,81,0.53,82.8620689655175,Sing,recA,1061,3
Sing_recA_1061_4,93,0.53,95.1379310344831,Sing,recA,1061,4
Sing_recA_1061_5,75,0.6,111.25,Sing,recA,1061,5
Sing_recA_1061_6,103,0.57,127.319444444444,Sing,recA,1061,6
Sing_recA_1061_7,55,0.53,56.2643678160921,Sing,recA,1061,7
Sing_recG_2081_1,127,0.54,134.559523809524,Sing,recG,2081,1
Sing_recG_2081_10,62,0.56,71.6623376623379,Sing,recG,2081,10
Sing_recG_2081_11,80,0.52,78.2417582417582,Sing,recG,2081,11
Sing_recG_2081_12,84,0.59,115.015384615385,Sing,recG,2081,12
Sing_recG_2081_13,63,0.54,66.75,Sing,recG,2081,13
Sing_recG_2081_2,80,0.56,92.4675324675328,Sing,recG,2081,2
Sing_recG_2081_3,56,0.57,69.2222222222222,Sing,recG,2081,3
Sing_recG_2081_4,89,0.57,110.013888888889,Sing,recG,2081,4
Sing_recG_2081_5,46,0.6,68.2333333333332,Sing,recG,2081,5
Sing_recG_2081_6,38,0.59,52.0307692307693,Sing,recG,2081,6
Sing_recG_2081_7,10,0.61,16.036036036036,Sing,recG,2081,7
Sing_recG_2081_8,103,0.56,119.051948051948,Sing,recG,2081,8
Sing_recG_2081_9,72,0.62,123.230769230769,Sing,recG,2081,9
Sing_rpoB_4028_1,128,0.45,107.471698113208,Sing,rpoB,4028,1
Sing_rpoB_4028_10,139,0.56,160.662337662338,Sing,rpoB,4028,10
Sing_rpoB_4028_11,132,0.57,163.166666666667,Sing,rpoB,4028,11
Sing_rpoB_4028_12,126,0.49,113.272727272727,Sing,rpoB,4028,12
Sing_rpoB_4028_13,156,0.56,180.311688311689,Sing,rpoB,4028,13
Sing_rpoB_4028_14,84,0.56,97.0909090909094,Sing,rpoB,4028,14
Sing_rpoB_4028_15,188,0.51,178,Sing,rpoB,4028,15
Sing_rpoB_4028_16,175,0.56,202.272727272728,Sing,rpoB,4028,16
Sing_rpoB_4028_17,124,0.57,153.277777777778,Sing,rpoB,4028,17
Sing_rpoB_4028_18,96,0.51,90.8936170212766,Sing,rpoB,4028,18
Sing_rpoB_4028_19,75,0.56,86.688311688312,Sing,rpoB,4028,19
Sing_rpoB_4028_2,113,0.5,104.760416666667,Sing,rpoB,4028,2
Sing_rpoB_4028_20,149,0.51,141.074468085106,Sing,rpoB,4028,20
Sing_rpoB_4028_21,96,0.52,93.8901098901099,Sing,rpoB,4028,21
Sing_rpoB_4028_22,97,0.54,102.77380952381,Sing,rpoB,4028,22
Sing_rpoB_4028_23,135,0.53,138.103448275863,Sing,rpoB,4028,23
Sing_rpoB_4028_24,75,0.56,86.688311688312,Sing,rpoB,4028,24
Sing_rpoB_4028_25,102,0.54,108.071428571429,Sing,rpoB,4028,25
Sing_rpoB_4028_3,146,0.52,142.791208791209,Sing,rpoB,4028,3
Sing_rpoB_4028_4,133,0.51,125.925531914894,Sing,rpoB,4028,4
Sing_rpoB_4028_5,123,0.51,116.457446808511,Sing,rpoB,4028,5
Sing_rpoB_4028_6,75,0.51,71.0106382978723,Sing,rpoB,4028,6
Sing_rpoB_4028_7,98,0.51,92.7872340425532,Sing,rpoB,4028,7
Sing_rpoB_4028_8,60,0.55,66.75,Sing,rpoB,4028,8
Sing_rpoB_4028_9,109,0.49,97.989898989899,Sing,rpoB,4028,9
Sing_rpoD_1841_1,82,0.59,112.276923076923,Sing,rpoD,1841,1
Sing_rpoD_1841_10,144,0.5,133.5,Sing,rpoD,1841,10
Sing_rpoD_1841_11,61,0.58,78.68115942029,Sing,rpoD,1841,11
Sing_rpoD_1841_12,175,0.47,149.759615384615,Sing,rpoD,1841,12
Sing_rpoD_1841_2,121,0.57,149.569444444444,Sing,rpoD,1841,2
Sing_rpoD_1841_3,138,0.54,146.214285714286,Sing,rpoD,1841,3
Sing_rpoD_1841_4,68,0.56,78.5974025974029,Sing,rpoD,1841,4
Sing_rpoD_1841_5,93,0.48,81.1470588235294,Sing,rpoD,1841,5
Sing_rpoD_1841_6,73,0.52,71.3956043956044,Sing,rpoD,1841,6
Sing_rpoD_1841_7,121,0.49,108.777777777778,Sing,rpoD,1841,7
Sing_rpoD_1841_8,86,0.54,91.1190476190477,Sing,rpoD,1841,8
Sing_rpoD_1841_9,84,0.55,93.45,Sing,rpoD,1841,9
Sing_srp10_311_1,108,0.48,94.235294117647,Sing,srp10,311,1
Sing_srp10_311_2,105,0.59,143.769230769231,Sing,srp10,311,2
Sing_srp11_389_1,157,0.48,136.990196078431,Sing,srp11,389,1
Sing_srp11_389_2,137,0.54,145.154761904762,Sing,srp11,389,2
Sing_srp11_389_3,157,0.5,145.552083333333,Sing,srp11,389,3
Sing_srp1_1673_1,159,0.42,132.87323943662,Sing,srp1,1673,1
Sing_srp1_1673_10,136,0.56,157.194805194806,Sing,srp1,1673,10
Sing_srp1_1673_11,130,0.41,107.12962962963,Sing,srp1,1673,11
Sing_srp1_1673_2,104,0.53,106.390804597702,Sing,srp1,1673,2
Sing_srp1_1673_3,114,0.51,107.936170212766,Sing,srp1,1673,3
Sing_srp1_1673_4,169,0.51,160.010638297872,Sing,srp1,1673,4
Sing_srp1_1673_5,134,0.52,131.054945054945,Sing,srp1,1673,5
Sing_srp1_1673_6,118,0.51,111.723404255319,Sing,srp1,1673,6
Sing_srp1_1673_7,175,0.55,194.6875,Sing,srp1,1673,7
Sing_srp1_1673_8,149,0.48,130.009803921569,Sing,srp1,1673,8
Sing_srp1_1673_9,130,0.51,123.085106382979,Sing,srp1,1673,9
Sing_srp12_374_1,176,0.45,147.77358490566,Sing,srp12,374,1
Sing_srp12_374_2,97,0.56,112.116883116884,Sing,srp12,374,2
Sing_srp12_374_3,166,0.48,144.843137254902,Sing,srp12,374,3
Sing_srp13_356_1,123,0.53,125.827586206897,Sing,srp13,356,1
Sing_srp13_356_2,157,0.49,141.141414141414,Sing,srp13,356,2
Sing_srp13_356_3,142,0.48,123.901960784314,Sing,srp13,356,3
Sing_srp14_305_1,142,0.51,134.446808510638,Sing,srp14,305,1
Sing_srp14_305_2,74,0.57,91.4722222222221,Sing,srp14,305,2
Sing_srp15_269_1,99,0.42,82.7323943661972,Sing,srp15,269,1
Sing_srp15_269_2,118,0.53,120.712643678161,Sing,srp15,269,2
Sing_srp16_248_1,128,0.51,121.191489361702,Sing,srp16,248,1
Sing_srp16_248_2,87,0.52,85.0879120879121,Sing,srp16,248,2
Sing_srp17_254_1,134,0.47,114.673076923077,Sing,srp17,254,1
Sing_srp17_254_2,156,0.46,130.981132075472,Sing,srp17,254,2
Sing_srp18_227_1,96,0.47,82.1538461538462,Sing,srp18,227,1
Sing_srp18_227_2,5,0.55,5.5625,Sing,srp18,227,2
Sing_srp21_215_1,71,0.54,75.2261904761905,Sing,srp21,215,1
Sing_srp21_215_2,94,0.49,84.5050505050505,Sing,srp21,215,2
Sing_srp2_725_1,103,0.49,92.5959595959596,Sing,srp2,725,1
Sing_srp2_725_2,166,0.46,139.377358490566,Sing,srp2,725,2
Sing_srp2_725_3,129,0.52,126.164835164835,Sing,srp2,725,3
Sing_srp2_725_4,115,0.5,106.614583333333,Sing,srp2,725,4
Sing_srp2_725_5,122,0.56,141.012987012988,Sing,srp2,725,5
Sing_srp3_701_1,149,0.52,145.725274725275,Sing,srp3,701,1
Sing_srp3_701_2,139,0.57,171.819444444444,Sing,srp3,701,2
Sing_srp3_701_3,157,0.49,141.141414141414,Sing,srp3,701,3
Sing_srp3_701_4,158,0.52,154.527472527473,Sing,srp3,701,4
Sing_srp3_701_5,182,0.46,152.811320754717,Sing,srp3,701,5
Sing_srp4_608_1,107,0.48,93.3627450980392,Sing,srp4,608,1
Sing_srp4_608_2,178,0.52,174.087912087912,Sing,srp4,608,2
Sing_srp4_608_3,113,0.5,104.760416666667,Sing,srp4,608,3
Sing_srp4_608_4,159,0.51,150.542553191489,Sing,srp4,608,4
Sing_srp5_503_1,112,0.46,94.0377358490566,Sing,srp5,503,1
Sing_srp5_503_2,93,0.55,103.4625,Sing,srp5,503,2
Sing_srp5_503_3,92,0.51,87.1063829787234,Sing,srp5,503,3
Sing_srp5_503_4,118,0.5,109.395833333333,Sing,srp5,503,4
Sing_srp6_395_1,116,0.53,118.666666666667,Sing,srp6,395,1
Sing_srp6_395_2,106,0.54,112.309523809524,Sing,srp6,395,2
Sing_srp6_395_3,85,0.51,80.4787234042553,Sing,srp6,395,3
Sing_srp7_470_1,107,0.51,101.308510638298,Sing,srp7,470,1
Sing_srp7_470_2,122,0.52,119.318681318681,Sing,srp7,470,2
Sing_srp7_470_3,106,0.46,89,Sing,srp7,470,3
Sing_srp8_392_1,95,0.5,88.0729166666666,Sing,srp8,392,1
Sing_srp8_392_2,51,0.5,47.28125,Sing,srp8,392,2
Sing_srp8_392_3,104,0.5,96.4166666666666,Sing,srp8,392,3
Sing_srp9_392_1,102,0.5,94.5625,Sing,srp9,392,1
Sing_srp9_392_2,52,0.52,50.8571428571429,Sing,srp9,392,2
Sing_srp9_392_3,99,0.53,101.275862068966,Sing,srp9,392,3
Sing_valS_2855_1,70,0.46,58.7735849056604,Sing,valS,2855,1
Sing_valS_2855_10,103,0.54,109.130952380952,Sing,valS,2855,10
Sing_valS_2855_11,163,0.54,172.702380952381,Sing,valS,2855,11
Sing_valS_2855_12,88,0.57,108.777777777778,Sing,valS,2855,12
Sing_valS_2855_13,112,0.51,106.042553191489,Sing,valS,2855,13
Sing_valS_2855_14,109,0.56,125.987012987013,Sing,valS,2855,14
Sing_valS_2855_15,69,0.54,73.1071428571429,Sing,valS,2855,15
Sing_valS_2855_16,132,0.55,146.85,Sing,valS,2855,16
Sing_valS_2855_17,98,0.56,113.272727272728,Sing,valS,2855,17
Sing_valS_2855_18,85,0.51,80.4787234042553,Sing,valS,2855,18
Sing_valS_2855_2,75,0.57,92.7083333333333,Sing,valS,2855,2
Sing_valS_2855_3,70,0.57,86.5277777777777,Sing,valS,2855,3
Sing_valS_2855_4,57,0.56,65.8831168831171,Sing,valS,2855,4
Sing_valS_2855_5,45,0.56,52.0129870129872,Sing,valS,2855,5
Sing_valS_2855_6,80,0.59,109.538461538462,Sing,valS,2855,6
Sing_valS_2855_7,126,0.57,155.75,Sing,valS,2855,7
Sing_valS_2855_8,93,0.52,90.956043956044,Sing,valS,2855,8
Sing_valS_2855_9,91,0.53,93.0919540229888,Sing,valS,2855,9
