Gene,Reads,Gene_gc,Reads_gc,Class,Name,GeneLen,GeneWin
16S_1_1476_1,1418,0.52,602.994174757282,16S,1,1476,1
16S_1_1476_10,1576,0.56,791.614678899082,16S,1,1476,10
16S_1_1476_2,1540,0.54,722.958199356913,16S,1,1476,2
16S_1_1476_3,1263,0.59,724.075916230367,16S,1,1476,3
16S_1_1476_4,1126,0.56,565.582568807339,16S,1,1476,4
16S_1_1476_5,1449,0.57,772.094890510949,16S,1,1476,5
16S_1_1476_6,1171,0.58,657.561538461539,16S,1,1476,6
16S_1_1476_7,1318,0.54,618.739549839229,16S,1,1476,7
16S_1_1476_8,1687,0.55,794.522580645161,16S,1,1476,8
16S_1_1476_9,1426,0.55,671.6,16S,1,1476,9
23S_1_1261_1,1552,0.51,637.688555347093,23S,1,1261,1
23S_1_1261_2,1563,0.53,684.594,23S,1,1261,2
23S_1_1261_3,1446,0.56,726.316513761467,23S,1,1261,3
23S_1_1261_4,1461,0.56,733.850917431192,23S,1,1261,4
23S_1_1261_5,1565,0.52,665.504854368932,23S,1,1261,5
23S_1_1261_6,1553,0.54,729.061093247589,23S,1,1261,6
23S_1_1261_7,1520,0.55,715.870967741936,23S,1,1261,7
23S_1_1261_8,1416,0.51,581.808630393997,23S,1,1261,8
23S_2_1793_1,1363,0.6,845.600566572238,23S,2,1793,1
23S_2_1793_10,1344,0.56,675.082568807339,23S,2,1793,10
23S_2_1793_11,1450,0.54,680.707395498393,23S,2,1793,11
23S_2_1793_2,1069,0.57,569.613138686131,23S,2,1793,2
23S_2_1793_3,1411,0.54,662.398713826367,23S,2,1793,3
23S_2_1793_4,1412,0.59,809.497382198953,23S,2,1793,4
23S_2_1793_5,1360,0.52,578.330097087379,23S,2,1793,5
23S_2_1793_6,1313,0.53,575.094,23S,2,1793,6
23S_2_1793_7,1446,0.49,584.269372693727,23S,2,1793,7
23S_2_1793_8,1131,0.57,602.649635036496,23S,2,1793,8
23S_2_1793_9,1039,0.57,553.627737226277,23S,2,1793,9
Sing_alaS_2672_1,243,0.72,248.677570093458,Sing,alaS,2672,1
Sing_alaS_2672_10,126,0.72,128.943925233645,Sing,alaS,2672,10
Sing_alaS_2672_11,304,0.71,290.724890829694,Sing,alaS,2672,11
Sing_alaS_2672_12,219,0.7,204.089361702128,Sing,alaS,2672,12
Sing_alaS_2672_13,265,0.69,231.215139442231,Sing,alaS,2672,13
Sing_alaS_2672_14,211,0.68,177.045977011494,Sing,alaS,2672,14
Sing_alaS_2672_15,144,0.7,134.195744680851,Sing,alaS,2672,15
Sing_alaS_2672_16,158,0.76,216.2625,Sing,alaS,2672,16
Sing_alaS_2672_17,206,0.75,259.275862068965,Sing,alaS,2672,17
Sing_alaS_2672_2,258,0.68,216.48275862069,Sing,alaS,2672,2
Sing_alaS_2672_3,270,0.62,178.640483383686,Sing,alaS,2672,3
Sing_alaS_2672_4,248,0.71,237.170305676856,Sing,alaS,2672,4
Sing_alaS_2672_5,304,0.61,188.600566572238,Sing,alaS,2672,5
Sing_alaS_2672_6,119,0.69,103.828685258964,Sing,alaS,2672,6
Sing_alaS_2672_7,273,0.71,261.078602620087,Sing,alaS,2672,7
Sing_alaS_2672_8,259,0.67,207.769230769231,Sing,alaS,2672,8
Sing_alaS_2672_9,229,0.69,199.804780876494,Sing,alaS,2672,9
Sing_argS_1661_1,173,0.72,177.042056074767,Sing,argS,1661,1
Sing_argS_1661_10,76,0.73,83.6381909547736,Sing,argS,1661,10
Sing_argS_1661_11,170,0.73,187.085427135678,Sing,argS,1661,11
Sing_argS_1661_2,203,0.71,194.135371179039,Sing,argS,1661,2
Sing_argS_1661_3,226,0.73,248.713567839195,Sing,argS,1661,3
Sing_argS_1661_4,205,0.73,225.603015075376,Sing,argS,1661,4
Sing_argS_1661_5,193,0.69,168.394422310757,Sing,argS,1661,5
Sing_argS_1661_6,165,0.68,138.448275862069,Sing,argS,1661,6
Sing_argS_1661_7,185,0.67,148.406593406593,Sing,argS,1661,7
Sing_argS_1661_8,156,0.69,136.111553784861,Sing,argS,1661,8
Sing_argS_1661_9,166,0.7,154.697872340425,Sing,argS,1661,9
Sing_aspS_1334_1,224,0.71,214.218340611354,Sing,aspS,1334,1
Sing_aspS_1334_2,212,0.69,184.972111553785,Sing,aspS,1334,2
Sing_aspS_1334_3,293,0.68,245.850574712644,Sing,aspS,1334,3
Sing_aspS_1334_4,207,0.65,155.783505154639,Sing,aspS,1334,4
Sing_aspS_1334_5,268,0.65,201.690721649485,Sing,aspS,1334,5
Sing_aspS_1334_6,385,0.66,301.125,Sing,aspS,1334,6
Sing_aspS_1334_7,317,0.65,238.567010309278,Sing,aspS,1334,7
Sing_aspS_1334_8,244,0.65,183.628865979381,Sing,aspS,1334,8
Sing_aspS_1334_9,284,0.69,247.792828685259,Sing,aspS,1334,9
Sing_atpD_1460_1,310,0.68,260.114942528736,Sing,atpD,1460,1
Sing_atpD_1460_10,307,0.63,212.091482649842,Sing,atpD,1460,10
Sing_atpD_1460_2,302,0.65,227.278350515464,Sing,atpD,1460,2
Sing_atpD_1460_3,330,0.67,264.725274725275,Sing,atpD,1460,3
Sing_atpD_1460_4,314,0.62,207.752265861027,Sing,atpD,1460,4
Sing_atpD_1460_5,267,0.69,232.96015936255,Sing,atpD,1460,5
Sing_atpD_1460_6,262,0.62,173.347432024169,Sing,atpD,1460,6
Sing_atpD_1460_7,261,0.69,227.725099601594,Sing,atpD,1460,7
Sing_atpD_1460_8,281,0.63,194.129337539432,Sing,atpD,1460,8
Sing_atpD_1460_9,298,0.6,184.878186968838,Sing,atpD,1460,9
Sing_fusA_2114_1,476,0.6,295.308781869688,Sing,fusA,2114,1
Sing_fusA_2114_10,344,0.62,227.601208459214,Sing,fusA,2114,10
Sing_fusA_2114_11,219,0.66,171.289285714286,Sing,fusA,2114,11
Sing_fusA_2114_12,305,0.67,244.67032967033,Sing,fusA,2114,12
Sing_fusA_2114_13,307,0.6,190.461756373938,Sing,fusA,2114,13
Sing_fusA_2114_14,235,0.64,167.094155844156,Sing,fusA,2114,14
Sing_fusA_2114_2,354,0.65,266.412371134021,Sing,fusA,2114,2
Sing_fusA_2114_3,304,0.69,265.243027888446,Sing,fusA,2114,3
Sing_fusA_2114_4,454,0.67,364.197802197802,Sing,fusA,2114,4
Sing_fusA_2114_5,302,0.63,208.637223974763,Sing,fusA,2114,5
Sing_fusA_2114_6,300,0.64,213.311688311688,Sing,fusA,2114,6
Sing_fusA_2114_7,451,0.6,279.798866855524,Sing,fusA,2114,7
Sing_fusA_2114_8,387,0.64,275.172077922078,Sing,fusA,2114,8
Sing_fusA_2114_9,332,0.64,236.064935064935,Sing,fusA,2114,9
Sing_gyrA_2687_1,325,0.62,215.030211480363,Sing,gyrA,2687,1
Sing_gyrA_2687_10,310,0.69,270.478087649403,Sing,gyrA,2687,10
Sing_gyrA_2687_11,326,0.65,245.340206185567,Sing,gyrA,2687,11
Sing_gyrA_2687_12,294,0.67,235.846153846154,Sing,gyrA,2687,12
Sing_gyrA_2687_13,251,0.7,233.910638297872,Sing,gyrA,2687,13
Sing_gyrA_2687_14,161,0.69,140.474103585657,Sing,gyrA,2687,14
Sing_gyrA_2687_15,242,0.72,247.654205607477,Sing,gyrA,2687,15
Sing_gyrA_2687_16,338,0.69,294.908366533865,Sing,gyrA,2687,16
Sing_gyrA_2687_17,315,0.69,274.840637450199,Sing,gyrA,2687,17
Sing_gyrA_2687_2,299,0.68,250.885057471264,Sing,gyrA,2687,2
Sing_gyrA_2687_3,261,0.72,267.098130841122,Sing,gyrA,2687,3
Sing_gyrA_2687_4,316,0.7,294.485106382979,Sing,gyrA,2687,4
Sing_gyrA_2687_5,224,0.65,168.577319587629,Sing,gyrA,2687,5
Sing_gyrA_2687_6,327,0.65,246.092783505155,Sing,gyrA,2687,6
Sing_gyrA_2687_7,318,0.65,239.319587628866,Sing,gyrA,2687,7
Sing_gyrA_2687_8,291,0.64,206.912337662338,Sing,gyrA,2687,8
Sing_gyrA_2687_9,270,0.67,216.593406593407,Sing,gyrA,2687,9
Sing_gyrB_1973_1,315,0.64,223.977272727273,Sing,gyrB,1973,1
Sing_gyrB_1973_10,325,0.66,254.196428571429,Sing,gyrB,1973,10
Sing_gyrB_1973_11,203,0.72,207.742990654206,Sing,gyrB,1973,11
Sing_gyrB_1973_12,247,0.7,230.182978723404,Sing,gyrB,1973,12
Sing_gyrB_1973_13,283,0.69,246.9203187251,Sing,gyrB,1973,13
Sing_gyrB_1973_2,462,0.65,347.690721649485,Sing,gyrB,1973,2
Sing_gyrB_1973_3,193,0.67,154.824175824176,Sing,gyrB,1973,3
Sing_gyrB_1973_4,341,0.65,256.628865979381,Sing,gyrB,1973,4
Sing_gyrB_1973_5,331,0.67,265.527472527472,Sing,gyrB,1973,5
Sing_gyrB_1973_6,275,0.7,256.276595744681,Sing,gyrB,1973,6
Sing_gyrB_1973_7,210,0.63,145.078864353312,Sing,gyrB,1973,7
Sing_gyrB_1973_8,356,0.6,220.8611898017,Sing,gyrB,1973,8
Sing_gyrB_1973_9,327,0.62,216.353474320242,Sing,gyrB,1973,9
Sing_hisS_1301_1,421,0.64,299.347402597403,Sing,hisS,1301,1
Sing_hisS_1301_2,340,0.7,316.851063829787,Sing,hisS,1301,2
Sing_hisS_1301_3,258,0.7,240.434042553191,Sing,hisS,1301,3
Sing_hisS_1301_4,290,0.72,296.77570093458,Sing,hisS,1301,4
Sing_hisS_1301_5,231,0.69,201.549800796813,Sing,hisS,1301,5
Sing_hisS_1301_6,140,0.75,176.206896551724,Sing,hisS,1301,6
Sing_hisS_1301_7,310,0.68,260.114942528736,Sing,hisS,1301,7
Sing_hisS_1301_8,289,0.67,231.835164835165,Sing,hisS,1301,8
Sing_hisS_1301_9,210,0.76,287.4375,Sing,hisS,1301,9
Sing_ileS_3293_1,260,0.72,266.074766355141,Sing,ileS,3293,1
Sing_ileS_3293_10,335,0.66,262.017857142857,Sing,ileS,3293,10
Sing_ileS_3293_11,271,0.72,277.331775700935,Sing,ileS,3293,11
Sing_ileS_3293_12,358,0.62,236.864048338369,Sing,ileS,3293,12
Sing_ileS_3293_13,250,0.66,195.535714285714,Sing,ileS,3293,13
Sing_ileS_3293_14,243,0.7,226.455319148936,Sing,ileS,3293,14
Sing_ileS_3293_15,195,0.71,186.484716157205,Sing,ileS,3293,15
Sing_ileS_3293_16,213,0.72,217.976635514019,Sing,ileS,3293,16
Sing_ileS_3293_17,172,0.77,265.267605633803,Sing,ileS,3293,17
Sing_ileS_3293_18,264,0.68,221.51724137931,Sing,ileS,3293,18
Sing_ileS_3293_19,179,0.73,196.989949748743,Sing,ileS,3293,19
Sing_ileS_3293_2,259,0.69,225.980079681275,Sing,ileS,3293,2
Sing_ileS_3293_20,116,0.77,178.901408450704,Sing,ileS,3293,20
Sing_ileS_3293_21,163,0.68,136.770114942529,Sing,ileS,3293,21
Sing_ileS_3293_3,303,0.69,264.370517928287,Sing,ileS,3293,3
Sing_ileS_3293_4,297,0.63,205.182965299685,Sing,ileS,3293,4
Sing_ileS_3293_5,290,0.72,296.77570093458,Sing,ileS,3293,5
Sing_ileS_3293_6,252,0.75,317.172413793103,Sing,ileS,3293,6
Sing_ileS_3293_7,260,0.7,242.297872340425,Sing,ileS,3293,7
Sing_ileS_3293_8,210,0.74,244.627659574469,Sing,ileS,3293,8
Sing_ileS_3293_9,216,0.68,181.241379310345,Sing,ileS,3293,9
Sing_lepA_1850_1,197,0.7,183.587234042553,Sing,lepA,1850,1
Sing_lepA_1850_10,259,0.63,178.930599369085,Sing,lepA,1850,10
Sing_lepA_1850_11,325,0.68,272.701149425287,Sing,lepA,1850,11
Sing_lepA_1850_12,333,0.61,206.592067988668,Sing,lepA,1850,12
Sing_lepA_1850_2,263,0.69,229.470119521912,Sing,lepA,1850,2
Sing_lepA_1850_3,297,0.67,238.252747252747,Sing,lepA,1850,3
Sing_lepA_1850_4,224,0.7,208.748936170213,Sing,lepA,1850,4
Sing_lepA_1850_5,328,0.65,246.845360824742,Sing,lepA,1850,5
Sing_lepA_1850_6,249,0.72,254.817757009346,Sing,lepA,1850,6
Sing_lepA_1850_7,329,0.69,287.05577689243,Sing,lepA,1850,7
Sing_lepA_1850_8,289,0.65,217.494845360825,Sing,lepA,1850,8
Sing_lepA_1850_9,322,0.67,258.307692307692,Sing,lepA,1850,9
Sing_leuS_2609_1,191,0.74,222.494680851064,Sing,leuS,2609,1
Sing_leuS_2609_10,169,0.73,185.984924623115,Sing,leuS,2609,10
Sing_leuS_2609_11,234,0.71,223.781659388646,Sing,leuS,2609,11
Sing_leuS_2609_12,273,0.67,219,Sing,leuS,2609,12
Sing_leuS_2609_13,308,0.66,240.9,Sing,leuS,2609,13
Sing_leuS_2609_14,217,0.73,238.80904522613,Sing,leuS,2609,14
Sing_leuS_2609_15,205,0.7,191.042553191489,Sing,leuS,2609,15
Sing_leuS_2609_16,127,0.7,118.353191489362,Sing,leuS,2609,16
Sing_leuS_2609_17,190,0.73,209.095477386934,Sing,leuS,2609,17
Sing_leuS_2609_2,263,0.69,229.470119521912,Sing,leuS,2609,2
Sing_leuS_2609_3,172,0.67,137.978021978022,Sing,leuS,2609,3
Sing_leuS_2609_4,241,0.62,159.453172205438,Sing,leuS,2609,4
Sing_leuS_2609_5,289,0.64,205.49025974026,Sing,leuS,2609,5
Sing_leuS_2609_6,327,0.69,285.310756972112,Sing,leuS,2609,6
Sing_leuS_2609_7,282,0.7,262.8,Sing,leuS,2609,7
Sing_leuS_2609_8,181,0.72,185.228971962617,Sing,leuS,2609,8
Sing_leuS_2609_9,164,0.72,167.831775700935,Sing,leuS,2609,9
Sing_lrp10_515_1,369,0.58,207.207692307692,Sing,lrp10,515,1
Sing_lrp10_515_2,340,0.63,234.889589905363,Sing,lrp10,515,2
Sing_lrp10_515_3,315,0.63,217.618296529968,Sing,lrp10,515,3
Sing_lrp10_515_4,390,0.65,293.505154639175,Sing,lrp10,515,4
Sing_lrp11_431_1,201,0.68,168.655172413793,Sing,lrp11,431,1
Sing_lrp11_431_2,277,0.65,208.463917525773,Sing,lrp11,431,2
Sing_lrp11_431_3,259,0.67,207.769230769231,Sing,lrp11,431,3
Sing_lrp13_446_1,402,0.64,285.837662337662,Sing,lrp13,446,1
Sing_lrp13_446_2,339,0.64,241.042207792208,Sing,lrp13,446,2
Sing_lrp13_446_3,197,0.67,158.032967032967,Sing,lrp13,446,3
Sing_lrp14_368_1,393,0.61,243.815864022663,Sing,lrp14,368,1
Sing_lrp14_368_2,431,0.62,285.163141993958,Sing,lrp14,368,2
Sing_lrp14_368_3,411,0.62,271.930513595166,Sing,lrp14,368,3
Sing_lrp15_635_1,433,0.64,307.87987012987,Sing,lrp15,635,1
Sing_lrp15_635_2,425,0.61,263.668555240793,Sing,lrp15,635,2
Sing_lrp15_635_3,339,0.66,265.146428571429,Sing,lrp15,635,3
Sing_lrp15_635_4,185,0.7,172.404255319149,Sing,lrp15,635,4
Sing_lrp16_419_1,378,0.6,234.509915014164,Sing,lrp16,419,1
Sing_lrp16_419_2,275,0.66,215.089285714286,Sing,lrp16,419,2
Sing_lrp16_419_3,370,0.63,255.615141955836,Sing,lrp16,419,3
Sing_lrp1_689_1,374,0.66,292.521428571429,Sing,lrp1,689,1
Sing_lrp1_689_2,312,0.62,206.429003021148,Sing,lrp1,689,2
Sing_lrp1_689_3,344,0.69,300.143426294821,Sing,lrp1,689,3
Sing_lrp1_689_4,199,0.74,231.813829787235,Sing,lrp1,689,4
Sing_lrp1_689_5,280,0.62,185.256797583082,Sing,lrp1,689,5
Sing_lrp17_509_1,208,0.72,212.859813084112,Sing,lrp17,509,1
Sing_lrp17_509_2,295,0.7,274.914893617021,Sing,lrp17,509,2
Sing_lrp17_509_3,344,0.64,244.597402597403,Sing,lrp17,509,3
Sing_lrp17_509_4,254,0.69,221.617529880478,Sing,lrp17,509,4
Sing_lrp18_371_1,325,0.69,283.565737051793,Sing,lrp18,371,1
Sing_lrp18_371_2,211,0.69,184.099601593626,Sing,lrp18,371,2
Sing_lrp18_371_3,364,0.64,258.818181818182,Sing,lrp18,371,3
Sing_lrp19_347_1,283,0.65,212.979381443299,Sing,lrp19,347,1
Sing_lrp19_347_2,327,0.65,246.092783505155,Sing,lrp19,347,2
Sing_lrp19_347_3,349,0.65,262.649484536083,Sing,lrp19,347,3
Sing_lrp20_386_1,301,0.61,186.739376770538,Sing,lrp20,386,1
Sing_lrp20_386_2,319,0.65,240.072164948454,Sing,lrp20,386,2
Sing_lrp20_386_3,176,0.75,221.51724137931,Sing,lrp20,386,3
Sing_lrp22_389_1,377,0.62,249.435045317221,Sing,lrp22,389,1
Sing_lrp22_389_2,338,0.65,254.371134020619,Sing,lrp22,389,2
Sing_lrp22_389_3,323,0.63,223.145110410095,Sing,lrp22,389,3
Sing_lrp24_359_1,420,0.65,316.082474226804,Sing,lrp24,359,1
Sing_lrp24_359_2,369,0.65,277.701030927835,Sing,lrp24,359,2
Sing_lrp24_359_3,437,0.62,289.132930513595,Sing,lrp24,359,3
Sing_lrp25_635_1,235,0.69,205.03984063745,Sing,lrp25,635,1
Sing_lrp25_635_2,268,0.68,224.873563218391,Sing,lrp25,635,2
Sing_lrp25_635_3,310,0.67,248.681318681319,Sing,lrp25,635,3
Sing_lrp25_635_4,330,0.72,337.710280373832,Sing,lrp25,635,4
Sing_lrp28_236_1,282,0.6,174.951841359773,Sing,lrp28,236,1
Sing_lrp28_236_2,299,0.6,185.498583569405,Sing,lrp28,236,2
Sing_lrp2_839_1,376,0.57,200.350364963504,Sing,lrp2,839,1
Sing_lrp2_839_2,443,0.69,386.521912350598,Sing,lrp2,839,2
Sing_lrp2_839_3,221,0.75,278.155172413793,Sing,lrp2,839,3
Sing_lrp2_839_4,280,0.64,199.090909090909,Sing,lrp2,839,4
Sing_lrp2_839_5,328,0.65,246.845360824742,Sing,lrp2,839,5
Sing_lrp2_839_6,326,0.63,225.217665615142,Sing,lrp2,839,6
Sing_lrp29_323_1,272,0.66,212.742857142857,Sing,lrp29,323,1
Sing_lrp29_323_2,370,0.7,344.808510638298,Sing,lrp29,323,2
Sing_lrp31_248_1,264,0.67,211.78021978022,Sing,lrp31,248,1
Sing_lrp31_248_2,281,0.64,199.801948051948,Sing,lrp31,248,2
Sing_lrp3_656_1,271,0.67,217.395604395604,Sing,lrp3,656,1
Sing_lrp3_656_2,262,0.69,228.597609561753,Sing,lrp3,656,2
Sing_lrp3_656_3,224,0.66,175.2,Sing,lrp3,656,3
Sing_lrp3_656_4,275,0.72,281.42523364486,Sing,lrp3,656,4
Sing_lrp3_656_5,408,0.6,253.121813031161,Sing,lrp3,656,5
Sing_lrp4_731_1,384,0.6,238.232294617564,Sing,lrp4,731,1
Sing_lrp4_731_2,368,0.62,243.480362537764,Sing,lrp4,731,2
Sing_lrp4_731_3,302,0.66,236.207142857143,Sing,lrp4,731,3
Sing_lrp4_731_4,256,0.72,261.981308411215,Sing,lrp4,731,4
Sing_lrp4_731_5,276,0.69,240.812749003984,Sing,lrp4,731,5
Sing_lrp5_587_1,288,0.64,204.779220779221,Sing,lrp5,587,1
Sing_lrp5_587_2,365,0.62,241.495468277946,Sing,lrp5,587,2
Sing_lrp5_587_3,316,0.67,253.494505494505,Sing,lrp5,587,3
Sing_lrp5_587_4,299,0.64,212.600649350649,Sing,lrp5,587,4
Sing_lrp6_536_1,349,0.63,241.107255520505,Sing,lrp6,536,1
Sing_lrp6_536_2,293,0.66,229.167857142857,Sing,lrp6,536,2
Sing_lrp6_536_3,252,0.68,211.448275862069,Sing,lrp6,536,3
Sing_lrp6_536_4,312,0.61,193.56373937677,Sing,lrp6,536,4
Sing_lrp7_383_1,223,0.73,245.412060301507,Sing,lrp7,383,1
Sing_lrp7_383_2,281,0.69,245.175298804781,Sing,lrp7,383,2
Sing_lrp7_383_3,372,0.61,230.787535410765,Sing,lrp7,383,3
Sing_lrp9_815_1,419,0.62,277.223564954683,Sing,lrp9,815,1
Sing_lrp9_815_2,230,0.65,173.092783505155,Sing,lrp9,815,2
Sing_lrp9_815_3,413,0.67,331.307692307692,Sing,lrp9,815,3
Sing_lrp9_815_4,325,0.69,283.565737051793,Sing,lrp9,815,4
Sing_lrp9_815_5,236,0.69,205.91235059761,Sing,lrp9,815,5
Sing_lrp9_815_6,233,0.72,238.443925233645,Sing,lrp9,815,6
Sing_pheSa_1049_1,297,0.63,205.182965299685,Sing,pheSa,1049,1
Sing_pheSa_1049_2,269,0.72,275.285046728972,Sing,pheSa,1049,2
Sing_pheSa_1049_3,344,0.68,288.64367816092,Sing,pheSa,1049,3
Sing_pheSa_1049_4,205,0.67,164.450549450549,Sing,pheSa,1049,4
Sing_pheSa_1049_5,244,0.69,212.892430278885,Sing,pheSa,1049,5
Sing_pheSa_1049_6,147,0.77,226.711267605634,Sing,pheSa,1049,6
Sing_pheSa_1049_7,156,0.72,159.644859813084,Sing,pheSa,1049,7
Sing_pheSb_2510_1,200,0.72,204.672897196262,Sing,pheSb,2510,1
Sing_pheSb_2510_10,205,0.73,225.603015075376,Sing,pheSb,2510,10
Sing_pheSb_2510_11,143,0.71,136.755458515284,Sing,pheSb,2510,11
Sing_pheSb_2510_12,163,0.75,205.155172413793,Sing,pheSb,2510,12
Sing_pheSb_2510_13,269,0.73,296.035175879396,Sing,pheSb,2510,13
Sing_pheSb_2510_14,193,0.73,212.396984924622,Sing,pheSb,2510,14
Sing_pheSb_2510_15,205,0.69,178.864541832669,Sing,pheSb,2510,15
Sing_pheSb_2510_16,269,0.65,202.443298969072,Sing,pheSb,2510,16
Sing_pheSb_2510_2,200,0.73,220.100502512562,Sing,pheSb,2510,2
Sing_pheSb_2510_3,163,0.74,189.877659574469,Sing,pheSb,2510,3
Sing_pheSb_2510_4,174,0.76,238.1625,Sing,pheSb,2510,4
Sing_pheSb_2510_5,142,0.75,178.724137931034,Sing,pheSb,2510,5
Sing_pheSb_2510_6,135,0.73,148.567839195979,Sing,pheSb,2510,6
Sing_pheSb_2510_7,150,0.73,165.075376884422,Sing,pheSb,2510,7
Sing_pheSb_2510_8,112,0.69,97.7211155378487,Sing,pheSb,2510,8
Sing_pheSb_2510_9,224,0.74,260.936170212767,Sing,pheSb,2510,9
Sing_ppK_2171_1,331,0.69,288.800796812749,Sing,ppK,2171,1
Sing_ppK_2171_10,354,0.64,251.707792207792,Sing,ppK,2171,10
Sing_ppK_2171_11,240,0.64,170.649350649351,Sing,ppK,2171,11
Sing_ppK_2171_12,286,0.67,229.428571428571,Sing,ppK,2171,12
Sing_ppK_2171_13,271,0.68,227.390804597701,Sing,ppK,2171,13
Sing_ppK_2171_14,226,0.69,197.187250996016,Sing,ppK,2171,14
Sing_ppK_2171_2,228,0.67,182.901098901099,Sing,ppK,2171,2
Sing_ppK_2171_3,238,0.71,227.606986899563,Sing,ppK,2171,3
Sing_ppK_2171_4,294,0.66,229.95,Sing,ppK,2171,4
Sing_ppK_2171_5,230,0.67,184.505494505494,Sing,ppK,2171,5
Sing_ppK_2171_6,287,0.68,240.816091954023,Sing,ppK,2171,6
Sing_ppK_2171_7,300,0.68,251.724137931035,Sing,ppK,2171,7
Sing_ppK_2171_8,328,0.65,246.845360824742,Sing,ppK,2171,8
Sing_ppK_2171_9,301,0.67,241.461538461538,Sing,ppK,2171,9
Sing_pyrG_1721_1,162,0.72,165.785046728972,Sing,pyrG,1721,1
Sing_pyrG_1721_10,306,0.64,217.577922077922,Sing,pyrG,1721,10
Sing_pyrG_1721_11,208,0.65,156.536082474227,Sing,pyrG,1721,11
Sing_pyrG_1721_2,226,0.73,248.713567839195,Sing,pyrG,1721,2
Sing_pyrG_1721_3,218,0.72,223.093457943926,Sing,pyrG,1721,3
Sing_pyrG_1721_4,253,0.72,258.911214953271,Sing,pyrG,1721,4
Sing_pyrG_1721_5,300,0.7,279.574468085106,Sing,pyrG,1721,5
Sing_pyrG_1721_6,217,0.7,202.225531914894,Sing,pyrG,1721,6
Sing_pyrG_1721_7,283,0.63,195.511041009464,Sing,pyrG,1721,7
Sing_pyrG_1721_8,266,0.67,213.384615384615,Sing,pyrG,1721,8
Sing_pyrG_1721_9,268,0.67,214.989010989011,Sing,pyrG,1721,9
Sing_recA_1061_1,280,0.65,210.721649484536,Sing,recA,1061,1
Sing_recA_1061_2,325,0.69,283.565737051793,Sing,recA,1061,2
Sing_recA_1061_3,220,0.69,191.95219123506,Sing,recA,1061,3
Sing_recA_1061_4,322,0.66,251.85,Sing,recA,1061,4
Sing_recA_1061_5,293,0.62,193.858006042296,Sing,recA,1061,5
Sing_recA_1061_6,334,0.62,220.984894259819,Sing,recA,1061,6
Sing_recA_1061_7,340,0.6,210.934844192634,Sing,recA,1061,7
Sing_recG_2210_1,250,0.74,291.22340425532,Sing,recG,2210,1
Sing_recG_2210_10,180,0.76,246.375,Sing,recG,2210,10
Sing_recG_2210_11,230,0.7,214.340425531915,Sing,recG,2210,11
Sing_recG_2210_12,253,0.73,278.427135678391,Sing,recG,2210,12
Sing_recG_2210_13,238,0.72,243.560747663552,Sing,recG,2210,13
Sing_recG_2210_14,139,0.77,214.37323943662,Sing,recG,2210,14
Sing_recG_2210_2,205,0.76,280.59375,Sing,recG,2210,2
Sing_recG_2210_3,188,0.75,236.620689655172,Sing,recG,2210,3
Sing_recG_2210_4,224,0.68,187.954022988506,Sing,recG,2210,4
Sing_recG_2210_5,188,0.78,351.897435897436,Sing,recG,2210,5
Sing_recG_2210_6,168,0.7,156.56170212766,Sing,recG,2210,6
Sing_recG_2210_7,201,0.7,187.314893617021,Sing,recG,2210,7
Sing_recG_2210_8,179,0.73,196.989949748743,Sing,recG,2210,8
Sing_recG_2210_9,228,0.75,286.965517241379,Sing,recG,2210,9
Sing_rpoB_3491_1,513,0.53,224.694,Sing,rpoB,3491,1
Sing_rpoB_3491_10,276,0.69,240.812749003984,Sing,rpoB,3491,10
Sing_rpoB_3491_11,298,0.72,304.96261682243,Sing,rpoB,3491,11
Sing_rpoB_3491_12,314,0.67,251.89010989011,Sing,rpoB,3491,12
Sing_rpoB_3491_13,364,0.62,240.833836858006,Sing,rpoB,3491,13
Sing_rpoB_3491_14,331,0.72,338.733644859814,Sing,rpoB,3491,14
Sing_rpoB_3491_15,338,0.64,240.331168831169,Sing,rpoB,3491,15
Sing_rpoB_3491_16,284,0.67,227.824175824176,Sing,rpoB,3491,16
Sing_rpoB_3491_17,331,0.64,235.353896103896,Sing,rpoB,3491,17
Sing_rpoB_3491_18,423,0.62,279.870090634441,Sing,rpoB,3491,18
Sing_rpoB_3491_19,299,0.67,239.857142857143,Sing,rpoB,3491,19
Sing_rpoB_3491_2,433,0.64,307.87987012987,Sing,rpoB,3491,2
Sing_rpoB_3491_20,389,0.62,257.374622356495,Sing,rpoB,3491,20
Sing_rpoB_3491_21,414,0.63,286.01261829653,Sing,rpoB,3491,21
Sing_rpoB_3491_22,295,0.64,209.756493506494,Sing,rpoB,3491,22
Sing_rpoB_3491_3,363,0.65,273.185567010309,Sing,rpoB,3491,3
Sing_rpoB_3491_4,334,0.65,251.360824742268,Sing,rpoB,3491,4
Sing_rpoB_3491_5,326,0.71,311.764192139738,Sing,rpoB,3491,5
Sing_rpoB_3491_6,437,0.65,328.876288659794,Sing,rpoB,3491,6
Sing_rpoB_3491_7,264,0.65,198.680412371134,Sing,rpoB,3491,7
Sing_rpoB_3491_8,279,0.69,243.430278884462,Sing,rpoB,3491,8
Sing_rpoB_3491_9,353,0.59,202.374345549738,Sing,rpoB,3491,9
Sing_srp10_308_1,301,0.64,214.022727272727,Sing,srp10,308,1
Sing_srp10_308_2,321,0.66,251.067857142857,Sing,srp10,308,2
Sing_srp11_398_1,157,0.72,160.668224299066,Sing,srp11,398,1
Sing_srp11_398_2,211,0.72,215.929906542056,Sing,srp11,398,2
Sing_srp11_398_3,257,0.64,182.737012987013,Sing,srp11,398,3
Sing_srp1_1448_1,355,0.61,220.240793201133,Sing,srp1,1448,1
Sing_srp1_1448_2,337,0.63,232.817034700316,Sing,srp1,1448,2
Sing_srp1_1448_3,351,0.62,232.232628398792,Sing,srp1,1448,3
Sing_srp1_1448_4,313,0.65,235.556701030928,Sing,srp1,1448,4
Sing_srp1_1448_5,288,0.66,225.257142857143,Sing,srp1,1448,5
Sing_srp1_1448_6,280,0.67,224.615384615385,Sing,srp1,1448,6
Sing_srp1_1448_7,152,0.67,121.934065934066,Sing,srp1,1448,7
Sing_srp1_1448_8,298,0.65,224.268041237113,Sing,srp1,1448,8
Sing_srp1_1448_9,253,0.67,202.956043956044,Sing,srp1,1448,9
Sing_srp12_266_1,376,0.66,294.085714285714,Sing,srp12,266,1
Sing_srp12_266_2,366,0.65,275.443298969072,Sing,srp12,266,2
Sing_srp13_410_1,288,0.67,231.032967032967,Sing,srp13,410,1
Sing_srp13_410_2,292,0.7,272.11914893617,Sing,srp13,410,2
Sing_srp13_410_3,344,0.61,213.416430594901,Sing,srp13,410,3
Sing_srp14_305_1,380,0.65,285.979381443299,Sing,srp14,305,1
Sing_srp14_305_2,258,0.71,246.733624454149,Sing,srp14,305,2
Sing_srp15_269_1,406,0.64,288.681818181818,Sing,srp15,269,1
Sing_srp15_269_2,284,0.65,213.731958762887,Sing,srp15,269,2
Sing_srp16_416_1,324,0.62,214.368580060423,Sing,srp16,416,1
Sing_srp16_416_2,263,0.65,197.927835051546,Sing,srp16,416,2
Sing_srp16_416_3,235,0.67,188.516483516483,Sing,srp16,416,3
Sing_srp17_296_1,337,0.63,232.817034700316,Sing,srp17,296,1
Sing_srp17_296_2,450,0.65,338.659793814433,Sing,srp17,296,2
Sing_srp19_281_1,188,0.65,141.484536082474,Sing,srp19,281,1
Sing_srp19_281_2,448,0.6,277.937677053824,Sing,srp19,281,2
Sing_srp20_362_1,334,0.71,319.414847161572,Sing,srp20,362,1
Sing_srp20_362_2,226,0.67,181.296703296703,Sing,srp20,362,2
Sing_srp20_362_3,207,0.65,155.783505154639,Sing,srp20,362,3
Sing_srp2_947_1,254,0.68,213.126436781609,Sing,srp2,947,1
Sing_srp2_947_2,258,0.64,183.448051948052,Sing,srp2,947,2
Sing_srp2_947_3,269,0.62,177.978851963746,Sing,srp2,947,3
Sing_srp2_947_4,271,0.62,179.302114803625,Sing,srp2,947,4
Sing_srp2_947_5,218,0.7,203.157446808511,Sing,srp2,947,5
Sing_srp2_947_6,255,0.76,349.03125,Sing,srp2,947,6
Sing_srp3_779_1,354,0.72,362.271028037384,Sing,srp3,779,1
Sing_srp3_779_2,325,0.63,224.526813880126,Sing,srp3,779,2
Sing_srp3_779_3,306,0.72,313.149532710281,Sing,srp3,779,3
Sing_srp3_779_4,330,0.68,276.896551724138,Sing,srp3,779,4
Sing_srp3_779_5,295,0.67,236.648351648352,Sing,srp3,779,5
Sing_srp4_629_1,279,0.65,209.969072164948,Sing,srp4,629,1
Sing_srp4_629_2,262,0.68,219.83908045977,Sing,srp4,629,2
Sing_srp4_629_3,223,0.7,207.817021276596,Sing,srp4,629,3
Sing_srp4_629_4,246,0.68,206.413793103448,Sing,srp4,629,4
Sing_srp5_740_1,278,0.63,192.056782334385,Sing,srp5,740,1
Sing_srp5_740_2,265,0.71,253.427947598253,Sing,srp5,740,2
Sing_srp5_740_3,272,0.69,237.322709163347,Sing,srp5,740,3
Sing_srp5_740_4,261,0.68,219,Sing,srp5,740,4
Sing_srp5_740_5,220,0.72,225.140186915888,Sing,srp5,740,5
Sing_srp6_458_1,380,0.58,213.384615384616,Sing,srp6,458,1
Sing_srp6_458_2,345,0.62,228.262839879154,Sing,srp6,458,2
Sing_srp6_458_3,254,0.75,319.689655172413,Sing,srp6,458,3
Sing_srp7_470_1,265,0.67,212.582417582418,Sing,srp7,470,1
Sing_srp7_470_2,342,0.67,274.351648351648,Sing,srp7,470,2
Sing_srp7_470_3,320,0.66,250.285714285714,Sing,srp7,470,3
Sing_srp8_326_1,353,0.62,233.555891238671,Sing,srp8,326,1
Sing_srp8_326_2,399,0.69,348.131474103586,Sing,srp8,326,2
Sing_srp8_326_3,327,0.59,187.468586387435,Sing,srp8,326,3
Sing_srp9_485_1,320,0.64,227.532467532468,Sing,srp9,485,1
Sing_srp9_485_2,296,0.69,258.262948207171,Sing,srp9,485,2
Sing_srp9_485_3,332,0.69,289.673306772909,Sing,srp9,485,3
Sing_valS_2633_1,152,0.78,284.51282051282,Sing,valS,2633,1
Sing_valS_2633_10,217,0.66,169.725,Sing,valS,2633,10
Sing_valS_2633_11,228,0.72,233.327102803739,Sing,valS,2633,11
Sing_valS_2633_12,283,0.69,246.9203187251,Sing,valS,2633,12
Sing_valS_2633_13,207,0.73,227.804020100502,Sing,valS,2633,13
Sing_valS_2633_14,226,0.7,210.612765957447,Sing,valS,2633,14
Sing_valS_2633_15,186,0.67,149.208791208791,Sing,valS,2633,15
Sing_valS_2633_16,226,0.69,197.187250996016,Sing,valS,2633,16
Sing_valS_2633_17,278,0.68,233.264367816092,Sing,valS,2633,17
Sing_valS_2633_2,148,0.72,151.457943925234,Sing,valS,2633,2
Sing_valS_2633_3,203,0.72,207.742990654206,Sing,valS,2633,3
Sing_valS_2633_4,240,0.7,223.659574468085,Sing,valS,2633,4
Sing_valS_2633_5,277,0.67,222.208791208791,Sing,valS,2633,5
Sing_valS_2633_6,222,0.67,178.087912087912,Sing,valS,2633,6
Sing_valS_2633_7,296,0.67,237.450549450549,Sing,valS,2633,7
Sing_valS_2633_8,195,0.76,266.90625,Sing,valS,2633,8
Sing_valS_2633_9,289,0.67,231.835164835165,Sing,valS,2633,9
