Gene,Reads,Gene_gc,Reads_gc,Class,Name,GeneLen,GeneWin
16S_1_1528_1,1280,0.45,1014.51851851852,16S,1,1528,1
16S_1_1528_10,741,0.56,683.508620689655,16S,1,1528,10
16S_1_1528_2,698,0.56,643.844827586207,16S,1,1528,2
16S_1_1528_3,700,0.55,629.411764705882,16S,1,1528,3
16S_1_1528_4,757,0.49,637.787401574803,16S,1,1528,4
16S_1_1528_5,514,0.5,438.231075697211,16S,1,1528,5
16S_1_1528_6,777,0.52,675.926829268293,16S,1,1528,6
16S_1_1528_7,706,0.51,594.818897637795,16S,1,1528,7
16S_1_1528_8,711,0.56,655.836206896552,16S,1,1528,8
16S_1_1528_9,808,0.55,726.521008403361,16S,1,1528,9
23S_1_531_1,1038,0.47,841.409090909091,23S,1,531,1
23S_1_531_2,702,0.46,556.4,23S,1,531,2
23S_1_531_3,684,0.52,595.024390243903,23S,1,531,3
23S_2_218_1,115,0.5,98.0478087649402,23S,2,218,1
23S_3_218_1,584,0.49,492.031496062992,23S,3,218,1
23S_4_2281_1,780,0.53,695.5,23S,4,2281,1
23S_4_2281_10,620,0.51,522.362204724409,23S,4,2281,10
23S_4_2281_11,710,0.54,633.083333333334,23S,4,2281,11
23S_4_2281_12,610,0.55,548.487394957983,23S,4,2281,12
23S_4_2281_13,759,0.57,712.394736842105,23S,4,2281,13
23S_4_2281_14,895,0.5,763.067729083665,23S,4,2281,14
23S_4_2281_2,751,0.52,653.308943089431,23S,4,2281,2
23S_4_2281_3,664,0.5,566.119521912351,23S,4,2281,3
23S_4_2281_4,692,0.53,617.033333333334,23S,4,2281,4
23S_4_2281_5,794,0.5,676.956175298805,23S,4,2281,5
23S_4_2281_6,769,0.48,628.114503816794,23S,4,2281,6
23S_4_2281_7,629,0.56,580.198275862069,23S,4,2281,7
23S_4_2281_8,539,0.52,468.886178861789,23S,4,2281,8
23S_4_2281_9,660,0.53,588.5,23S,4,2281,9
Sing_alaS_2618_1,74,0.61,74,Sing,alaS,2618,1
Sing_alaS_2618_10,147,0.6,144.302752293578,Sing,alaS,2618,10
Sing_alaS_2618_11,86,0.6,84.4220183486239,Sing,alaS,2618,11
Sing_alaS_2618_12,132,0.62,134.514285714286,Sing,alaS,2618,12
Sing_alaS_2618_13,85,0.6,83.4403669724771,Sing,alaS,2618,13
Sing_alaS_2618_14,74,0.67,83.3473684210523,Sing,alaS,2618,14
Sing_alaS_2618_15,106,0.54,94.5166666666667,Sing,alaS,2618,15
Sing_alaS_2618_16,119,0.61,119,Sing,alaS,2618,16
Sing_alaS_2618_17,103,0.57,96.6754385964912,Sing,alaS,2618,17
Sing_alaS_2618_2,124,0.64,130.078431372549,Sing,alaS,2618,2
Sing_alaS_2618_3,119,0.61,119,Sing,alaS,2618,3
Sing_alaS_2618_4,136,0.64,142.666666666667,Sing,alaS,2618,4
Sing_alaS_2618_5,116,0.63,119.346153846153,Sing,alaS,2618,5
Sing_alaS_2618_6,119,0.57,111.69298245614,Sing,alaS,2618,6
Sing_alaS_2618_7,92,0.7,113.149425287356,Sing,alaS,2618,7
Sing_alaS_2618_8,96,0.57,90.1052631578947,Sing,alaS,2618,8
Sing_alaS_2618_9,97,0.63,99.7980769230766,Sing,alaS,2618,9
Sing_argS_1736_1,102,0.64,107,Sing,argS,1736,1
Sing_argS_1736_10,132,0.67,148.673684210526,Sing,argS,1736,10
Sing_argS_1736_11,86,0.61,86,Sing,argS,1736,11
Sing_argS_1736_2,111,0.62,113.114285714286,Sing,argS,1736,2
Sing_argS_1736_3,170,0.59,163.873873873874,Sing,argS,1736,3
Sing_argS_1736_4,107,0.61,107,Sing,argS,1736,4
Sing_argS_1736_5,91,0.65,98.3535353535353,Sing,argS,1736,5
Sing_argS_1736_6,78,0.67,87.852631578947,Sing,argS,1736,6
Sing_argS_1736_7,126,0.58,119.309734513274,Sing,argS,1736,7
Sing_argS_1736_8,129,0.62,131.457142857143,Sing,argS,1736,8
Sing_argS_1736_9,55,0.61,55,Sing,argS,1736,9
Sing_aspS_1775_1,126,0.52,109.609756097561,Sing,aspS,1775,1
Sing_aspS_1775_10,100,0.62,101.904761904762,Sing,aspS,1775,10
Sing_aspS_1775_11,110,0.66,121.340206185567,Sing,aspS,1775,11
Sing_aspS_1775_2,94,0.67,105.873684210526,Sing,aspS,1775,2
Sing_aspS_1775_3,111,0.6,108.963302752294,Sing,aspS,1775,3
Sing_aspS_1775_4,89,0.66,98.1752577319584,Sing,aspS,1775,4
Sing_aspS_1775_5,111,0.6,108.963302752294,Sing,aspS,1775,5
Sing_aspS_1775_6,122,0.58,115.522123893805,Sing,aspS,1775,6
Sing_aspS_1775_7,79,0.64,82.8725490196081,Sing,aspS,1775,7
Sing_aspS_1775_8,98,0.57,91.9824561403509,Sing,aspS,1775,8
Sing_aspS_1775_9,111,0.65,119.969696969697,Sing,aspS,1775,9
Sing_atpD_1376_1,76,0.55,68.3361344537815,Sing,atpD,1376,1
Sing_atpD_1376_2,121,0.54,107.891666666667,Sing,atpD,1376,2
Sing_atpD_1376_3,136,0.59,131.099099099099,Sing,atpD,1376,3
Sing_atpD_1376_4,103,0.57,96.6754385964912,Sing,atpD,1376,4
Sing_atpD_1376_5,108,0.58,102.265486725664,Sing,atpD,1376,5
Sing_atpD_1376_6,126,0.57,118.263157894737,Sing,atpD,1376,6
Sing_atpD_1376_7,107,0.57,100.429824561403,Sing,atpD,1376,7
Sing_atpD_1376_8,125,0.62,127.380952380953,Sing,atpD,1376,8
Sing_atpD_1376_9,91,0.55,81.8235294117647,Sing,atpD,1376,9
Sing_fusA_2051_1,109,0.51,91.8346456692913,Sing,fusA,2051,1
Sing_fusA_2051_10,135,0.54,120.375,Sing,fusA,2051,10
Sing_fusA_2051_11,153,0.49,128.905511811024,Sing,fusA,2051,11
Sing_fusA_2051_12,160,0.54,142.666666666667,Sing,fusA,2051,12
Sing_fusA_2051_13,140,0.54,124.833333333333,Sing,fusA,2051,13
Sing_fusA_2051_2,69,0.53,61.525,Sing,fusA,2051,2
Sing_fusA_2051_3,137,0.57,128.587719298246,Sing,fusA,2051,3
Sing_fusA_2051_4,123,0.52,107,Sing,fusA,2051,4
Sing_fusA_2051_5,141,0.55,126.781512605042,Sing,fusA,2051,5
Sing_fusA_2051_6,140,0.55,125.882352941176,Sing,fusA,2051,6
Sing_fusA_2051_7,81,0.57,76.0263157894737,Sing,fusA,2051,7
Sing_fusA_2051_8,149,0.59,143.630630630631,Sing,fusA,2051,8
Sing_fusA_2051_9,151,0.52,131.357723577236,Sing,fusA,2051,9
Sing_gyrA_2654_1,103,0.55,92.6134453781512,Sing,gyrA,2654,1
Sing_gyrA_2654_10,74,0.62,75.4095238095239,Sing,gyrA,2654,10
Sing_gyrA_2654_11,84,0.63,86.4230769230766,Sing,gyrA,2654,11
Sing_gyrA_2654_12,78,0.6,76.5688073394495,Sing,gyrA,2654,12
Sing_gyrA_2654_13,54,0.59,52.0540540540541,Sing,gyrA,2654,13
Sing_gyrA_2654_14,90,0.65,97.2727272727272,Sing,gyrA,2654,14
Sing_gyrA_2654_15,101,0.62,102.92380952381,Sing,gyrA,2654,15
Sing_gyrA_2654_16,87,0.63,89.509615384615,Sing,gyrA,2654,16
Sing_gyrA_2654_17,125,0.62,127.380952380953,Sing,gyrA,2654,17
Sing_gyrA_2654_2,85,0.59,81.9369369369369,Sing,gyrA,2654,2
Sing_gyrA_2654_3,78,0.64,81.8235294117649,Sing,gyrA,2654,3
Sing_gyrA_2654_4,86,0.62,87.6380952380953,Sing,gyrA,2654,4
Sing_gyrA_2654_5,102,0.64,107,Sing,gyrA,2654,5
Sing_gyrA_2654_6,52,0.59,50.1261261261261,Sing,gyrA,2654,6
Sing_gyrA_2654_7,78,0.58,73.858407079646,Sing,gyrA,2654,7
Sing_gyrA_2654_8,94,0.66,103.690721649484,Sing,gyrA,2654,8
Sing_gyrA_2654_9,76,0.65,82.1414141414141,Sing,gyrA,2654,9
Sing_gyrB_2417_1,125,0.54,111.458333333333,Sing,gyrB,2417,1
Sing_gyrB_2417_10,154,0.55,138.470588235294,Sing,gyrB,2417,10
Sing_gyrB_2417_11,84,0.52,73.0731707317073,Sing,gyrB,2417,11
Sing_gyrB_2417_12,117,0.57,109.815789473684,Sing,gyrB,2417,12
Sing_gyrB_2417_13,140,0.59,134.954954954955,Sing,gyrB,2417,13
Sing_gyrB_2417_14,109,0.56,100.543103448276,Sing,gyrB,2417,14
Sing_gyrB_2417_15,129,0.55,115.991596638655,Sing,gyrB,2417,15
Sing_gyrB_2417_2,173,0.58,163.814159292035,Sing,gyrB,2417,2
Sing_gyrB_2417_3,105,0.54,93.625,Sing,gyrB,2417,3
Sing_gyrB_2417_4,120,0.52,104.390243902439,Sing,gyrB,2417,4
Sing_gyrB_2417_5,132,0.52,114.829268292683,Sing,gyrB,2417,5
Sing_gyrB_2417_6,72,0.55,64.7394957983193,Sing,gyrB,2417,6
Sing_gyrB_2417_7,123,0.54,109.675,Sing,gyrB,2417,7
Sing_gyrB_2417_8,122,0.6,119.761467889908,Sing,gyrB,2417,8
Sing_gyrB_2417_9,134,0.6,131.54128440367,Sing,gyrB,2417,9
Sing_hisS_1289_1,138,0.56,127.293103448276,Sing,hisS,1289,1
Sing_hisS_1289_2,111,0.58,105.106194690266,Sing,hisS,1289,2
Sing_hisS_1289_3,105,0.65,113.484848484848,Sing,hisS,1289,3
Sing_hisS_1289_4,91,0.61,91,Sing,hisS,1289,4
Sing_hisS_1289_5,94,0.62,95.7904761904763,Sing,hisS,1289,5
Sing_hisS_1289_6,96,0.63,98.7692307692304,Sing,hisS,1289,6
Sing_hisS_1289_7,120,0.64,125.882352941177,Sing,hisS,1289,7
Sing_hisS_1289_8,102,0.54,90.95,Sing,hisS,1289,8
Sing_ileS_2831_1,122,0.6,119.761467889908,Sing,ileS,2831,1
Sing_ileS_2831_10,92,0.63,94.6538461538458,Sing,ileS,2831,10
Sing_ileS_2831_11,145,0.67,163.315789473684,Sing,ileS,2831,11
Sing_ileS_2831_12,98,0.62,99.8666666666668,Sing,ileS,2831,12
Sing_ileS_2831_13,113,0.62,115.152380952381,Sing,ileS,2831,13
Sing_ileS_2831_14,121,0.61,121,Sing,ileS,2831,14
Sing_ileS_2831_15,85,0.65,91.8686868686868,Sing,ileS,2831,15
Sing_ileS_2831_16,112,0.63,115.230769230769,Sing,ileS,2831,16
Sing_ileS_2831_17,96,0.65,103.757575757576,Sing,ileS,2831,17
Sing_ileS_2831_18,84,0.59,80.972972972973,Sing,ileS,2831,18
Sing_ileS_2831_2,141,0.55,126.781512605042,Sing,ileS,2831,2
Sing_ileS_2831_3,130,0.61,130,Sing,ileS,2831,3
Sing_ileS_2831_4,143,0.58,135.407079646018,Sing,ileS,2831,4
Sing_ileS_2831_5,94,0.65,101.59595959596,Sing,ileS,2831,5
Sing_ileS_2831_6,73,0.65,78.8989898989898,Sing,ileS,2831,6
Sing_ileS_2831_7,126,0.55,113.294117647059,Sing,ileS,2831,7
Sing_ileS_2831_8,101,0.58,95.637168141593,Sing,ileS,2831,8
Sing_ileS_2831_9,98,0.65,105.919191919192,Sing,ileS,2831,9
Sing_lepA_1799_1,81,0.52,70.4634146341464,Sing,lepA,1799,1
Sing_lepA_1799_10,101,0.53,90.0583333333334,Sing,lepA,1799,10
Sing_lepA_1799_11,109,0.59,105.072072072072,Sing,lepA,1799,11
Sing_lepA_1799_12,162,0.52,140.926829268293,Sing,lepA,1799,12
Sing_lepA_1799_2,119,0.59,114.711711711712,Sing,lepA,1799,2
Sing_lepA_1799_3,91,0.64,95.4607843137257,Sing,lepA,1799,3
Sing_lepA_1799_4,110,0.65,118.888888888889,Sing,lepA,1799,4
Sing_lepA_1799_5,119,0.57,111.69298245614,Sing,lepA,1799,5
Sing_lepA_1799_6,138,0.64,144.764705882353,Sing,lepA,1799,6
Sing_lepA_1799_7,102,0.61,102,Sing,lepA,1799,7
Sing_lepA_1799_8,119,0.56,109.76724137931,Sing,lepA,1799,8
Sing_lepA_1799_9,113,0.57,106.061403508772,Sing,lepA,1799,9
Sing_leuS_2606_1,156,0.49,131.433070866142,Sing,leuS,2606,1
Sing_leuS_2606_10,89,0.64,93.3627450980395,Sing,leuS,2606,10
Sing_leuS_2606_11,122,0.59,117.603603603604,Sing,leuS,2606,11
Sing_leuS_2606_12,49,0.6,48.1009174311927,Sing,leuS,2606,12
Sing_leuS_2606_13,126,0.62,128.4,Sing,leuS,2606,13
Sing_leuS_2606_14,138,0.65,149.151515151515,Sing,leuS,2606,14
Sing_leuS_2606_15,159,0.6,156.082568807339,Sing,leuS,2606,15
Sing_leuS_2606_16,126,0.65,136.181818181818,Sing,leuS,2606,16
Sing_leuS_2606_17,128,0.57,120.140350877193,Sing,leuS,2606,17
Sing_leuS_2606_2,121,0.57,113.570175438596,Sing,leuS,2606,2
Sing_leuS_2606_3,131,0.62,133.495238095238,Sing,leuS,2606,3
Sing_leuS_2606_4,119,0.59,114.711711711712,Sing,leuS,2606,4
Sing_leuS_2606_5,122,0.57,114.508771929825,Sing,leuS,2606,5
Sing_leuS_2606_6,81,0.66,89.3505154639171,Sing,leuS,2606,6
Sing_leuS_2606_7,83,0.62,84.5809523809525,Sing,leuS,2606,7
Sing_leuS_2606_8,77,0.6,75.5871559633027,Sing,leuS,2606,8
Sing_leuS_2606_9,94,0.63,96.7115384615381,Sing,leuS,2606,9
Sing_lrp10_500_1,154,0.54,137.316666666667,Sing,lrp10,500,1
Sing_lrp10_500_2,145,0.56,133.75,Sing,lrp10,500,2
Sing_lrp10_500_3,176,0.55,158.252100840336,Sing,lrp10,500,3
Sing_lrp10_500_4,150,0.55,134.873949579832,Sing,lrp10,500,4
Sing_lrp11_431_1,171,0.56,157.73275862069,Sing,lrp11,431,1
Sing_lrp11_431_2,165,0.55,148.361344537815,Sing,lrp11,431,2
Sing_lrp11_431_3,158,0.55,142.067226890756,Sing,lrp11,431,3
Sing_lrp13_428_1,143,0.51,120.48031496063,Sing,lrp13,428,1
Sing_lrp13_428_2,188,0.56,173.413793103448,Sing,lrp13,428,2
Sing_lrp13_428_3,103,0.56,95.0086206896551,Sing,lrp13,428,3
Sing_lrp14_368_1,111,0.53,98.975,Sing,lrp14,368,1
Sing_lrp14_368_2,109,0.51,91.8346456692913,Sing,lrp14,368,2
Sing_lrp14_368_3,144,0.52,125.268292682927,Sing,lrp14,368,3
Sing_lrp15_437_1,135,0.54,120.375,Sing,lrp15,437,1
Sing_lrp15_437_2,116,0.62,118.209523809524,Sing,lrp15,437,2
Sing_lrp15_437_3,141,0.54,125.725,Sing,lrp15,437,3
Sing_lrp16_413_1,104,0.52,90.4715447154472,Sing,lrp16,413,1
Sing_lrp16_413_2,104,0.58,98.4778761061947,Sing,lrp16,413,2
Sing_lrp16_413_3,134,0.56,123.603448275862,Sing,lrp16,413,3
Sing_lrp1_695_1,143,0.54,127.508333333333,Sing,lrp1,695,1
Sing_lrp1_695_2,134,0.57,125.771929824561,Sing,lrp1,695,2
Sing_lrp1_695_3,97,0.62,98.8476190476191,Sing,lrp1,695,3
Sing_lrp1_695_4,117,0.54,104.325,Sing,lrp1,695,4
Sing_lrp1_695_5,168,0.55,151.058823529412,Sing,lrp1,695,5
Sing_lrp17_386_1,140,0.54,124.833333333333,Sing,lrp17,386,1
Sing_lrp17_386_2,180,0.53,160.5,Sing,lrp17,386,2
Sing_lrp17_386_3,142,0.6,139.394495412844,Sing,lrp17,386,3
Sing_lrp18_350_1,140,0.53,124.833333333333,Sing,lrp18,350,1
Sing_lrp18_350_2,135,0.61,135,Sing,lrp18,350,2
Sing_lrp18_350_3,116,0.56,107,Sing,lrp18,350,3
Sing_lrp19_350_1,93,0.5,79.2908366533864,Sing,lrp19,350,1
Sing_lrp19_350_2,120,0.53,107,Sing,lrp19,350,2
Sing_lrp19_350_3,130,0.54,115.916666666667,Sing,lrp19,350,3
Sing_lrp20_356_1,81,0.5,69.0597609561753,Sing,lrp20,356,1
Sing_lrp20_356_2,94,0.54,83.8166666666667,Sing,lrp20,356,2
Sing_lrp20_356_3,154,0.48,125.786259541985,Sing,lrp20,356,3
Sing_lrp21_314_1,123,0.51,103.629921259843,Sing,lrp21,314,1
Sing_lrp21_314_2,78,0.52,67.8536585365854,Sing,lrp21,314,2
Sing_lrp22_248_1,38,0.59,36.6306306306306,Sing,lrp22,248,1
Sing_lrp22_248_2,135,0.56,124.525862068965,Sing,lrp22,248,2
Sing_lrp23_299_1,113,0.52,98.3008130081301,Sing,lrp23,299,1
Sing_lrp23_299_2,124,0.51,104.472440944882,Sing,lrp23,299,2
Sing_lrp24_314_1,114,0.52,99.1707317073171,Sing,lrp24,314,1
Sing_lrp24_314_2,106,0.57,99.4912280701754,Sing,lrp24,314,2
Sing_lrp25_596_1,146,0.56,134.672413793103,Sing,lrp25,596,1
Sing_lrp25_596_2,131,0.57,122.956140350877,Sing,lrp25,596,2
Sing_lrp25_596_3,127,0.56,117.146551724138,Sing,lrp25,596,3
Sing_lrp25_596_4,134,0.59,129.171171171171,Sing,lrp25,596,4
Sing_lrp2_824_1,133,0.52,115.69918699187,Sing,lrp2,824,1
Sing_lrp2_824_2,113,0.52,98.3008130081301,Sing,lrp2,824,2
Sing_lrp2_824_3,64,0.6,62.8256880733945,Sing,lrp2,824,3
Sing_lrp2_824_4,102,0.57,95.7368421052631,Sing,lrp2,824,4
Sing_lrp2_824_5,89,0.62,90.6952380952382,Sing,lrp2,824,5
Sing_lrp2_824_6,102,0.49,85.9370078740157,Sing,lrp2,824,6
Sing_lrp3_635_1,143,0.51,120.48031496063,Sing,lrp3,635,1
Sing_lrp3_635_2,112,0.54,99.8666666666667,Sing,lrp3,635,2
Sing_lrp3_635_3,83,0.52,72.2032520325203,Sing,lrp3,635,3
Sing_lrp3_635_4,135,0.59,130.135135135135,Sing,lrp3,635,4
Sing_lrp4_602_1,130,0.54,115.916666666667,Sing,lrp4,602,1
Sing_lrp4_602_2,124,0.62,126.361904761905,Sing,lrp4,602,2
Sing_lrp4_602_3,166,0.56,153.120689655172,Sing,lrp4,602,3
Sing_lrp4_602_4,167,0.49,140.700787401575,Sing,lrp4,602,4
Sing_lrp5_464_1,134,0.5,114.247011952191,Sing,lrp5,464,1
Sing_lrp5_464_2,135,0.54,120.375,Sing,lrp5,464,2
Sing_lrp5_464_3,161,0.59,155.198198198198,Sing,lrp5,464,3
Sing_lrp6_533_1,163,0.59,157.126126126126,Sing,lrp6,533,1
Sing_lrp6_533_2,179,0.54,159.608333333333,Sing,lrp6,533,2
Sing_lrp6_533_3,178,0.57,167.070175438596,Sing,lrp6,533,3
Sing_lrp6_533_4,98,0.53,87.3833333333334,Sing,lrp6,533,4
Sing_lrp7_365_1,123,0.48,100.465648854962,Sing,lrp7,365,1
Sing_lrp7_365_2,146,0.54,130.183333333333,Sing,lrp7,365,2
Sing_lrp7_365_3,122,0.54,108.783333333333,Sing,lrp7,365,3
Sing_lrp9_218_1,80,0.59,77.1171171171171,Sing,lrp9,218,1
Sing_lrp9_218_2,137,0.59,132.063063063063,Sing,lrp9,218,2
Sing_pheSa_1016_1,113,0.53,100.758333333333,Sing,pheSa,1016,1
Sing_pheSa_1016_2,109,0.61,109,Sing,pheSa,1016,2
Sing_pheSa_1016_3,118,0.57,110.754385964912,Sing,pheSa,1016,3
Sing_pheSa_1016_4,113,0.62,115.152380952381,Sing,pheSa,1016,4
Sing_pheSa_1016_5,136,0.62,138.590476190476,Sing,pheSa,1016,5
Sing_pheSa_1016_6,77,0.62,78.4666666666668,Sing,pheSa,1016,6
Sing_pheSa_1016_7,135,0.5,115.099601593626,Sing,pheSa,1016,7
Sing_pheSb_2378_1,142,0.51,119.637795275591,Sing,pheSb,2378,1
Sing_pheSb_2378_10,112,0.64,117.490196078432,Sing,pheSb,2378,10
Sing_pheSb_2378_11,95,0.64,99.6568627450983,Sing,pheSb,2378,11
Sing_pheSb_2378_12,101,0.68,116.204301075269,Sing,pheSb,2378,12
Sing_pheSb_2378_13,111,0.65,119.969696969697,Sing,pheSb,2378,13
Sing_pheSb_2378_14,118,0.64,123.784313725491,Sing,pheSb,2378,14
Sing_pheSb_2378_15,75,0.64,78.6764705882355,Sing,pheSb,2378,15
Sing_pheSb_2378_2,94,0.53,83.8166666666667,Sing,pheSb,2378,2
Sing_pheSb_2378_3,125,0.6,122.706422018349,Sing,pheSb,2378,3
Sing_pheSb_2378_4,129,0.62,131.457142857143,Sing,pheSb,2378,4
Sing_pheSb_2378_5,104,0.6,102.091743119266,Sing,pheSb,2378,5
Sing_pheSb_2378_6,121,0.62,123.304761904762,Sing,pheSb,2378,6
Sing_pheSb_2378_7,111,0.61,111,Sing,pheSb,2378,7
Sing_pheSb_2378_8,131,0.61,131,Sing,pheSb,2378,8
Sing_pheSb_2378_9,100,0.67,112.631578947368,Sing,pheSb,2378,9
Sing_polA_2777_1,151,0.57,141.728070175439,Sing,polA,2777,1
Sing_polA_2777_10,144,0.62,146.742857142857,Sing,polA,2777,10
Sing_polA_2777_11,160,0.62,163.047619047619,Sing,polA,2777,11
Sing_polA_2777_12,66,0.59,63.6216216216216,Sing,polA,2777,12
Sing_polA_2777_13,93,0.63,95.682692307692,Sing,polA,2777,13
Sing_polA_2777_14,101,0.64,105.950980392157,Sing,polA,2777,14
Sing_polA_2777_15,106,0.6,104.05504587156,Sing,polA,2777,15
Sing_polA_2777_16,101,0.57,94.7982456140351,Sing,polA,2777,16
Sing_polA_2777_17,119,0.61,119,Sing,polA,2777,17
Sing_polA_2777_18,170,0.6,166.880733944954,Sing,polA,2777,18
Sing_polA_2777_2,140,0.6,137.43119266055,Sing,polA,2777,2
Sing_polA_2777_3,119,0.67,134.031578947368,Sing,polA,2777,3
Sing_polA_2777_4,134,0.57,125.771929824561,Sing,polA,2777,4
Sing_polA_2777_5,88,0.56,81.1724137931034,Sing,polA,2777,5
Sing_polA_2777_6,177,0.57,166.131578947368,Sing,polA,2777,6
Sing_polA_2777_7,90,0.56,83.0172413793103,Sing,polA,2777,7
Sing_polA_2777_8,117,0.62,119.228571428572,Sing,polA,2777,8
Sing_polA_2777_9,87,0.59,83.8648648648649,Sing,polA,2777,9
Sing_ppK_2222_1,154,0.54,137.316666666667,Sing,ppK,2222,1
Sing_ppK_2222_10,109,0.6,107,Sing,ppK,2222,10
Sing_ppK_2222_11,101,0.6,99.1467889908257,Sing,ppK,2222,11
Sing_ppK_2222_12,121,0.57,113.570175438596,Sing,ppK,2222,12
Sing_ppK_2222_13,93,0.59,89.6486486486486,Sing,ppK,2222,13
Sing_ppK_2222_14,48,0.68,55.2258064516128,Sing,ppK,2222,14
Sing_ppK_2222_2,128,0.59,123.387387387387,Sing,ppK,2222,2
Sing_ppK_2222_3,162,0.6,159.02752293578,Sing,ppK,2222,3
Sing_ppK_2222_4,151,0.63,155.355769230769,Sing,ppK,2222,4
Sing_ppK_2222_5,98,0.59,94.4684684684685,Sing,ppK,2222,5
Sing_ppK_2222_6,87,0.63,89.509615384615,Sing,ppK,2222,6
Sing_ppK_2222_7,100,0.67,112.631578947368,Sing,ppK,2222,7
Sing_ppK_2222_8,128,0.59,123.387387387387,Sing,ppK,2222,8
Sing_ppK_2222_9,158,0.63,162.557692307692,Sing,ppK,2222,9
Sing_recA_1058_1,124,0.5,105.721115537849,Sing,recA,1058,1
Sing_recA_1058_2,103,0.59,99.2882882882883,Sing,recA,1058,2
Sing_recA_1058_3,106,0.63,109.057692307692,Sing,recA,1058,3
Sing_recA_1058_4,128,0.58,121.203539823009,Sing,recA,1058,4
Sing_recA_1058_5,130,0.57,122.017543859649,Sing,recA,1058,5
Sing_recA_1058_6,121,0.56,111.612068965517,Sing,recA,1058,6
Sing_recA_1058_7,126,0.59,121.459459459459,Sing,recA,1058,7
Sing_recG_2075_1,69,0.62,70.3142857142858,Sing,recG,2075,1
Sing_recG_2075_10,96,0.64,100.705882352941,Sing,recG,2075,10
Sing_recG_2075_11,101,0.57,94.7982456140351,Sing,recG,2075,11
Sing_recG_2075_12,103,0.69,121.109890109891,Sing,recG,2075,12
Sing_recG_2075_13,70,0.67,78.8421052631576,Sing,recG,2075,13
Sing_recG_2075_2,89,0.66,98.1752577319584,Sing,recG,2075,2
Sing_recG_2075_3,94,0.67,105.873684210526,Sing,recG,2075,3
Sing_recG_2075_4,89,0.67,100.242105263158,Sing,recG,2075,4
Sing_recG_2075_5,98,0.64,102.803921568628,Sing,recG,2075,5
Sing_recG_2075_6,95,0.66,104.793814432989,Sing,recG,2075,6
Sing_recG_2075_7,52,0.66,57.3608247422678,Sing,recG,2075,7
Sing_recG_2075_8,117,0.62,119.228571428572,Sing,recG,2075,8
Sing_recG_2075_9,122,0.68,140.365591397849,Sing,recG,2075,9
Sing_rpoB_4073_1,131,0.53,116.808333333333,Sing,rpoB,4073,1
Sing_rpoB_4073_10,165,0.59,159.054054054054,Sing,rpoB,4073,10
Sing_rpoB_4073_11,151,0.6,148.229357798165,Sing,rpoB,4073,11
Sing_rpoB_4073_12,115,0.6,112.889908256881,Sing,rpoB,4073,12
Sing_rpoB_4073_13,94,0.59,90.6126126126126,Sing,rpoB,4073,13
Sing_rpoB_4073_14,107,0.64,112.245098039216,Sing,rpoB,4073,14
Sing_rpoB_4073_15,147,0.56,135.594827586207,Sing,rpoB,4073,15
Sing_rpoB_4073_16,121,0.57,113.570175438596,Sing,rpoB,4073,16
Sing_rpoB_4073_17,142,0.56,130.98275862069,Sing,rpoB,4073,17
Sing_rpoB_4073_18,138,0.57,129.526315789474,Sing,rpoB,4073,18
Sing_rpoB_4073_19,121,0.59,116.63963963964,Sing,rpoB,4073,19
Sing_rpoB_4073_2,136,0.57,127.649122807018,Sing,rpoB,4073,2
Sing_rpoB_4073_20,54,0.55,48.5546218487395,Sing,rpoB,4073,20
Sing_rpoB_4073_21,111,0.59,107,Sing,rpoB,4073,21
Sing_rpoB_4073_22,108,0.59,104.108108108108,Sing,rpoB,4073,22
Sing_rpoB_4073_23,75,0.58,71.0176991150443,Sing,rpoB,4073,23
Sing_rpoB_4073_24,138,0.56,127.293103448276,Sing,rpoB,4073,24
Sing_rpoB_4073_25,85,0.56,78.4051724137931,Sing,rpoB,4073,25
Sing_rpoB_4073_26,104,0.57,97.6140350877193,Sing,rpoB,4073,26
Sing_rpoB_4073_3,110,0.48,89.8473282442748,Sing,rpoB,4073,3
Sing_rpoB_4073_4,109,0.58,103.212389380531,Sing,rpoB,4073,4
Sing_rpoB_4073_5,153,0.59,147.486486486486,Sing,rpoB,4073,5
Sing_rpoB_4073_6,139,0.52,120.918699186992,Sing,rpoB,4073,6
Sing_rpoB_4073_7,120,0.57,112.631578947368,Sing,rpoB,4073,7
Sing_rpoB_4073_8,166,0.56,153.120689655172,Sing,rpoB,4073,8
Sing_rpoB_4073_9,132,0.57,123.894736842105,Sing,rpoB,4073,9
Sing_rpoD_1850_1,92,0.61,92,Sing,rpoD,1850,1
Sing_rpoD_1850_10,155,0.58,146.769911504425,Sing,rpoD,1850,10
Sing_rpoD_1850_11,125,0.59,120.495495495496,Sing,rpoD,1850,11
Sing_rpoD_1850_12,129,0.51,108.685039370079,Sing,rpoD,1850,12
Sing_rpoD_1850_2,138,0.57,129.526315789474,Sing,rpoD,1850,2
Sing_rpoD_1850_3,149,0.53,132.858333333333,Sing,rpoD,1850,3
Sing_rpoD_1850_4,117,0.57,109.815789473684,Sing,rpoD,1850,4
Sing_rpoD_1850_5,109,0.56,100.543103448276,Sing,rpoD,1850,5
Sing_rpoD_1850_6,80,0.59,77.1171171171171,Sing,rpoD,1850,6
Sing_rpoD_1850_7,93,0.62,94.7714285714287,Sing,rpoD,1850,7
Sing_rpoD_1850_8,97,0.61,97,Sing,rpoD,1850,8
Sing_rpoD_1850_9,78,0.65,84.3030303030302,Sing,rpoD,1850,9
Sing_srp10_311_1,154,0.51,129.748031496063,Sing,srp10,311,1
Sing_srp10_311_2,113,0.57,106.061403508772,Sing,srp10,311,2
Sing_srp11_389_1,144,0.49,121.322834645669,Sing,srp11,389,1
Sing_srp11_389_2,135,0.58,127.83185840708,Sing,srp11,389,2
Sing_srp11_389_3,102,0.57,95.7368421052631,Sing,srp11,389,3
Sing_srp1_1685_1,136,0.47,110.242424242424,Sing,srp1,1685,1
Sing_srp1_1685_10,119,0.54,106.108333333333,Sing,srp1,1685,10
Sing_srp1_1685_11,98,0.54,87.3833333333334,Sing,srp1,1685,11
Sing_srp1_1685_2,130,0.51,109.527559055118,Sing,srp1,1685,2
Sing_srp1_1685_3,91,0.54,81.1416666666667,Sing,srp1,1685,3
Sing_srp1_1685_4,122,0.56,112.534482758621,Sing,srp1,1685,4
Sing_srp1_1685_5,102,0.55,91.7142857142857,Sing,srp1,1685,5
Sing_srp1_1685_6,118,0.56,108.844827586207,Sing,srp1,1685,6
Sing_srp1_1685_7,144,0.52,125.268292682927,Sing,srp1,1685,7
Sing_srp1_1685_8,133,0.53,118.591666666667,Sing,srp1,1685,8
Sing_srp1_1685_9,113,0.56,104.23275862069,Sing,srp1,1685,9
Sing_srp12_371_1,135,0.51,113.740157480315,Sing,srp12,371,1
Sing_srp12_371_2,133,0.54,118.591666666667,Sing,srp12,371,2
Sing_srp12_371_3,132,0.5,112.541832669323,Sing,srp12,371,3
Sing_srp13_356_1,180,0.48,147.022900763359,Sing,srp13,356,1
Sing_srp13_356_2,148,0.52,128.747967479675,Sing,srp13,356,2
Sing_srp13_356_3,120,0.56,110.689655172414,Sing,srp13,356,3
Sing_srp14_305_1,131,0.54,116.808333333333,Sing,srp14,305,1
Sing_srp14_305_2,107,0.6,105.036697247706,Sing,srp14,305,2
Sing_srp15_269_1,115,0.57,107.938596491228,Sing,srp15,269,1
Sing_srp15_269_2,187,0.52,162.674796747968,Sing,srp15,269,2
Sing_srp16_251_1,134,0.54,119.483333333333,Sing,srp16,251,1
Sing_srp16_251_2,142,0.58,134.46017699115,Sing,srp16,251,2
Sing_srp17_266_1,157,0.52,136.577235772358,Sing,srp17,266,1
Sing_srp17_266_2,95,0.53,84.7083333333334,Sing,srp17,266,2
Sing_srp18_230_1,100,0.47,81.0606060606061,Sing,srp18,230,1
Sing_srp18_230_2,88,0.62,89.6761904761906,Sing,srp18,230,2
Sing_srp19_275_1,137,0.47,111.05303030303,Sing,srp19,275,1
Sing_srp19_275_2,134,0.56,123.603448275862,Sing,srp19,275,2
Sing_srp20_278_1,133,0.53,118.591666666667,Sing,srp20,278,1
Sing_srp20_278_2,110,0.52,95.6910569105691,Sing,srp20,278,2
Sing_srp21_215_1,120,0.56,110.689655172414,Sing,srp21,215,1
Sing_srp21_215_2,102,0.52,88.7317073170732,Sing,srp21,215,2
Sing_srp2_737_1,145,0.55,130.378151260504,Sing,srp2,737,1
Sing_srp2_737_2,125,0.49,105.314960629921,Sing,srp2,737,2
Sing_srp2_737_3,74,0.55,66.5378151260504,Sing,srp2,737,3
Sing_srp2_737_4,90,0.57,84.4736842105263,Sing,srp2,737,4
Sing_srp2_737_5,112,0.57,105.122807017544,Sing,srp2,737,5
Sing_srp3_686_1,163,0.54,145.341666666667,Sing,srp3,686,1
Sing_srp3_686_2,160,0.51,134.803149606299,Sing,srp3,686,2
Sing_srp3_686_3,172,0.56,158.655172413793,Sing,srp3,686,3
Sing_srp3_686_4,139,0.57,130.464912280702,Sing,srp3,686,4
Sing_srp3_686_5,72,0.48,58.8091603053435,Sing,srp3,686,5
Sing_srp4_620_1,110,0.59,106.036036036036,Sing,srp4,620,1
Sing_srp4_620_2,58,0.57,54.4385964912281,Sing,srp4,620,2
Sing_srp4_620_3,86,0.53,76.6833333333334,Sing,srp4,620,3
Sing_srp4_620_4,139,0.53,123.941666666667,Sing,srp4,620,4
Sing_srp5_500_1,119,0.51,100.259842519685,Sing,srp5,500,1
Sing_srp5_500_2,179,0.58,169.495575221239,Sing,srp5,500,2
Sing_srp5_500_3,200,0.57,187.719298245614,Sing,srp5,500,3
Sing_srp5_500_4,155,0.5,132.151394422311,Sing,srp5,500,4
Sing_srp6_422_1,130,0.51,109.527559055118,Sing,srp6,422,1
Sing_srp6_422_2,62,0.55,55.7478991596639,Sing,srp6,422,2
Sing_srp6_422_3,152,0.59,146.522522522523,Sing,srp6,422,3
Sing_srp7_470_1,88,0.54,78.4666666666667,Sing,srp7,470,1
Sing_srp7_470_2,139,0.56,128.215517241379,Sing,srp7,470,2
Sing_srp7_470_3,103,0.59,99.2882882882883,Sing,srp7,470,3
Sing_srp8_338_1,114,0.48,93.1145038167939,Sing,srp8,338,1
Sing_srp8_338_2,151,0.56,139.284482758621,Sing,srp8,338,2
Sing_srp8_338_3,143,0.57,134.219298245614,Sing,srp8,338,3
Sing_srp9_392_1,109,0.53,97.1916666666667,Sing,srp9,392,1
Sing_srp9_392_2,138,0.56,127.293103448276,Sing,srp9,392,2
Sing_srp9_392_3,103,0.56,95.0086206896551,Sing,srp9,392,3
Sing_valS_2846_1,108,0.57,101.368421052632,Sing,valS,2846,1
Sing_valS_2846_10,124,0.63,127.576923076923,Sing,valS,2846,10
Sing_valS_2846_11,89,0.59,85.7927927927928,Sing,valS,2846,11
Sing_valS_2846_12,54,0.64,56.6470588235296,Sing,valS,2846,12
Sing_valS_2846_13,63,0.58,59.6548672566372,Sing,valS,2846,13
Sing_valS_2846_14,89,0.63,91.5673076923074,Sing,valS,2846,14
Sing_valS_2846_15,92,0.6,90.3119266055046,Sing,valS,2846,15
Sing_valS_2846_16,92,0.61,92,Sing,valS,2846,16
Sing_valS_2846_17,97,0.62,98.8476190476191,Sing,valS,2846,17
Sing_valS_2846_18,131,0.57,122.956140350877,Sing,valS,2846,18
Sing_valS_2846_2,59,0.63,60.7019230769228,Sing,valS,2846,2
Sing_valS_2846_3,119,0.62,121.266666666667,Sing,valS,2846,3
Sing_valS_2846_4,123,0.6,120.743119266055,Sing,valS,2846,4
Sing_valS_2846_5,84,0.64,88.1176470588238,Sing,valS,2846,5
Sing_valS_2846_6,111,0.62,113.114285714286,Sing,valS,2846,6
Sing_valS_2846_7,102,0.6,100.128440366972,Sing,valS,2846,7
Sing_valS_2846_8,122,0.59,117.603603603604,Sing,valS,2846,8
Sing_valS_2846_9,123,0.55,110.596638655462,Sing,valS,2846,9
