Gene,Reads,Gene_gc,Reads_gc,Class,Name,GeneLen,GeneWin
16S_1_1483_1,1760,0.52,1307.13450292398,16S,1,1483,1
16S_1_1483_10,1779,0.52,1321.24561403509,16S,1,1483,10
16S_1_1483_2,1910,0.54,1497.34567901235,16S,1,1483,2
16S_1_1483_3,1885,0.55,1505.62893081761,16S,1,1483,3
16S_1_1483_4,1920,0.56,1558.08306709265,16S,1,1483,4
16S_1_1483_5,1809,0.5,1314.69527896996,16S,1,1483,5
16S_1_1483_6,1625,0.53,1230.25335320417,16S,1,1483,6
16S_1_1483_7,1572,0.48,1070.47721179625,16S,1,1483,7
16S_1_1483_8,1682,0.55,1343.48427672956,16S,1,1483,8
16S_1_1483_9,1904,0.52,1414.08187134503,16S,1,1483,9
23S_1_2899_1,2094,0.46,1369.05019305019,23S,1,2899,1
23S_1_2899_10,1813,0.52,1346.49707602339,23S,1,2899,10
23S_1_2899_11,1699,0.52,1261.83040935672,23S,1,2899,11
23S_1_2899_12,1683,0.52,1249.94736842105,23S,1,2899,12
23S_1_2899_13,1601,0.52,1189.04678362573,23S,1,2899,13
23S_1_2899_14,1899,0.54,1488.72222222222,23S,1,2899,14
23S_1_2899_15,2202,0.49,1557.96100278551,23S,1,2899,15
23S_1_2899_16,1782,0.51,1296.92836676218,23S,1,2899,16
23S_1_2899_17,1610,0.49,1139.10863509749,23S,1,2899,17
23S_1_2899_18,1735,0.49,1227.5487465181,23S,1,2899,18
23S_1_2899_2,2053,0.53,1554.28315946349,23S,1,2899,2
23S_1_2899_3,1704,0.57,1433.16556291391,23S,1,2899,3
23S_1_2899_4,1818,0.54,1425.22222222222,23S,1,2899,4
23S_1_2899_5,1578,0.53,1194.67064083457,23S,1,2899,5
23S_1_2899_6,1381,0.52,1025.65497076023,23S,1,2899,6
23S_1_2899_7,1322,0.54,1036.38271604938,23S,1,2899,7
23S_1_2899_8,1480,0.54,1160.24691358025,23S,1,2899,8
23S_1_2899_9,1578,0.48,1074.56300268096,23S,1,2899,9
Sing_alaS_2678_1,195,0.69,236.985645933015,Sing,alaS,2678,1
Sing_alaS_2678_10,294,0.6,268.618705035971,Sing,alaS,2678,10
Sing_alaS_2678_11,243,0.66,269.528384279477,Sing,alaS,2678,11
Sing_alaS_2678_12,220,0.67,249.464285714285,Sing,alaS,2678,12
Sing_alaS_2678_13,200,0.61,186.764705882353,Sing,alaS,2678,13
Sing_alaS_2678_14,220,0.69,267.368421052632,Sing,alaS,2678,14
Sing_alaS_2678_15,283,0.54,221.858024691358,Sing,alaS,2678,15
Sing_alaS_2678_16,289,0.59,256.664335664336,Sing,alaS,2678,16
Sing_alaS_2678_17,263,0.56,213.424920127795,Sing,alaS,2678,17
Sing_alaS_2678_2,240,0.65,257.215189873418,Sing,alaS,2678,2
Sing_alaS_2678_3,284,0.64,290.870967741936,Sing,alaS,2678,3
Sing_alaS_2678_4,260,0.62,251.102661596958,Sing,alaS,2678,4
Sing_alaS_2678_5,256,0.62,247.239543726236,Sing,alaS,2678,5
Sing_alaS_2678_6,276,0.6,252.172661870503,Sing,alaS,2678,6
Sing_alaS_2678_7,281,0.65,301.156118143461,Sing,alaS,2678,7
Sing_alaS_2678_8,246,0.65,263.645569620254,Sing,alaS,2678,8
Sing_alaS_2678_9,248,0.67,281.214285714285,Sing,alaS,2678,9
Sing_argS_1763_1,236,0.61,220.382352941177,Sing,argS,1763,1
Sing_argS_1763_10,283,0.61,264.27205882353,Sing,argS,1763,10
Sing_argS_1763_11,166,0.69,201.741626794259,Sing,argS,1763,11
Sing_argS_1763_2,196,0.64,200.741935483872,Sing,argS,1763,2
Sing_argS_1763_3,217,0.67,246.0625,Sing,argS,1763,3
Sing_argS_1763_4,297,0.62,286.836501901141,Sing,argS,1763,4
Sing_argS_1763_5,291,0.62,281.041825095057,Sing,argS,1763,5
Sing_argS_1763_6,278,0.63,276.909803921569,Sing,argS,1763,6
Sing_argS_1763_7,260,0.67,294.821428571428,Sing,argS,1763,7
Sing_argS_1763_8,236,0.65,252.928270042195,Sing,argS,1763,8
Sing_argS_1763_9,299,0.6,273.187050359712,Sing,argS,1763,9
Sing_aspS_1775_1,227,0.58,194.790540540541,Sing,aspS,1775,1
Sing_aspS_1775_10,208,0.62,200.882129277566,Sing,aspS,1775,10
Sing_aspS_1775_11,238,0.64,243.75806451613,Sing,aspS,1775,11
Sing_aspS_1775_2,251,0.64,257.072580645162,Sing,aspS,1775,2
Sing_aspS_1775_3,220,0.65,235.7805907173,Sing,aspS,1775,3
Sing_aspS_1775_4,257,0.65,275.434599156119,Sing,aspS,1775,4
Sing_aspS_1775_5,202,0.62,195.087452471483,Sing,aspS,1775,5
Sing_aspS_1775_6,220,0.65,235.7805907173,Sing,aspS,1775,6
Sing_aspS_1775_7,235,0.62,226.958174904943,Sing,aspS,1775,7
Sing_aspS_1775_8,198,0.61,184.897058823529,Sing,aspS,1775,8
Sing_aspS_1775_9,220,0.65,235.7805907173,Sing,aspS,1775,9
Sing_atpD_599_1,258,0.62,249.171102661597,Sing,atpD,599,1
Sing_atpD_599_2,289,0.62,279.110266159696,Sing,atpD,599,2
Sing_atpD_599_3,399,0.57,335.582781456954,Sing,atpD,599,3
Sing_atpD_599_4,370,0.57,311.192052980133,Sing,atpD,599,4
Sing_fusA_1949_1,233,0.57,195.966887417219,Sing,fusA,1949,1
Sing_fusA_1949_10,333,0.54,261.055555555556,Sing,fusA,1949,10
Sing_fusA_1949_11,319,0.6,291.460431654676,Sing,fusA,1949,11
Sing_fusA_1949_12,371,0.57,312.033112582782,Sing,fusA,1949,12
Sing_fusA_1949_13,405,0.44,255.577639751553,Sing,fusA,1949,13
Sing_fusA_1949_2,320,0.6,292.374100719424,Sing,fusA,1949,2
Sing_fusA_1949_3,292,0.57,245.58940397351,Sing,fusA,1949,3
Sing_fusA_1949_4,400,0.56,324.600638977636,Sing,fusA,1949,4
Sing_fusA_1949_5,350,0.57,294.370860927152,Sing,fusA,1949,5
Sing_fusA_1949_6,258,0.61,240.926470588235,Sing,fusA,1949,6
Sing_fusA_1949_7,407,0.57,342.311258278146,Sing,fusA,1949,7
Sing_fusA_1949_8,431,0.55,344.25786163522,Sing,fusA,1949,8
Sing_fusA_1949_9,377,0.57,317.079470198676,Sing,fusA,1949,9
Sing_gyrA_2804_1,252,0.54,197.555555555556,Sing,gyrA,2804,1
Sing_gyrA_2804_10,254,0.64,260.145161290323,Sing,gyrA,2804,10
Sing_gyrA_2804_11,269,0.64,275.50806451613,Sing,gyrA,2804,11
Sing_gyrA_2804_12,247,0.6,225.676258992806,Sing,gyrA,2804,12
Sing_gyrA_2804_13,200,0.64,204.83870967742,Sing,gyrA,2804,13
Sing_gyrA_2804_14,244,0.62,235.650190114068,Sing,gyrA,2804,14
Sing_gyrA_2804_15,269,0.62,259.794676806084,Sing,gyrA,2804,15
Sing_gyrA_2804_16,175,0.65,187.552742616034,Sing,gyrA,2804,16
Sing_gyrA_2804_17,202,0.6,184.561151079137,Sing,gyrA,2804,17
Sing_gyrA_2804_18,250,0.66,277.292576419215,Sing,gyrA,2804,18
Sing_gyrA_2804_2,288,0.62,278.144486692015,Sing,gyrA,2804,2
Sing_gyrA_2804_3,263,0.62,254,Sing,gyrA,2804,3
Sing_gyrA_2804_4,289,0.61,269.875,Sing,gyrA,2804,4
Sing_gyrA_2804_5,255,0.6,232.985611510791,Sing,gyrA,2804,5
Sing_gyrA_2804_6,246,0.62,237.58174904943,Sing,gyrA,2804,6
Sing_gyrA_2804_7,319,0.59,283.307692307692,Sing,gyrA,2804,7
Sing_gyrA_2804_8,299,0.66,331.641921397381,Sing,gyrA,2804,8
Sing_gyrA_2804_9,260,0.65,278.649789029537,Sing,gyrA,2804,9
Sing_gyrB_2417_1,419,0.51,304.945558739255,Sing,gyrB,2417,1
Sing_gyrB_2417_10,362,0.52,268.853801169591,Sing,gyrB,2417,10
Sing_gyrB_2417_11,448,0.58,384.432432432432,Sing,gyrB,2417,11
Sing_gyrB_2417_12,354,0.54,277.518518518519,Sing,gyrB,2417,12
Sing_gyrB_2417_13,447,0.58,383.574324324324,Sing,gyrB,2417,13
Sing_gyrB_2417_14,419,0.57,352.403973509934,Sing,gyrB,2417,14
Sing_gyrB_2417_15,399,0.6,364.553956834532,Sing,gyrB,2417,15
Sing_gyrB_2417_2,458,0.54,359.04938271605,Sing,gyrB,2417,2
Sing_gyrB_2417_3,390,0.57,328.013245033113,Sing,gyrB,2417,3
Sing_gyrB_2417_4,341,0.61,318.433823529412,Sing,gyrB,2417,4
Sing_gyrB_2417_5,394,0.6,359.985611510791,Sing,gyrB,2417,5
Sing_gyrB_2417_6,322,0.59,285.972027972028,Sing,gyrB,2417,6
Sing_gyrB_2417_7,341,0.55,272.37106918239,Sing,gyrB,2417,7
Sing_gyrB_2417_8,365,0.63,363.56862745098,Sing,gyrB,2417,8
Sing_gyrB_2417_9,324,0.58,278.027027027027,Sing,gyrB,2417,9
Sing_hisS_1289_1,276,0.62,266.555133079848,Sing,hisS,1289,1
Sing_hisS_1289_2,290,0.62,280.076045627376,Sing,hisS,1289,2
Sing_hisS_1289_3,242,0.65,259.35864978903,Sing,hisS,1289,3
Sing_hisS_1289_4,282,0.64,288.822580645162,Sing,hisS,1289,4
Sing_hisS_1289_5,265,0.67,300.491071428571,Sing,hisS,1289,5
Sing_hisS_1289_6,186,0.65,199.341772151899,Sing,hisS,1289,6
Sing_hisS_1289_7,199,0.71,266.031578947369,Sing,hisS,1289,7
Sing_hisS_1289_8,299,0.59,265.545454545455,Sing,hisS,1289,8
Sing_ileS_2834_1,232,0.6,211.971223021583,Sing,ileS,2834,1
Sing_ileS_2834_10,250,0.67,283.482142857142,Sing,ileS,2834,10
Sing_ileS_2834_11,265,0.68,310.184331797236,Sing,ileS,2834,11
Sing_ileS_2834_12,242,0.65,259.35864978903,Sing,ileS,2834,12
Sing_ileS_2834_13,283,0.67,320.901785714285,Sing,ileS,2834,13
Sing_ileS_2834_14,257,0.62,248.205323193916,Sing,ileS,2834,14
Sing_ileS_2834_15,246,0.62,237.58174904943,Sing,ileS,2834,15
Sing_ileS_2834_16,238,0.65,255.071729957807,Sing,ileS,2834,16
Sing_ileS_2834_17,234,0.7,300.181818181818,Sing,ileS,2834,17
Sing_ileS_2834_18,260,0.61,242.794117647059,Sing,ileS,2834,18
Sing_ileS_2834_2,231,0.6,211.057553956834,Sing,ileS,2834,2
Sing_ileS_2834_3,304,0.6,277.755395683453,Sing,ileS,2834,3
Sing_ileS_2834_4,345,0.57,290.165562913907,Sing,ileS,2834,4
Sing_ileS_2834_5,271,0.64,277.556451612904,Sing,ileS,2834,5
Sing_ileS_2834_6,265,0.66,293.930131004368,Sing,ileS,2834,6
Sing_ileS_2834_7,276,0.59,245.118881118881,Sing,ileS,2834,7
Sing_ileS_2834_8,306,0.61,285.75,Sing,ileS,2834,8
Sing_ileS_2834_9,294,0.63,292.847058823529,Sing,ileS,2834,9
Sing_lepA_1799_1,312,0.54,244.592592592593,Sing,lepA,1799,1
Sing_lepA_1799_10,252,0.65,270.075949367089,Sing,lepA,1799,10
Sing_lepA_1799_11,297,0.6,271.359712230216,Sing,lepA,1799,11
Sing_lepA_1799_12,343,0.55,273.96855345912,Sing,lepA,1799,12
Sing_lepA_1799_2,289,0.57,243.066225165563,Sing,lepA,1799,2
Sing_lepA_1799_3,316,0.57,265.774834437086,Sing,lepA,1799,3
Sing_lepA_1799_4,323,0.57,271.662251655629,Sing,lepA,1799,4
Sing_lepA_1799_5,290,0.58,248.851351351351,Sing,lepA,1799,5
Sing_lepA_1799_6,274,0.6,250.345323741007,Sing,lepA,1799,6
Sing_lepA_1799_7,324,0.62,312.912547528517,Sing,lepA,1799,7
Sing_lepA_1799_8,284,0.6,259.482014388489,Sing,lepA,1799,8
Sing_lepA_1799_9,259,0.66,287.275109170307,Sing,lepA,1799,9
Sing_leuS_2606_1,206,0.64,210.983870967743,Sing,leuS,2606,1
Sing_leuS_2606_10,252,0.61,235.323529411765,Sing,leuS,2606,10
Sing_leuS_2606_11,255,0.63,254,Sing,leuS,2606,11
Sing_leuS_2606_12,249,0.66,276.183406113538,Sing,leuS,2606,12
Sing_leuS_2606_13,276,0.58,236.837837837838,Sing,leuS,2606,13
Sing_leuS_2606_14,259,0.62,250.136882129277,Sing,leuS,2606,14
Sing_leuS_2606_15,292,0.57,245.58940397351,Sing,leuS,2606,15
Sing_leuS_2606_16,284,0.62,274.281368821293,Sing,leuS,2606,16
Sing_leuS_2606_17,331,0.57,278.390728476821,Sing,leuS,2606,17
Sing_leuS_2606_2,188,0.66,208.52401746725,Sing,leuS,2606,2
Sing_leuS_2606_3,241,0.64,246.830645161291,Sing,leuS,2606,3
Sing_leuS_2606_4,283,0.66,313.895196506551,Sing,leuS,2606,4
Sing_leuS_2606_5,258,0.62,249.171102661597,Sing,leuS,2606,5
Sing_leuS_2606_6,270,0.64,276.532258064517,Sing,leuS,2606,6
Sing_leuS_2606_7,287,0.61,268.007352941177,Sing,leuS,2606,7
Sing_leuS_2606_8,264,0.67,299.357142857142,Sing,leuS,2606,8
Sing_leuS_2606_9,245,0.65,262.573839662448,Sing,leuS,2606,9
Sing_lrp10_500_1,430,0.56,348.945686900958,Sing,lrp10,500,1
Sing_lrp10_500_2,386,0.57,324.649006622517,Sing,lrp10,500,2
Sing_lrp10_500_3,402,0.55,321.094339622642,Sing,lrp10,500,3
Sing_lrp10_500_4,399,0.52,296.333333333333,Sing,lrp10,500,4
Sing_lrp11_431_1,337,0.56,273.476038338658,Sing,lrp11,431,1
Sing_lrp11_431_2,348,0.56,282.402555910543,Sing,lrp11,431,2
Sing_lrp11_431_3,311,0.62,300.357414448669,Sing,lrp11,431,3
Sing_lrp13_380_1,299,0.54,234.401234567901,Sing,lrp13,380,1
Sing_lrp13_380_2,329,0.59,292.188811188811,Sing,lrp13,380,2
Sing_lrp13_380_3,305,0.54,239.104938271605,Sing,lrp13,380,3
Sing_lrp14_368_1,376,0.52,279.251461988304,Sing,lrp14,368,1
Sing_lrp14_368_2,365,0.57,306.986754966888,Sing,lrp14,368,2
Sing_lrp14_368_3,351,0.56,284.837060702875,Sing,lrp14,368,3
Sing_lrp15_434_1,350,0.59,310.839160839161,Sing,lrp15,434,1
Sing_lrp15_434_2,345,0.5,250.729613733906,Sing,lrp15,434,2
Sing_lrp15_434_3,344,0.66,381.55458515284,Sing,lrp15,434,3
Sing_lrp16_413_1,311,0.56,252.376996805112,Sing,lrp16,413,1
Sing_lrp16_413_2,312,0.55,249.207547169811,Sing,lrp16,413,2
Sing_lrp16_413_3,350,0.61,326.838235294118,Sing,lrp16,413,3
Sing_lrp1_695_1,348,0.6,317.956834532374,Sing,lrp1,695,1
Sing_lrp1_695_2,322,0.59,285.972027972028,Sing,lrp1,695,2
Sing_lrp1_695_3,247,0.66,273.965065502184,Sing,lrp1,695,3
Sing_lrp1_695_4,283,0.57,238.019867549669,Sing,lrp1,695,4
Sing_lrp1_695_5,372,0.59,330.377622377622,Sing,lrp1,695,5
Sing_lrp17_386_1,342,0.52,254,Sing,lrp17,386,1
Sing_lrp17_386_2,322,0.58,276.310810810811,Sing,lrp17,386,2
Sing_lrp17_386_3,305,0.53,230.909090909091,Sing,lrp17,386,3
Sing_lrp18_350_1,279,0.56,226.408945686901,Sing,lrp18,350,1
Sing_lrp18_350_2,301,0.63,299.819607843137,Sing,lrp18,350,2
Sing_lrp18_350_3,310,0.54,243.024691358025,Sing,lrp18,350,3
Sing_lrp19_350_1,332,0.55,265.182389937107,Sing,lrp19,350,1
Sing_lrp19_350_2,356,0.58,305.486486486486,Sing,lrp19,350,2
Sing_lrp19_350_3,315,0.58,270.304054054054,Sing,lrp19,350,3
Sing_lrp20_356_1,356,0.5,258.723891273248,Sing,lrp20,356,1
Sing_lrp20_356_2,344,0.57,289.324503311258,Sing,lrp20,356,2
Sing_lrp20_356_3,316,0.53,239.23695976155,Sing,lrp20,356,3
Sing_lrp21_395_1,308,0.57,259.046357615894,Sing,lrp21,395,1
Sing_lrp21_395_2,418,0.54,327.691358024692,Sing,lrp21,395,2
Sing_lrp21_395_3,410,0.54,321.41975308642,Sing,lrp21,395,3
Sing_lrp22_248_1,418,0.56,339.207667731629,Sing,lrp22,248,1
Sing_lrp22_248_2,406,0.56,329.4696485623,Sing,lrp22,248,2
Sing_lrp23_302_1,396,0.55,316.301886792453,Sing,lrp23,302,1
Sing_lrp23_302_2,393,0.53,297.532041728763,Sing,lrp23,302,2
Sing_lrp24_314_1,367,0.49,259.660167130919,Sing,lrp24,314,1
Sing_lrp24_314_2,383,0.56,310.805111821086,Sing,lrp24,314,2
Sing_lrp25_998_1,310,0.59,275.314685314685,Sing,lrp25,998,1
Sing_lrp25_998_2,391,0.57,328.854304635762,Sing,lrp25,998,2
Sing_lrp25_998_3,295,0.57,248.112582781457,Sing,lrp25,998,3
Sing_lrp25_998_4,236,0.6,215.625899280575,Sing,lrp25,998,4
Sing_lrp25_998_5,250,0.57,210.264900662252,Sing,lrp25,998,5
Sing_lrp25_998_6,291,0.58,249.709459459459,Sing,lrp25,998,6
Sing_lrp25_998_7,279,0.64,285.750000000001,Sing,lrp25,998,7
Sing_lrp27_257_1,329,0.51,239.444126074499,Sing,lrp27,257,1
Sing_lrp27_257_2,348,0.54,272.814814814815,Sing,lrp27,257,2
Sing_lrp2_824_1,345,0.51,251.0888252149,Sing,lrp2,824,1
Sing_lrp2_824_2,342,0.62,330.296577946768,Sing,lrp2,824,2
Sing_lrp2_824_3,277,0.62,267.520912547528,Sing,lrp2,824,3
Sing_lrp2_824_4,290,0.58,248.851351351351,Sing,lrp2,824,4
Sing_lrp2_824_5,362,0.54,283.79012345679,Sing,lrp2,824,5
Sing_lrp2_824_6,393,0.57,330.53642384106,Sing,lrp2,824,6
Sing_lrp31_260_1,193,0.64,197.66935483871,Sing,lrp31,260,1
Sing_lrp31_260_2,224,0.63,223.121568627451,Sing,lrp31,260,2
Sing_lrp3_635_1,279,0.57,234.655629139073,Sing,lrp3,635,1
Sing_lrp3_635_2,365,0.59,324.160839160839,Sing,lrp3,635,2
Sing_lrp3_635_3,357,0.54,279.87037037037,Sing,lrp3,635,3
Sing_lrp3_635_4,355,0.58,304.628378378378,Sing,lrp3,635,4
Sing_lrp4_602_1,409,0.55,326.685534591195,Sing,lrp4,602,1
Sing_lrp4_602_2,372,0.55,297.132075471698,Sing,lrp4,602,2
Sing_lrp4_602_3,340,0.59,301.958041958042,Sing,lrp4,602,3
Sing_lrp4_602_4,284,0.62,274.281368821293,Sing,lrp4,602,4
Sing_lrp5_539_1,262,0.56,212.613418530351,Sing,lrp5,539,1
Sing_lrp5_539_2,407,0.59,361.461538461538,Sing,lrp5,539,2
Sing_lrp5_539_3,435,0.54,341.018518518519,Sing,lrp5,539,3
Sing_lrp5_539_4,387,0.52,287.421052631579,Sing,lrp5,539,4
Sing_lrp6_533_1,266,0.52,197.555555555555,Sing,lrp6,533,1
Sing_lrp6_533_2,276,0.57,232.132450331126,Sing,lrp6,533,2
Sing_lrp6_533_3,376,0.59,333.93006993007,Sing,lrp6,533,3
Sing_lrp6_533_4,305,0.54,239.104938271605,Sing,lrp6,533,4
Sing_lrp7_365_1,391,0.43,246.436724565757,Sing,lrp7,365,1
Sing_lrp7_365_2,292,0.6,266.791366906475,Sing,lrp7,365,2
Sing_lrp7_365_3,337,0.56,273.476038338658,Sing,lrp7,365,3
Sing_lrp9_446_1,295,0.54,231.265432098766,Sing,lrp9,446,1
Sing_lrp9_446_2,263,0.62,254,Sing,lrp9,446,2
Sing_lrp9_446_3,312,0.62,301.32319391635,Sing,lrp9,446,3
Sing_pheSa_1016_1,277,0.56,224.785942492013,Sing,pheSa,1016,1
Sing_pheSa_1016_2,268,0.61,250.264705882353,Sing,pheSa,1016,2
Sing_pheSa_1016_3,259,0.65,277.578059071731,Sing,pheSa,1016,3
Sing_pheSa_1016_4,292,0.62,282.007604562738,Sing,pheSa,1016,4
Sing_pheSa_1016_5,273,0.62,263.657794676806,Sing,pheSa,1016,5
Sing_pheSa_1016_6,307,0.64,314.42741935484,Sing,pheSa,1016,6
Sing_pheSa_1016_7,245,0.57,206.059602649007,Sing,pheSa,1016,7
Sing_pheSb_2378_1,193,0.55,154.157232704403,Sing,pheSb,2378,1
Sing_pheSb_2378_10,124,0.69,150.698564593302,Sing,pheSb,2378,10
Sing_pheSb_2378_11,170,0.67,192.767857142857,Sing,pheSb,2378,11
Sing_pheSb_2378_12,213,0.65,228.278481012659,Sing,pheSb,2378,12
Sing_pheSb_2378_13,231,0.69,280.736842105263,Sing,pheSb,2378,13
Sing_pheSb_2378_14,238,0.65,255.071729957807,Sing,pheSb,2378,14
Sing_pheSb_2378_15,380,0.51,276.561604584527,Sing,pheSb,2378,15
Sing_pheSb_2378_2,186,0.69,226.047846889952,Sing,pheSb,2378,2
Sing_pheSb_2378_3,191,0.65,204.700421940929,Sing,pheSb,2378,3
Sing_pheSb_2378_4,194,0.67,219.982142857143,Sing,pheSb,2378,4
Sing_pheSb_2378_5,157,0.75,255.628205128205,Sing,pheSb,2378,5
Sing_pheSb_2378_6,177,0.65,189.696202531646,Sing,pheSb,2378,6
Sing_pheSb_2378_7,239,0.69,290.459330143541,Sing,pheSb,2378,7
Sing_pheSb_2378_8,136,0.7,174.464646464646,Sing,pheSb,2378,8
Sing_pheSb_2378_9,98,0.65,105.029535864979,Sing,pheSb,2378,9
Sing_polA_2828_1,445,0.55,355.440251572327,Sing,polA,2828,1
Sing_polA_2828_10,274,0.62,264.623574144487,Sing,polA,2828,10
Sing_polA_2828_11,243,0.68,284.433179723503,Sing,polA,2828,11
Sing_polA_2828_12,230,0.62,222.12927756654,Sing,polA,2828,12
Sing_polA_2828_13,294,0.62,283.939163498099,Sing,polA,2828,13
Sing_polA_2828_14,299,0.63,297.827450980392,Sing,polA,2828,14
Sing_polA_2828_15,325,0.64,332.862903225808,Sing,polA,2828,15
Sing_polA_2828_16,292,0.64,299.064516129033,Sing,polA,2828,16
Sing_polA_2828_17,196,0.67,222.25,Sing,polA,2828,17
Sing_polA_2828_18,207,0.69,251.569377990431,Sing,polA,2828,18
Sing_polA_2828_2,364,0.61,339.911764705882,Sing,polA,2828,2
Sing_polA_2828_3,257,0.68,300.820276497697,Sing,polA,2828,3
Sing_polA_2828_4,287,0.59,254.888111888112,Sing,polA,2828,4
Sing_polA_2828_5,267,0.64,273.459677419356,Sing,polA,2828,5
Sing_polA_2828_6,286,0.66,317.222707423582,Sing,polA,2828,6
Sing_polA_2828_7,304,0.6,277.755395683453,Sing,polA,2828,7
Sing_polA_2828_8,261,0.64,267.314516129033,Sing,polA,2828,8
Sing_polA_2828_9,264,0.67,299.357142857142,Sing,polA,2828,9
Sing_ppK_2213_1,385,0.58,330.371621621622,Sing,ppK,2213,1
Sing_ppK_2213_10,281,0.66,311.676855895198,Sing,ppK,2213,10
Sing_ppK_2213_11,266,0.61,248.39705882353,Sing,ppK,2213,11
Sing_ppK_2213_12,311,0.65,333.308016877638,Sing,ppK,2213,12
Sing_ppK_2213_13,313,0.58,268.587837837838,Sing,ppK,2213,13
Sing_ppK_2213_14,359,0.62,346.714828897338,Sing,ppK,2213,14
Sing_ppK_2213_2,397,0.62,383.414448669201,Sing,ppK,2213,2
Sing_ppK_2213_3,323,0.57,271.662251655629,Sing,ppK,2213,3
Sing_ppK_2213_4,252,0.63,251.011764705882,Sing,ppK,2213,4
Sing_ppK_2213_5,246,0.64,251.951612903227,Sing,ppK,2213,5
Sing_ppK_2213_6,261,0.64,267.314516129033,Sing,ppK,2213,6
Sing_ppK_2213_7,335,0.62,323.536121673004,Sing,ppK,2213,7
Sing_ppK_2213_8,295,0.6,269.532374100719,Sing,ppK,2213,8
Sing_ppK_2213_9,257,0.64,263.217741935485,Sing,ppK,2213,9
Sing_pyrG_1631_1,287,0.56,232.900958466454,Sing,pyrG,1631,1
Sing_pyrG_1631_10,245,0.62,236.615969581749,Sing,pyrG,1631,10
Sing_pyrG_1631_11,256,0.63,254.996078431373,Sing,pyrG,1631,11
Sing_pyrG_1631_2,310,0.6,283.237410071942,Sing,pyrG,1631,2
Sing_pyrG_1631_3,275,0.62,265.589353612167,Sing,pyrG,1631,3
Sing_pyrG_1631_4,259,0.64,265.266129032259,Sing,pyrG,1631,4
Sing_pyrG_1631_5,259,0.65,277.578059071731,Sing,pyrG,1631,5
Sing_pyrG_1631_6,371,0.59,329.48951048951,Sing,pyrG,1631,6
Sing_pyrG_1631_7,323,0.56,262.115015974441,Sing,pyrG,1631,7
Sing_pyrG_1631_8,340,0.6,310.647482014388,Sing,pyrG,1631,8
Sing_pyrG_1631_9,252,0.66,279.510917030569,Sing,pyrG,1631,9
Sing_recA_1043_1,281,0.59,249.559440559441,Sing,recA,1043,1
Sing_recA_1043_2,312,0.6,285.064748201439,Sing,recA,1043,2
Sing_recA_1043_3,334,0.6,305.165467625899,Sing,recA,1043,3
Sing_recA_1043_4,352,0.58,302.054054054054,Sing,recA,1043,4
Sing_recA_1043_5,357,0.61,333.375,Sing,recA,1043,5
Sing_recA_1043_6,289,0.64,295.991935483872,Sing,recA,1043,6
Sing_recA_1043_7,362,0.59,321.496503496503,Sing,recA,1043,7
Sing_recG_2075_1,246,0.62,237.58174904943,Sing,recG,2075,1
Sing_recG_2075_10,263,0.66,291.711790393014,Sing,recG,2075,10
Sing_recG_2075_11,279,0.57,234.655629139073,Sing,recG,2075,11
Sing_recG_2075_12,235,0.65,251.856540084389,Sing,recG,2075,12
Sing_recG_2075_13,277,0.64,283.701612903227,Sing,recG,2075,13
Sing_recG_2075_2,243,0.65,260.430379746836,Sing,recG,2075,2
Sing_recG_2075_3,276,0.62,266.555133079848,Sing,recG,2075,3
Sing_recG_2075_4,209,0.69,254,Sing,recG,2075,4
Sing_recG_2075_5,205,0.68,239.953917050692,Sing,recG,2075,5
Sing_recG_2075_6,164,0.68,191.963133640554,Sing,recG,2075,6
Sing_recG_2075_7,249,0.66,276.183406113538,Sing,recG,2075,7
Sing_recG_2075_8,259,0.67,293.6875,Sing,recG,2075,8
Sing_recG_2075_9,256,0.67,290.285714285714,Sing,recG,2075,9
Sing_rpoB_4073_1,350,0.51,254.727793696275,Sing,rpoB,4073,1
Sing_rpoB_4073_10,277,0.64,283.701612903227,Sing,rpoB,4073,10
Sing_rpoB_4073_11,231,0.65,247.569620253165,Sing,rpoB,4073,11
Sing_rpoB_4073_12,269,0.61,251.198529411765,Sing,rpoB,4073,12
Sing_rpoB_4073_13,274,0.63,272.925490196078,Sing,rpoB,4073,13
Sing_rpoB_4073_14,250,0.67,283.482142857142,Sing,rpoB,4073,14
Sing_rpoB_4073_15,348,0.58,298.621621621622,Sing,rpoB,4073,15
Sing_rpoB_4073_16,325,0.61,303.492647058824,Sing,rpoB,4073,16
Sing_rpoB_4073_17,281,0.6,256.741007194244,Sing,rpoB,4073,17
Sing_rpoB_4073_18,304,0.64,311.354838709678,Sing,rpoB,4073,18
Sing_rpoB_4073_19,264,0.64,270.387096774194,Sing,rpoB,4073,19
Sing_rpoB_4073_2,333,0.59,295.741258741259,Sing,rpoB,4073,2
Sing_rpoB_4073_20,274,0.59,243.342657342657,Sing,rpoB,4073,20
Sing_rpoB_4073_21,277,0.62,267.520912547528,Sing,rpoB,4073,21
Sing_rpoB_4073_22,168,0.62,162.250950570342,Sing,rpoB,4073,22
Sing_rpoB_4073_23,228,0.59,202.48951048951,Sing,rpoB,4073,23
Sing_rpoB_4073_24,273,0.59,242.454545454545,Sing,rpoB,4073,24
Sing_rpoB_4073_25,315,0.6,287.805755395683,Sing,rpoB,4073,25
Sing_rpoB_4073_26,296,0.57,248.953642384106,Sing,rpoB,4073,26
Sing_rpoB_4073_3,283,0.57,238.019867549669,Sing,rpoB,4073,3
Sing_rpoB_4073_4,299,0.59,265.545454545455,Sing,rpoB,4073,4
Sing_rpoB_4073_5,314,0.6,286.892086330935,Sing,rpoB,4073,5
Sing_rpoB_4073_6,281,0.59,249.559440559441,Sing,rpoB,4073,6
Sing_rpoB_4073_7,319,0.62,308.083650190114,Sing,rpoB,4073,7
Sing_rpoB_4073_8,387,0.56,314.051118210862,Sing,rpoB,4073,8
Sing_rpoB_4073_9,354,0.56,287.271565495207,Sing,rpoB,4073,9
Sing_rpoD_1847_1,268,0.6,244.863309352518,Sing,rpoD,1847,1
Sing_rpoD_1847_10,292,0.59,259.328671328671,Sing,rpoD,1847,10
Sing_rpoD_1847_11,344,0.62,332.228136882129,Sing,rpoD,1847,11
Sing_rpoD_1847_12,401,0.51,291.845272206304,Sing,rpoD,1847,12
Sing_rpoD_1847_2,349,0.6,318.870503597122,Sing,rpoD,1847,2
Sing_rpoD_1847_3,345,0.57,290.165562913907,Sing,rpoD,1847,3
Sing_rpoD_1847_4,333,0.6,304.251798561151,Sing,rpoD,1847,4
Sing_rpoD_1847_5,366,0.57,307.827814569537,Sing,rpoD,1847,5
Sing_rpoD_1847_6,310,0.6,283.237410071942,Sing,rpoD,1847,6
Sing_rpoD_1847_7,279,0.64,285.750000000001,Sing,rpoD,1847,7
Sing_rpoD_1847_8,230,0.64,235.564516129033,Sing,rpoD,1847,8
Sing_rpoD_1847_9,221,0.64,226.346774193549,Sing,rpoD,1847,9
Sing_srp10_311_1,304,0.54,238.320987654321,Sing,srp10,311,1
Sing_srp10_311_2,381,0.55,304.320754716981,Sing,srp10,311,2
Sing_srp11_389_1,315,0.53,238.479880774963,Sing,srp11,389,1
Sing_srp11_389_2,380,0.62,366.996197718631,Sing,srp11,389,2
Sing_srp11_389_3,367,0.53,277.847988077496,Sing,srp11,389,3
Sing_srp1_1679_1,305,0.51,221.977077363897,Sing,srp1,1679,1
Sing_srp1_1679_10,268,0.58,229.972972972973,Sing,srp1,1679,10
Sing_srp1_1679_11,321,0.48,218.58981233244,Sing,srp1,1679,11
Sing_srp1_1679_2,280,0.58,240.27027027027,Sing,srp1,1679,2
Sing_srp1_1679_3,331,0.59,293.965034965035,Sing,srp1,1679,3
Sing_srp1_1679_4,321,0.57,269.980132450331,Sing,srp1,1679,4
Sing_srp1_1679_5,288,0.58,247.135135135135,Sing,srp1,1679,5
Sing_srp1_1679_6,321,0.6,293.287769784172,Sing,srp1,1679,6
Sing_srp1_1679_7,397,0.53,300.560357675112,Sing,srp1,1679,7
Sing_srp1_1679_8,365,0.55,291.540880503145,Sing,srp1,1679,8
Sing_srp1_1679_9,336,0.55,268.377358490566,Sing,srp1,1679,9
Sing_srp12_371_1,303,0.51,220.521489971347,Sing,srp12,371,1
Sing_srp12_371_2,428,0.57,359.973509933775,Sing,srp12,371,2
Sing_srp12_371_3,328,0.56,266.172523961661,Sing,srp12,371,3
Sing_srp13_356_1,301,0.57,253.158940397351,Sing,srp13,356,1
Sing_srp13_356_2,378,0.54,296.333333333333,Sing,srp13,356,2
Sing_srp13_356_3,395,0.51,287.478510028653,Sing,srp13,356,3
Sing_srp14_305_1,307,0.57,258.205298013245,Sing,srp14,305,1
Sing_srp14_305_2,352,0.64,360.516129032259,Sing,srp14,305,2
Sing_srp15_269_1,365,0.52,271.081871345029,Sing,srp15,269,1
Sing_srp15_269_2,368,0.56,298.632587859425,Sing,srp15,269,2
Sing_srp16_251_1,299,0.54,234.401234567901,Sing,srp16,251,1
Sing_srp16_251_2,294,0.6,268.618705035971,Sing,srp16,251,2
Sing_srp17_266_1,279,0.54,218.722222222222,Sing,srp17,266,1
Sing_srp17_266_2,339,0.54,265.759259259259,Sing,srp17,266,2
Sing_srp18_230_1,472,0.5,343.027181688126,Sing,srp18,230,1
Sing_srp18_230_2,416,0.59,369.454545454545,Sing,srp18,230,2
Sing_srp19_275_1,282,0.6,257.654676258993,Sing,srp19,275,1
Sing_srp19_275_2,246,0.55,196.490566037736,Sing,srp19,275,2
Sing_srp20_275_1,324,0.54,254,Sing,srp20,275,1
Sing_srp20_275_2,438,0.52,325.298245614035,Sing,srp20,275,2
Sing_srp21_345_1,340,0.57,285.960264900662,Sing,srp21,345,1
Sing_srp21_345_2,347,0.56,281.591054313099,Sing,srp21,345,2
Sing_srp21_345_3,326,0.56,264.549520766773,Sing,srp21,345,3
Sing_srp2_743_1,323,0.54,253.216049382716,Sing,srp2,743,1
Sing_srp2_743_2,329,0.54,257.91975308642,Sing,srp2,743,2
Sing_srp2_743_3,343,0.58,294.331081081081,Sing,srp2,743,3
Sing_srp2_743_4,268,0.57,225.403973509934,Sing,srp2,743,4
Sing_srp2_743_5,303,0.64,310.330645161291,Sing,srp2,743,5
Sing_srp3_686_1,339,0.54,265.759259259259,Sing,srp3,686,1
Sing_srp3_686_2,409,0.55,326.685534591195,Sing,srp3,686,2
Sing_srp3_686_3,396,0.57,333.059602649007,Sing,srp3,686,3
Sing_srp3_686_4,343,0.56,278.345047923323,Sing,srp3,686,4
Sing_srp3_686_5,400,0.54,313.58024691358,Sing,srp3,686,5
Sing_srp4_620_1,289,0.52,214.637426900585,Sing,srp4,620,1
Sing_srp4_620_2,420,0.53,317.973174366617,Sing,srp4,620,2
Sing_srp4_620_3,338,0.55,269.974842767296,Sing,srp4,620,3
Sing_srp4_620_4,277,0.58,237.695945945946,Sing,srp4,620,4
Sing_srp5_500_1,448,0.51,326.051575931232,Sing,srp5,500,1
Sing_srp5_500_2,392,0.6,358.158273381295,Sing,srp5,500,2
Sing_srp5_500_3,372,0.56,301.878594249201,Sing,srp5,500,3
Sing_srp5_500_4,305,0.56,247.507987220447,Sing,srp5,500,4
Sing_srp6_422_1,330,0.54,258.703703703704,Sing,srp6,422,1
Sing_srp6_422_2,344,0.56,279.156549520767,Sing,srp6,422,2
Sing_srp6_422_3,341,0.59,302.846153846154,Sing,srp6,422,3
Sing_srp7_380_1,407,0.52,302.27485380117,Sing,srp7,380,1
Sing_srp7_380_2,368,0.62,355.406844106464,Sing,srp7,380,2
Sing_srp7_380_3,419,0.52,311.187134502924,Sing,srp7,380,3
Sing_srp8_314_1,295,0.6,269.532374100719,Sing,srp8,314,1
Sing_srp8_314_2,335,0.59,297.517482517483,Sing,srp8,314,2
Sing_srp9_392_1,186,0.54,145.814814814815,Sing,srp9,392,1
Sing_srp9_392_2,228,0.58,195.648648648649,Sing,srp9,392,2
Sing_srp9_392_3,319,0.54,250.08024691358,Sing,srp9,392,3
Sing_valS_2831_1,258,0.59,229.132867132867,Sing,valS,2831,1
Sing_valS_2831_10,348,0.65,372.962025316457,Sing,valS,2831,10
Sing_valS_2831_11,297,0.59,263.769230769231,Sing,valS,2831,11
Sing_valS_2831_12,251,0.67,284.616071428571,Sing,valS,2831,12
Sing_valS_2831_13,222,0.62,214.403041825095,Sing,valS,2831,13
Sing_valS_2831_14,267,0.66,296.148471615722,Sing,valS,2831,14
Sing_valS_2831_15,263,0.61,245.595588235294,Sing,valS,2831,15
Sing_valS_2831_16,274,0.65,293.654008438819,Sing,valS,2831,16
Sing_valS_2831_17,241,0.64,246.830645161291,Sing,valS,2831,17
Sing_valS_2831_18,226,0.63,225.113725490196,Sing,valS,2831,18
Sing_valS_2831_2,239,0.65,256.143459915612,Sing,valS,2831,2
Sing_valS_2831_3,204,0.64,208.935483870968,Sing,valS,2831,3
Sing_valS_2831_4,221,0.65,236.852320675106,Sing,valS,2831,4
Sing_valS_2831_5,197,0.64,201.766129032259,Sing,valS,2831,5
Sing_valS_2831_6,226,0.64,231.467741935485,Sing,valS,2831,6
Sing_valS_2831_7,289,0.62,279.110266159696,Sing,valS,2831,7
Sing_valS_2831_8,287,0.6,262.223021582734,Sing,valS,2831,8
Sing_valS_2831_9,274,0.58,235.121621621622,Sing,valS,2831,9
