"Pr1","Pr2","Dilution","EstMeth","Est"
"1361/1492","ppK",1,"Abs",2.57339842518926
"1361/1492","ppK",1,"Rel",2.91431731781325
"1361/1492","ppK",2,"Abs",2.24934848528016
"1361/1492","ppK",2,"Rel",2.547337862759
"1361/1492","ppK",3,"Abs",2.50945255226743
"1361/1492","ppK",3,"Rel",2.84190001816986
"1361/1492","ppK",4,"Abs",2.04395861948469
"1361/1492","ppK",4,"Rel",2.31473834107901
"1361/1492","ppK",5,"Abs",1.65811913179916
"1361/1492","ppK",5,"Rel",1.8777835773504
"1361/1492","ppK",6,"Abs",1.9246836607254
"1361/1492","ppK",6,"Rel",2.17966206431937
"1361/1492","ppK",7,"Abs",2.69024820462583
"1361/1492","ppK",7,"Rel",3.04664713214025
