"Pr1","Pr2","Dilution","EstMeth","Est"
"1361/1492","valS",1,"Abs",6.03442345399074
"1361/1492","valS",1,"Rel",6.15691894288534
"1361/1492","valS",2,"Abs",5.11309862805462
"1361/1492","valS",2,"Rel",5.21689172792328
"1361/1492","valS",3,"Abs",4.7771877437721
"1361/1492","valS",3,"Rel",4.87416203678888
"1361/1492","valS",4,"Abs",5.91046051545654
"1361/1492","valS",4,"Rel",6.03043962463794
"1361/1492","valS",5,"Abs",4.42461917534398
"1361/1492","valS",5,"Rel",4.51443651965013
"1361/1492","valS",6,"Abs",3.56319247112182
"1361/1492","valS",6,"Rel",3.63552332544511
"1361/1492","valS",7,"Abs",4.06736042453847
"1361/1492","valS",7,"Rel",4.14992561200223
