MEB105	Pseudomonas_syringae_GCF_000163315_16SrRNAgene_1	97.99	1542	27	4	162	1700	1	1541	0.0	 2673
MEB105	Pseudomonas_syringae_GCF_000507185_16SrRNAgene_1	97.92	1541	28	4	164	1701	1	1540	0.0	 2665
MEB105	Pseudomonas_fuscovaginae_GCF_000467005_16SrRNAgene_1	97.47	1541	33	5	164	1701	1	1538	0.0	 2625
MEB105	Pseudomonas_sp__GM79_GCF_000282495_16SrRNAgene_1	98.87	1420	14	2	182	1600	1419	1	0.0	 2532
MEB105	Pseudomonas_sp__URMO17WK12_I12_GCF_000514395_16SrRNAgene_1	98.54	1434	15	5	272	1702	1	1431	0.0	 2527
MEB105	Pseudomonas_sp__GM67_GCF_000282435_16SrRNAgene_1	98.80	1419	17	0	182	1600	1419	1	0.0	 2527
MEB105	Pseudomonas_fluorescens_GCF_000297195_16SrRNAgene_1	98.80	1420	15	2	182	1600	1	1419	0.0	 2527
MEB105	Pseudomonas_sp__GM60_GCF_000282415_16SrRNAgene_1	98.73	1419	18	0	182	1600	1	1419	0.0	 2521
MEB105	Pseudomonas_sp__GM18_GCF_000282195_16SrRNAgene_1	98.45	1423	16	6	182	1600	1421	1	0.0	 2501
MEB105	Pseudomonas_sp__GM17_GCF_000282175_16SrRNAgene_1	98.38	1420	21	2	182	1600	1419	1	0.0	 2494
MEB105	Pseudomonas_sp__GM50_GCF_000282375_16SrRNAgene_1	98.24	1423	19	6	182	1600	1	1421	0.0	 2484
MEB105	Pseudomonas_sp__GM102_GCF_000282555_16SrRNAgene_1	98.17	1423	20	6	182	1600	1	1421	0.0	 2479
MEB105	Pseudomonas_sp__GM48_GCF_000282335_16SrRNAgene_1	98.10	1421	23	3	182	1600	1	1419	0.0	 2471
MEB105	Pseudomonas_sp__GM78_GCF_000282475_16SrRNAgene_1	97.96	1422	23	5	182	1600	1	1419	0.0	 2460
MEB105	Pseudomonas_sp__GM49_GCF_000282355_16SrRNAgene_1	97.89	1421	26	3	182	1600	1	1419	0.0	 2455
MEB105	Pseudomonas_sp__HPB0071_GCF_000478505_16SrRNAgene_4	95.62	1528	61	5	171	1695	1525	1	0.0	 2446
MEB105	Pseudomonas_sp__HPB0071_GCF_000478505_16SrRNAgene_2	95.62	1528	61	5	171	1695	1525	1	0.0	 2446
MEB105	Pseudomonas_sp__HPB0071_GCF_000478505_16SrRNAgene_1	95.62	1528	61	5	171	1695	1525	1	0.0	 2446
MEB105	Pseudomonas_sp__GM74_GCF_000282455_16SrRNAgene_1	97.75	1421	28	3	182	1600	1419	1	0.0	 2444
MEB105	Pseudomonas_sp__HPB0071_GCF_000478505_16SrRNAgene_3	95.55	1528	62	5	171	1695	1	1525	0.0	 2440
MEB105	Pseudomonas_sp__GM80_GCF_000282515_16SrRNAgene_1	97.68	1422	27	5	182	1600	1	1419	0.0	 2438
MEB105	Pseudomonas_sp__GM25_GCF_000282255_16SrRNAgene_1	97.68	1422	27	5	182	1600	1	1419	0.0	 2438
MEB105	Pseudomonas_sp__GM33_GCF_000282295_16SrRNAgene_1	97.47	1424	26	9	182	1600	1	1419	0.0	 2422
MEB105	Pseudomonas_sp__GM55_GCF_000282395_16SrRNAgene_1	97.40	1424	26	10	182	1600	1	1418	0.0	 2414
MEB105	Pseudomonas_aeruginosa_GCF_000572265_16SrRNAgene_1	94.75	1542	74	6	164	1702	1	1538	0.0	 2392
MEB105	Pseudomonas_aeruginosa_GCF_000342145_16SrRNAgene_1	94.75	1542	74	6	162	1700	1	1538	0.0	 2392
MEB105	Pseudomonas_aeruginosa_GCF_000247435_16SrRNAgene_1	94.75	1542	74	6	162	1700	1	1538	0.0	 2392
MEB105	Pseudomonas_aeruginosa_GCF_000172395_16SrRNAgene_4	94.75	1542	74	6	164	1702	1538	1	0.0	 2392
MEB105	Pseudomonas_aeruginosa_GCF_000172395_16SrRNAgene_3	94.75	1542	74	6	164	1702	1538	1	0.0	 2392
MEB105	Pseudomonas_aeruginosa_GCF_000172395_16SrRNAgene_2	94.75	1542	74	6	164	1702	1538	1	0.0	 2392
MEB105	Pseudomonas_aeruginosa_GCF_000172395_16SrRNAgene_1	94.75	1542	74	6	164	1702	1	1538	0.0	 2392
MEB105	Pseudomonas_aeruginosa_GCF_000247455_16SrRNAgene_1	94.62	1542	76	6	162	1700	1	1538	0.0	 2385
MEB105	Pseudomonas_sp__GM84_GCF_000282535_16SrRNAgene_1	96.98	1422	37	5	182	1600	1	1419	0.0	 2383
MEB105	Pseudomonas_aeruginosa_GCF_000481485_16SrRNAgene_2	94.76	1528	73	6	171	1695	1524	1	0.0	 2372
MEB105	Pseudomonas_aeruginosa_GCF_000481485_16SrRNAgene_1	94.76	1528	73	6	171	1695	1524	1	0.0	 2372
MEB105	Pseudomonas_aeruginosa_GCF_000481265_16SrRNAgene_4	94.76	1528	73	6	171	1695	1	1524	0.0	 2372
MEB105	Pseudomonas_aeruginosa_GCF_000481265_16SrRNAgene_3	94.76	1528	73	6	171	1695	1524	1	0.0	 2372
MEB105	Pseudomonas_aeruginosa_GCF_000481185_16SrRNAgene_5	94.76	1528	73	6	171	1695	1	1524	0.0	 2372
MEB105	Pseudomonas_aeruginosa_GCF_000481185_16SrRNAgene_4	94.76	1528	73	6	171	1695	1524	1	0.0	 2372
MEB105	Pseudomonas_aeruginosa_GCF_000481045_16SrRNAgene_1	94.76	1528	73	6	171	1695	1	1524	0.0	 2372
MEB105	Pseudomonas_aeruginosa_GCF_000482025_16SrRNAgene_5	94.70	1528	74	6	171	1695	1524	1	0.0	 2366
MEB105	Pseudomonas_aeruginosa_GCF_000482025_16SrRNAgene_4	94.70	1528	74	6	171	1695	1	1524	0.0	 2366
MEB105	Pseudomonas_aeruginosa_GCF_000482025_16SrRNAgene_3	94.70	1528	74	6	171	1695	1524	1	0.0	 2366
MEB105	Pseudomonas_aeruginosa_GCF_000482005_16SrRNAgene_5	94.70	1528	74	6	171	1695	1524	1	0.0	 2366
MEB105	Pseudomonas_aeruginosa_GCF_000482005_16SrRNAgene_3	94.70	1528	74	6	171	1695	1524	1	0.0	 2366
MEB105	Pseudomonas_aeruginosa_GCF_000482005_16SrRNAgene_1	94.70	1528	74	6	171	1695	1524	1	0.0	 2366
MEB105	Pseudomonas_aeruginosa_GCF_000481985_16SrRNAgene_4	94.70	1528	74	6	171	1695	1524	1	0.0	 2366
MEB105	Pseudomonas_aeruginosa_GCF_000481985_16SrRNAgene_3	94.70	1528	74	6	171	1695	1524	1	0.0	 2366
MEB105	Pseudomonas_aeruginosa_GCF_000481985_16SrRNAgene_2	94.70	1528	74	6	171	1695	1524	1	0.0	 2366
MEB105	Pseudomonas_aeruginosa_GCF_000481985_16SrRNAgene_1	94.70	1528	74	6	171	1695	1	1524	0.0	 2366
MEB105	Pseudomonas_aeruginosa_GCF_000481965_16SrRNAgene_5	94.70	1528	74	6	171	1695	1	1524	0.0	 2366
MEB105	Pseudomonas_aeruginosa_GCF_000481965_16SrRNAgene_4	94.70	1528	74	6	171	1695	1524	1	0.0	 2366
MEB105	Pseudomonas_aeruginosa_GCF_000481965_16SrRNAgene_3	94.70	1528	74	6	171	1695	1524	1	0.0	 2366
MEB105	Pseudomonas_aeruginosa_GCF_000481965_16SrRNAgene_2	94.70	1528	74	6	171	1695	1524	1	0.0	 2366
MEB105	Pseudomonas_aeruginosa_GCF_000481965_16SrRNAgene_1	94.70	1528	74	6	171	1695	1	1524	0.0	 2366
MEB105	Pseudomonas_aeruginosa_GCF_000481945_16SrRNAgene_5	94.70	1528	74	6	171	1695	1	1524	0.0	 2366
MEB105	Pseudomonas_aeruginosa_GCF_000481945_16SrRNAgene_4	94.70	1528	74	6	171	1695	1524	1	0.0	 2366
MEB105	Pseudomonas_aeruginosa_GCF_000481945_16SrRNAgene_2	94.70	1528	74	6	171	1695	1524	1	0.0	 2366
MEB105	Pseudomonas_aeruginosa_GCF_000481925_16SrRNAgene_5	94.70	1528	74	6	171	1695	1524	1	0.0	 2366
MEB105	Pseudomonas_aeruginosa_GCF_000481925_16SrRNAgene_4	94.70	1528	74	6	171	1695	1524	1	0.0	 2366
MEB105	Pseudomonas_aeruginosa_GCF_000481925_16SrRNAgene_3	94.70	1528	74	6	171	1695	1524	1	0.0	 2366
MEB105	Pseudomonas_aeruginosa_GCF_000481925_16SrRNAgene_2	94.70	1528	74	6	171	1695	1524	1	0.0	 2366
MEB105	Pseudomonas_aeruginosa_GCF_000481925_16SrRNAgene_1	94.70	1528	74	6	171	1695	1524	1	0.0	 2366
MEB105	Pseudomonas_aeruginosa_GCF_000481905_16SrRNAgene_1	94.70	1528	74	6	171	1695	1524	1	0.0	 2366
MEB105	Pseudomonas_aeruginosa_GCF_000481885_16SrRNAgene_3	94.70	1528	74	6	171	1695	1524	1	0.0	 2366
MEB105	Pseudomonas_aeruginosa_GCF_000481885_16SrRNAgene_2	94.70	1528	74	6	171	1695	1524	1	0.0	 2366
MEB105	Pseudomonas_aeruginosa_GCF_000481865_16SrRNAgene_4	94.70	1528	74	6	171	1695	1	1524	0.0	 2366
MEB105	Pseudomonas_aeruginosa_GCF_000481865_16SrRNAgene_3	94.70	1528	74	6	171	1695	1524	1	0.0	 2366
MEB105	Pseudomonas_aeruginosa_GCF_000481865_16SrRNAgene_2	94.70	1528	74	6	171	1695	1524	1	0.0	 2366
MEB105	Pseudomonas_aeruginosa_GCF_000481865_16SrRNAgene_1	94.70	1528	74	6	171	1695	1524	1	0.0	 2366
MEB105	Pseudomonas_aeruginosa_GCF_000481845_16SrRNAgene_4	94.70	1528	74	6	171	1695	1524	1	0.0	 2366
MEB105	Pseudomonas_aeruginosa_GCF_000481845_16SrRNAgene_3	94.70	1528	74	6	171	1695	1524	1	0.0	 2366
MEB105	Pseudomonas_aeruginosa_GCF_000481845_16SrRNAgene_2	94.70	1528	74	6	171	1695	1524	1	0.0	 2366
MEB105	Pseudomonas_aeruginosa_GCF_000481845_16SrRNAgene_1	94.70	1528	74	6	171	1695	1524	1	0.0	 2366
MEB105	Pseudomonas_aeruginosa_GCF_000481825_16SrRNAgene_4	94.70	1528	74	6	171	1695	1524	1	0.0	 2366
MEB105	Pseudomonas_aeruginosa_GCF_000481825_16SrRNAgene_3	94.70	1528	74	6	171	1695	1524	1	0.0	 2366
MEB105	Pseudomonas_aeruginosa_GCF_000481825_16SrRNAgene_2	94.70	1528	74	6	171	1695	1	1524	0.0	 2366
MEB105	Pseudomonas_aeruginosa_GCF_000481825_16SrRNAgene_1	94.70	1528	74	6	171	1695	1524	1	0.0	 2366
MEB105	Pseudomonas_aeruginosa_GCF_000481805_16SrRNAgene_4	94.70	1528	74	6	171	1695	1524	1	0.0	 2366
MEB105	Pseudomonas_aeruginosa_GCF_000481805_16SrRNAgene_3	94.70	1528	74	6	171	1695	1524	1	0.0	 2366
MEB105	Pseudomonas_aeruginosa_GCF_000481805_16SrRNAgene_2	94.70	1528	74	6	171	1695	1524	1	0.0	 2366
MEB105	Pseudomonas_aeruginosa_GCF_000481805_16SrRNAgene_1	94.70	1528	74	6	171	1695	1	1524	0.0	 2366
MEB105	Pseudomonas_aeruginosa_GCF_000481785_16SrRNAgene_4	94.70	1528	74	6	171	1695	1	1524	0.0	 2366
MEB105	Pseudomonas_aeruginosa_GCF_000481785_16SrRNAgene_3	94.70	1528	74	6	171	1695	1524	1	0.0	 2366
MEB105	Pseudomonas_aeruginosa_GCF_000481785_16SrRNAgene_2	94.70	1528	74	6	171	1695	1524	1	0.0	 2366
MEB105	Pseudomonas_aeruginosa_GCF_000481785_16SrRNAgene_1	94.70	1528	74	6	171	1695	1	1524	0.0	 2366
MEB105	Pseudomonas_aeruginosa_GCF_000481765_16SrRNAgene_4	94.70	1528	74	6	171	1695	1524	1	0.0	 2366
MEB105	Pseudomonas_aeruginosa_GCF_000481765_16SrRNAgene_3	94.70	1528	74	6	171	1695	1	1524	0.0	 2366
MEB105	Pseudomonas_aeruginosa_GCF_000481765_16SrRNAgene_2	94.70	1528	74	6	171	1695	1524	1	0.0	 2366
MEB105	Pseudomonas_aeruginosa_GCF_000481765_16SrRNAgene_1	94.70	1528	74	6	171	1695	1524	1	0.0	 2366
MEB105	Pseudomonas_aeruginosa_GCF_000481745_16SrRNAgene_6	94.70	1528	74	6	171	1695	1524	1	0.0	 2366
MEB105	Pseudomonas_aeruginosa_GCF_000481745_16SrRNAgene_5	94.70	1528	74	6	171	1695	1524	1	0.0	 2366
MEB105	Pseudomonas_aeruginosa_GCF_000481745_16SrRNAgene_4	94.70	1528	74	6	171	1695	1524	1	0.0	 2366
MEB105	Pseudomonas_aeruginosa_GCF_000481745_16SrRNAgene_3	94.70	1528	74	6	171	1695	1524	1	0.0	 2366
MEB105	Pseudomonas_aeruginosa_GCF_000481745_16SrRNAgene_2	94.70	1528	74	6	171	1695	1	1524	0.0	 2366
MEB105	Pseudomonas_aeruginosa_GCF_000481745_16SrRNAgene_1	94.70	1528	74	6	171	1695	1524	1	0.0	 2366
MEB105	Pseudomonas_aeruginosa_GCF_000481725_16SrRNAgene_4	94.70	1528	74	6	171	1695	1	1524	0.0	 2366
MEB105	Pseudomonas_aeruginosa_GCF_000481725_16SrRNAgene_2	94.70	1528	74	6	171	1695	1	1524	0.0	 2366
MEB105	Pseudomonas_aeruginosa_GCF_000481705_16SrRNAgene_4	94.70	1528	74	6	171	1695	1524	1	0.0	 2366
MEB105	Pseudomonas_aeruginosa_GCF_000481705_16SrRNAgene_3	94.70	1528	74	6	171	1695	1	1524	0.0	 2366
MEB105	Pseudomonas_aeruginosa_GCF_000481705_16SrRNAgene_2	94.70	1528	74	6	171	1695	1524	1	0.0	 2366
MEB105	Pseudomonas_aeruginosa_GCF_000481705_16SrRNAgene_1	94.70	1528	74	6	171	1695	1524	1	0.0	 2366
MEB105	Pseudomonas_aeruginosa_GCF_000481685_16SrRNAgene_3	94.70	1528	74	6	171	1695	1524	1	0.0	 2366
MEB105	Pseudomonas_aeruginosa_GCF_000481685_16SrRNAgene_2	94.70	1528	74	6	171	1695	1524	1	0.0	 2366
MEB105	Pseudomonas_aeruginosa_GCF_000481685_16SrRNAgene_1	94.70	1528	74	6	171	1695	1524	1	0.0	 2366
MEB105	Pseudomonas_aeruginosa_GCF_000481665_16SrRNAgene_2	94.70	1528	74	6	171	1695	1524	1	0.0	 2366
MEB105	Pseudomonas_aeruginosa_GCF_000481645_16SrRNAgene_3	94.70	1528	74	6	171	1695	1524	1	0.0	 2366
MEB105	Pseudomonas_aeruginosa_GCF_000481645_16SrRNAgene_1	94.70	1528	74	6	171	1695	1	1524	0.0	 2366
MEB105	Pseudomonas_aeruginosa_GCF_000481625_16SrRNAgene_2	94.70	1528	74	6	171	1695	1524	1	0.0	 2366
MEB105	Pseudomonas_aeruginosa_GCF_000481625_16SrRNAgene_1	94.70	1528	74	6	171	1695	1	1524	0.0	 2366
MEB105	Pseudomonas_aeruginosa_GCF_000481605_16SrRNAgene_3	94.70	1528	74	6	171	1695	1524	1	0.0	 2366
MEB105	Pseudomonas_aeruginosa_GCF_000481605_16SrRNAgene_1	94.70	1528	74	6	171	1695	1	1524	0.0	 2366
MEB105	Pseudomonas_aeruginosa_GCF_000481585_16SrRNAgene_4	94.70	1528	74	6	171	1695	1524	1	0.0	 2366
MEB105	Pseudomonas_aeruginosa_GCF_000481585_16SrRNAgene_3	94.70	1528	74	6	171	1695	1524	1	0.0	 2366
MEB105	Pseudomonas_aeruginosa_GCF_000481585_16SrRNAgene_2	94.70	1528	74	6	171	1695	1524	1	0.0	 2366
MEB105	Pseudomonas_aeruginosa_GCF_000481585_16SrRNAgene_1	94.70	1528	74	6	171	1695	1	1524	0.0	 2366
MEB105	Pseudomonas_aeruginosa_GCF_000481565_16SrRNAgene_3	94.70	1528	74	6	171	1695	1524	1	0.0	 2366
MEB105	Pseudomonas_aeruginosa_GCF_000481565_16SrRNAgene_2	94.70	1528	74	6	171	1695	1524	1	0.0	 2366
MEB105	Pseudomonas_aeruginosa_GCF_000481565_16SrRNAgene_1	94.70	1528	74	6	171	1695	1524	1	0.0	 2366
MEB105	Pseudomonas_aeruginosa_GCF_000481505_16SrRNAgene_7	94.70	1528	74	6	171	1695	1524	1	0.0	 2366
MEB105	Pseudomonas_aeruginosa_GCF_000481505_16SrRNAgene_6	94.70	1528	74	6	171	1695	1524	1	0.0	 2366
MEB105	Pseudomonas_aeruginosa_GCF_000481505_16SrRNAgene_5	94.70	1528	74	6	171	1695	1524	1	0.0	 2366
MEB105	Pseudomonas_aeruginosa_GCF_000481505_16SrRNAgene_4	94.70	1528	74	6	171	1695	1524	1	0.0	 2366
MEB105	Pseudomonas_aeruginosa_GCF_000481505_16SrRNAgene_3	94.70	1528	74	6	171	1695	1524	1	0.0	 2366
MEB105	Pseudomonas_aeruginosa_GCF_000481505_16SrRNAgene_2	94.70	1528	74	6	171	1695	1524	1	0.0	 2366
MEB105	Pseudomonas_aeruginosa_GCF_000481505_16SrRNAgene_1	94.70	1528	74	6	171	1695	1	1524	0.0	 2366
MEB105	Pseudomonas_aeruginosa_GCF_000481485_16SrRNAgene_4	94.70	1528	74	6	171	1695	1	1524	0.0	 2366
MEB105	Pseudomonas_aeruginosa_GCF_000481485_16SrRNAgene_3	94.70	1528	74	6	171	1695	1524	1	0.0	 2366
MEB105	Pseudomonas_aeruginosa_GCF_000481465_16SrRNAgene_4	94.70	1528	74	6	171	1695	1524	1	0.0	 2366
MEB105	Pseudomonas_aeruginosa_GCF_000481465_16SrRNAgene_2	94.70	1528	74	6	171	1695	1524	1	0.0	 2366
MEB105	Pseudomonas_aeruginosa_GCF_000481465_16SrRNAgene_1	94.70	1528	74	6	171	1695	1	1524	0.0	 2366
MEB105	Pseudomonas_aeruginosa_GCF_000481445_16SrRNAgene_3	94.70	1528	74	6	171	1695	1524	1	0.0	 2366
MEB105	Pseudomonas_aeruginosa_GCF_000481445_16SrRNAgene_2	94.70	1528	74	6	171	1695	1524	1	0.0	 2366
MEB105	Pseudomonas_aeruginosa_GCF_000481445_16SrRNAgene_1	94.70	1528	74	6	171	1695	1	1524	0.0	 2366
MEB105	Pseudomonas_aeruginosa_GCF_000481425_16SrRNAgene_3	94.70	1528	74	6	171	1695	1524	1	0.0	 2366
MEB105	Pseudomonas_aeruginosa_GCF_000481425_16SrRNAgene_2	94.70	1528	74	6	171	1695	1524	1	0.0	 2366
MEB105	Pseudomonas_aeruginosa_GCF_000481405_16SrRNAgene_2	94.70	1528	74	6	171	1695	1524	1	0.0	 2366
MEB105	Pseudomonas_aeruginosa_GCF_000481405_16SrRNAgene_1	94.70	1528	74	6	171	1695	1524	1	0.0	 2366
MEB105	Pseudomonas_aeruginosa_GCF_000481385_16SrRNAgene_4	94.70	1528	74	6	171	1695	1524	1	0.0	 2366
MEB105	Pseudomonas_aeruginosa_GCF_000481385_16SrRNAgene_3	94.70	1528	74	6	171	1695	1524	1	0.0	 2366
MEB105	Pseudomonas_aeruginosa_GCF_000481385_16SrRNAgene_2	94.70	1528	74	6	171	1695	1524	1	0.0	 2366
MEB105	Pseudomonas_aeruginosa_GCF_000481385_16SrRNAgene_1	94.70	1528	74	6	171	1695	1524	1	0.0	 2366
MEB105	Pseudomonas_aeruginosa_GCF_000481365_16SrRNAgene_4	94.70	1528	74	6	171	1695	1	1524	0.0	 2366
MEB105	Pseudomonas_aeruginosa_GCF_000481365_16SrRNAgene_2	94.70	1528	74	6	171	1695	1524	1	0.0	 2366
MEB105	Pseudomonas_aeruginosa_GCF_000481345_16SrRNAgene_4	94.70	1528	74	6	171	1695	1524	1	0.0	 2366
MEB105	Pseudomonas_aeruginosa_GCF_000481345_16SrRNAgene_3	94.70	1528	74	6	171	1695	1524	1	0.0	 2366
MEB105	Pseudomonas_aeruginosa_GCF_000481345_16SrRNAgene_2	94.70	1528	74	6	171	1695	1524	1	0.0	 2366
MEB105	Pseudomonas_aeruginosa_GCF_000481345_16SrRNAgene_1	94.70	1528	74	6	171	1695	1524	1	0.0	 2366
MEB105	Pseudomonas_aeruginosa_GCF_000481325_16SrRNAgene_3	94.70	1528	74	6	171	1695	1524	1	0.0	 2366
MEB105	Pseudomonas_aeruginosa_GCF_000481325_16SrRNAgene_2	94.70	1528	74	6	171	1695	1524	1	0.0	 2366
MEB105	Pseudomonas_aeruginosa_GCF_000481325_16SrRNAgene_1	94.70	1528	74	6	171	1695	1524	1	0.0	 2366
MEB105	Pseudomonas_aeruginosa_GCF_000481305_16SrRNAgene_5	94.70	1528	74	6	171	1695	1524	1	0.0	 2366
MEB105	Pseudomonas_aeruginosa_GCF_000481305_16SrRNAgene_4	94.70	1528	74	6	171	1695	1524	1	0.0	 2366
MEB105	Pseudomonas_aeruginosa_GCF_000481305_16SrRNAgene_3	94.70	1528	74	6	171	1695	1	1524	0.0	 2366
MEB105	Pseudomonas_aeruginosa_GCF_000481305_16SrRNAgene_2	94.70	1528	74	6	171	1695	1524	1	0.0	 2366
MEB105	Pseudomonas_aeruginosa_GCF_000481305_16SrRNAgene_1	94.70	1528	74	6	171	1695	1524	1	0.0	 2366
MEB105	Pseudomonas_aeruginosa_GCF_000481285_16SrRNAgene_4	94.70	1528	74	6	171	1695	1	1524	0.0	 2366
MEB105	Pseudomonas_aeruginosa_GCF_000481285_16SrRNAgene_3	94.70	1528	74	6	171	1695	1524	1	0.0	 2366
MEB105	Pseudomonas_aeruginosa_GCF_000481285_16SrRNAgene_1	94.70	1528	74	6	171	1695	1524	1	0.0	 2366
MEB105	Pseudomonas_aeruginosa_GCF_000481265_16SrRNAgene_2	94.70	1528	74	6	171	1695	1524	1	0.0	 2366
MEB105	Pseudomonas_aeruginosa_GCF_000481265_16SrRNAgene_1	94.70	1528	74	6	171	1695	1524	1	0.0	 2366
MEB105	Pseudomonas_aeruginosa_GCF_000481245_16SrRNAgene_4	94.70	1528	74	6	171	1695	1524	1	0.0	 2366
MEB105	Pseudomonas_aeruginosa_GCF_000481245_16SrRNAgene_3	94.70	1528	74	6	171	1695	1524	1	0.0	 2366
MEB105	Pseudomonas_aeruginosa_GCF_000481245_16SrRNAgene_1	94.70	1528	74	6	171	1695	1524	1	0.0	 2366
MEB105	Pseudomonas_aeruginosa_GCF_000481225_16SrRNAgene_3	94.70	1528	74	6	171	1695	1	1524	0.0	 2366
MEB105	Pseudomonas_aeruginosa_GCF_000481225_16SrRNAgene_1	94.70	1528	74	6	171	1695	1	1524	0.0	 2366
MEB105	Pseudomonas_aeruginosa_GCF_000481205_16SrRNAgene_5	94.70	1528	74	6	171	1695	1524	1	0.0	 2366
MEB105	Pseudomonas_aeruginosa_GCF_000481205_16SrRNAgene_4	94.70	1528	74	6	171	1695	1524	1	0.0	 2366
MEB105	Pseudomonas_aeruginosa_GCF_000481205_16SrRNAgene_3	94.70	1528	74	6	171	1695	1524	1	0.0	 2366
MEB105	Pseudomonas_aeruginosa_GCF_000481205_16SrRNAgene_2	94.70	1528	74	6	171	1695	1524	1	0.0	 2366
MEB105	Pseudomonas_aeruginosa_GCF_000481185_16SrRNAgene_3	94.70	1528	74	6	171	1695	1524	1	0.0	 2366
MEB105	Pseudomonas_aeruginosa_GCF_000481185_16SrRNAgene_2	94.70	1528	74	6	171	1695	1524	1	0.0	 2366
MEB105	Pseudomonas_aeruginosa_GCF_000481185_16SrRNAgene_1	94.70	1528	74	6	171	1695	1524	1	0.0	 2366
MEB105	Pseudomonas_aeruginosa_GCF_000481165_16SrRNAgene_5	94.70	1528	74	6	171	1695	1524	1	0.0	 2366
MEB105	Pseudomonas_aeruginosa_GCF_000481165_16SrRNAgene_4	94.70	1528	74	6	171	1695	1524	1	0.0	 2366
MEB105	Pseudomonas_aeruginosa_GCF_000481165_16SrRNAgene_3	94.70	1528	74	6	171	1695	1524	1	0.0	 2366
MEB105	Pseudomonas_aeruginosa_GCF_000481165_16SrRNAgene_2	94.70	1528	74	6	171	1695	1524	1	0.0	 2366
MEB105	Pseudomonas_aeruginosa_GCF_000481165_16SrRNAgene_1	94.70	1528	74	6	171	1695	1524	1	0.0	 2366
MEB105	Pseudomonas_aeruginosa_GCF_000481145_16SrRNAgene_4	94.70	1528	74	6	171	1695	1524	1	0.0	 2366
MEB105	Pseudomonas_aeruginosa_GCF_000481125_16SrRNAgene_3	94.70	1528	74	6	171	1695	1524	1	0.0	 2366
MEB105	Pseudomonas_aeruginosa_GCF_000481105_16SrRNAgene_6	94.70	1528	74	6	171	1695	1	1524	0.0	 2366
MEB105	Pseudomonas_aeruginosa_GCF_000481105_16SrRNAgene_4	94.70	1528	74	6	171	1695	1524	1	0.0	 2366
MEB105	Pseudomonas_aeruginosa_GCF_000481105_16SrRNAgene_2	94.70	1528	74	6	171	1695	1524	1	0.0	 2366
MEB105	Pseudomonas_aeruginosa_GCF_000481105_16SrRNAgene_1	94.70	1528	74	6	171	1695	1524	1	0.0	 2366
MEB105	Pseudomonas_aeruginosa_GCF_000481085_16SrRNAgene_4	94.70	1528	74	6	171	1695	1524	1	0.0	 2366
MEB105	Pseudomonas_aeruginosa_GCF_000481085_16SrRNAgene_3	94.70	1528	74	6	171	1695	1524	1	0.0	 2366
MEB105	Pseudomonas_aeruginosa_GCF_000481085_16SrRNAgene_2	94.70	1528	74	6	171	1695	1524	1	0.0	 2366
MEB105	Pseudomonas_aeruginosa_GCF_000481085_16SrRNAgene_1	94.70	1528	74	6	171	1695	1524	1	0.0	 2366
MEB105	Pseudomonas_aeruginosa_GCF_000481065_16SrRNAgene_6	94.70	1528	74	6	171	1695	1524	1	0.0	 2366
MEB105	Pseudomonas_aeruginosa_GCF_000481065_16SrRNAgene_4	94.70	1528	74	6	171	1695	1524	1	0.0	 2366
MEB105	Pseudomonas_aeruginosa_GCF_000481065_16SrRNAgene_3	94.70	1528	74	6	171	1695	1524	1	0.0	 2366
MEB105	Pseudomonas_aeruginosa_GCF_000481065_16SrRNAgene_1	94.70	1528	74	6	171	1695	1524	1	0.0	 2366
MEB105	Pseudomonas_aeruginosa_GCF_000481045_16SrRNAgene_2	94.70	1528	74	6	171	1695	1524	1	0.0	 2366
MEB105	Pseudomonas_aeruginosa_GCF_000481005_16SrRNAgene_3	94.70	1528	74	6	171	1695	1524	1	0.0	 2366
MEB105	Pseudomonas_aeruginosa_GCF_000481005_16SrRNAgene_1	94.70	1528	74	6	171	1695	1524	1	0.0	 2366
MEB105	Pseudomonas_aeruginosa_GCF_000480985_16SrRNAgene_4	94.70	1528	74	6	171	1695	1524	1	0.0	 2366
MEB105	Pseudomonas_aeruginosa_GCF_000480985_16SrRNAgene_3	94.70	1528	74	6	171	1695	1524	1	0.0	 2366
MEB105	Pseudomonas_aeruginosa_GCF_000480985_16SrRNAgene_2	94.70	1528	74	6	171	1695	1524	1	0.0	 2366
MEB105	Pseudomonas_aeruginosa_GCF_000480985_16SrRNAgene_1	94.70	1528	74	6	171	1695	1	1524	0.0	 2366
MEB105	Pseudomonas_aeruginosa_GCF_000480965_16SrRNAgene_4	94.70	1528	74	6	171	1695	1524	1	0.0	 2366
MEB105	Pseudomonas_aeruginosa_GCF_000480965_16SrRNAgene_3	94.70	1528	74	6	171	1695	1524	1	0.0	 2366
MEB105	Pseudomonas_aeruginosa_GCF_000480965_16SrRNAgene_2	94.70	1528	74	6	171	1695	1524	1	0.0	 2366
MEB105	Pseudomonas_aeruginosa_GCF_000480945_16SrRNAgene_3	94.70	1528	74	6	171	1695	1524	1	0.0	 2366
MEB105	Pseudomonas_aeruginosa_GCF_000480945_16SrRNAgene_2	94.70	1528	74	6	171	1695	1524	1	0.0	 2366
MEB105	Pseudomonas_aeruginosa_GCF_000480945_16SrRNAgene_1	94.70	1528	74	6	171	1695	1	1524	0.0	 2366
MEB105	Pseudomonas_aeruginosa_GCF_000480925_16SrRNAgene_4	94.70	1528	74	6	171	1695	1524	1	0.0	 2366
MEB105	Pseudomonas_aeruginosa_GCF_000480925_16SrRNAgene_3	94.70	1528	74	6	171	1695	1524	1	0.0	 2366
MEB105	Pseudomonas_aeruginosa_GCF_000480925_16SrRNAgene_2	94.70	1528	74	6	171	1695	1524	1	0.0	 2366
MEB105	Pseudomonas_aeruginosa_GCF_000480925_16SrRNAgene_1	94.70	1528	74	6	171	1695	1	1524	0.0	 2366
MEB105	Pseudomonas_aeruginosa_GCF_000480905_16SrRNAgene_4	94.70	1528	74	6	171	1695	1524	1	0.0	 2366
MEB105	Pseudomonas_aeruginosa_GCF_000480905_16SrRNAgene_2	94.70	1528	74	6	171	1695	1524	1	0.0	 2366
MEB105	Pseudomonas_aeruginosa_GCF_000480905_16SrRNAgene_1	94.70	1528	74	6	171	1695	1524	1	0.0	 2366
MEB105	Pseudomonas_aeruginosa_GCF_000480885_16SrRNAgene_3	94.70	1528	74	6	171	1695	1524	1	0.0	 2366
MEB105	Pseudomonas_aeruginosa_GCF_000480885_16SrRNAgene_2	94.70	1528	74	6	171	1695	1524	1	0.0	 2366
MEB105	Pseudomonas_aeruginosa_GCF_000480885_16SrRNAgene_1	94.70	1528	74	6	171	1695	1524	1	0.0	 2366
MEB105	Pseudomonas_aeruginosa_GCF_000480865_16SrRNAgene_4	94.70	1528	74	6	171	1695	1524	1	0.0	 2366
MEB105	Pseudomonas_aeruginosa_GCF_000480865_16SrRNAgene_3	94.70	1528	74	6	171	1695	1524	1	0.0	 2366
MEB105	Pseudomonas_aeruginosa_GCF_000480865_16SrRNAgene_2	94.70	1528	74	6	171	1695	1524	1	0.0	 2366
MEB105	Pseudomonas_aeruginosa_GCF_000480865_16SrRNAgene_1	94.70	1528	74	6	171	1695	1524	1	0.0	 2366
MEB105	Pseudomonas_aeruginosa_GCF_000480845_16SrRNAgene_5	94.70	1528	74	6	171	1695	1524	1	0.0	 2366
MEB105	Pseudomonas_aeruginosa_GCF_000480845_16SrRNAgene_4	94.70	1528	74	6	171	1695	1524	1	0.0	 2366
MEB105	Pseudomonas_aeruginosa_GCF_000480845_16SrRNAgene_3	94.70	1528	74	6	171	1695	1524	1	0.0	 2366
MEB105	Pseudomonas_aeruginosa_GCF_000480845_16SrRNAgene_2	94.70	1528	74	6	171	1695	1524	1	0.0	 2366
MEB105	Pseudomonas_aeruginosa_GCF_000480845_16SrRNAgene_1	94.70	1528	74	6	171	1695	1	1524	0.0	 2366
MEB105	Pseudomonas_aeruginosa_GCF_000480825_16SrRNAgene_5	94.70	1528	74	6	171	1695	1524	1	0.0	 2366
MEB105	Pseudomonas_aeruginosa_GCF_000480825_16SrRNAgene_4	94.70	1528	74	6	171	1695	1524	1	0.0	 2366
MEB105	Pseudomonas_aeruginosa_GCF_000480825_16SrRNAgene_3	94.70	1528	74	6	171	1695	1	1524	0.0	 2366
MEB105	Pseudomonas_aeruginosa_GCF_000480825_16SrRNAgene_2	94.70	1528	74	6	171	1695	1524	1	0.0	 2366
MEB105	Pseudomonas_aeruginosa_GCF_000480825_16SrRNAgene_1	94.70	1528	74	6	171	1695	1	1524	0.0	 2366
MEB105	Pseudomonas_aeruginosa_GCF_000480805_16SrRNAgene_4	94.70	1528	74	6	171	1695	1524	1	0.0	 2366
MEB105	Pseudomonas_aeruginosa_GCF_000480805_16SrRNAgene_3	94.70	1528	74	6	171	1695	1524	1	0.0	 2366
MEB105	Pseudomonas_aeruginosa_GCF_000480805_16SrRNAgene_2	94.70	1528	74	6	171	1695	1524	1	0.0	 2366
MEB105	Pseudomonas_aeruginosa_GCF_000480805_16SrRNAgene_1	94.70	1528	74	6	171	1695	1	1524	0.0	 2366
MEB105	Pseudomonas_aeruginosa_GCF_000480785_16SrRNAgene_3	94.70	1528	74	6	171	1695	1	1524	0.0	 2366
MEB105	Pseudomonas_aeruginosa_GCF_000480785_16SrRNAgene_2	94.70	1528	74	6	171	1695	1524	1	0.0	 2366
MEB105	Pseudomonas_aeruginosa_GCF_000480785_16SrRNAgene_1	94.70	1528	74	6	171	1695	1524	1	0.0	 2366
MEB105	Pseudomonas_aeruginosa_GCF_000480765_16SrRNAgene_4	94.70	1528	74	6	171	1695	1524	1	0.0	 2366
MEB105	Pseudomonas_aeruginosa_GCF_000480765_16SrRNAgene_3	94.70	1528	74	6	171	1695	1524	1	0.0	 2366
MEB105	Pseudomonas_aeruginosa_GCF_000480765_16SrRNAgene_2	94.70	1528	74	6	171	1695	1524	1	0.0	 2366
MEB105	Pseudomonas_aeruginosa_GCF_000480765_16SrRNAgene_1	94.70	1528	74	6	171	1695	1	1524	0.0	 2366
MEB105	Pseudomonas_aeruginosa_GCF_000480745_16SrRNAgene_5	94.70	1528	74	6	171	1695	1524	1	0.0	 2366
MEB105	Pseudomonas_aeruginosa_GCF_000480745_16SrRNAgene_4	94.70	1528	74	6	171	1695	1524	1	0.0	 2366
MEB105	Pseudomonas_aeruginosa_GCF_000480745_16SrRNAgene_3	94.70	1528	74	6	171	1695	1524	1	0.0	 2366
MEB105	Pseudomonas_aeruginosa_GCF_000480745_16SrRNAgene_2	94.70	1528	74	6	171	1695	1524	1	0.0	 2366
MEB105	Pseudomonas_aeruginosa_GCF_000480725_16SrRNAgene_4	94.70	1528	74	6	171	1695	1524	1	0.0	 2366
MEB105	Pseudomonas_aeruginosa_GCF_000480725_16SrRNAgene_3	94.70	1528	74	6	171	1695	1524	1	0.0	 2366
MEB105	Pseudomonas_aeruginosa_GCF_000480725_16SrRNAgene_2	94.70	1528	74	6	171	1695	1524	1	0.0	 2366
MEB105	Pseudomonas_aeruginosa_GCF_000480725_16SrRNAgene_1	94.70	1528	74	6	171	1695	1	1524	0.0	 2366
MEB105	Pseudomonas_aeruginosa_GCF_000480705_16SrRNAgene_5	94.70	1528	74	6	171	1695	1524	1	0.0	 2366
MEB105	Pseudomonas_aeruginosa_GCF_000480705_16SrRNAgene_4	94.70	1528	74	6	171	1695	1	1524	0.0	 2366
MEB105	Pseudomonas_aeruginosa_GCF_000480705_16SrRNAgene_2	94.70	1528	74	6	171	1695	1	1524	0.0	 2366
MEB105	Pseudomonas_aeruginosa_GCF_000480705_16SrRNAgene_1	94.70	1528	74	6	171	1695	1524	1	0.0	 2366
MEB105	Pseudomonas_aeruginosa_GCF_000480685_16SrRNAgene_4	94.70	1528	74	6	171	1695	1524	1	0.0	 2366
MEB105	Pseudomonas_aeruginosa_GCF_000480665_16SrRNAgene_2	94.70	1528	74	6	171	1695	1524	1	0.0	 2366
MEB105	Pseudomonas_aeruginosa_GCF_000480645_16SrRNAgene_5	94.70	1528	74	6	171	1695	1524	1	0.0	 2366
MEB105	Pseudomonas_aeruginosa_GCF_000480645_16SrRNAgene_4	94.70	1528	74	6	171	1695	1524	1	0.0	 2366
MEB105	Pseudomonas_aeruginosa_GCF_000480645_16SrRNAgene_1	94.70	1528	74	6	171	1695	1524	1	0.0	 2366
MEB105	Pseudomonas_aeruginosa_GCF_000480615_16SrRNAgene_4	94.70	1528	74	6	171	1695	1	1524	0.0	 2366
MEB105	Pseudomonas_aeruginosa_GCF_000480615_16SrRNAgene_3	94.70	1528	74	6	171	1695	1524	1	0.0	 2366
MEB105	Pseudomonas_aeruginosa_GCF_000480615_16SrRNAgene_2	94.70	1528	74	6	171	1695	1524	1	0.0	 2366
MEB105	Pseudomonas_aeruginosa_GCF_000480615_16SrRNAgene_1	94.70	1528	74	6	171	1695	1524	1	0.0	 2366
MEB105	Pseudomonas_aeruginosa_GCF_000480595_16SrRNAgene_3	94.70	1528	74	6	171	1695	1524	1	0.0	 2366
MEB105	Pseudomonas_aeruginosa_GCF_000480595_16SrRNAgene_2	94.70	1528	74	6	171	1695	1524	1	0.0	 2366
MEB105	Pseudomonas_aeruginosa_GCF_000480595_16SrRNAgene_1	94.70	1528	74	6	171	1695	1524	1	0.0	 2366
MEB105	Pseudomonas_aeruginosa_GCF_000480575_16SrRNAgene_3	94.70	1528	74	6	171	1695	1524	1	0.0	 2366
MEB105	Pseudomonas_aeruginosa_GCF_000480575_16SrRNAgene_2	94.70	1528	74	6	171	1695	1524	1	0.0	 2366
MEB105	Pseudomonas_aeruginosa_GCF_000480575_16SrRNAgene_1	94.70	1528	74	6	171	1695	1524	1	0.0	 2366
MEB105	Pseudomonas_aeruginosa_GCF_000480555_16SrRNAgene_2	94.70	1528	74	6	171	1695	1524	1	0.0	 2366
MEB105	Pseudomonas_aeruginosa_GCF_000480555_16SrRNAgene_1	94.70	1528	74	6	171	1695	1524	1	0.0	 2366
MEB105	Pseudomonas_aeruginosa_GCF_000480535_16SrRNAgene_4	94.70	1528	74	6	171	1695	1524	1	0.0	 2366
MEB105	Pseudomonas_aeruginosa_GCF_000480535_16SrRNAgene_3	94.70	1528	74	6	171	1695	1524	1	0.0	 2366
MEB105	Pseudomonas_aeruginosa_GCF_000480535_16SrRNAgene_2	94.70	1528	74	6	171	1695	1524	1	0.0	 2366
MEB105	Pseudomonas_aeruginosa_GCF_000480535_16SrRNAgene_1	94.70	1528	74	6	171	1695	1524	1	0.0	 2366
MEB105	Pseudomonas_aeruginosa_GCF_000480515_16SrRNAgene_1	94.70	1528	74	6	171	1695	1524	1	0.0	 2366
MEB105	Pseudomonas_aeruginosa_GCF_000480495_16SrRNAgene_3	94.70	1528	74	6	171	1695	1524	1	0.0	 2366
MEB105	Pseudomonas_aeruginosa_GCF_000480475_16SrRNAgene_4	94.70	1528	74	6	171	1695	1524	1	0.0	 2366
MEB105	Pseudomonas_aeruginosa_GCF_000480475_16SrRNAgene_3	94.70	1528	74	6	171	1695	1	1524	0.0	 2366
MEB105	Pseudomonas_aeruginosa_GCF_000480475_16SrRNAgene_2	94.70	1528	74	6	171	1695	1524	1	0.0	 2366
MEB105	Pseudomonas_aeruginosa_GCF_000480475_16SrRNAgene_1	94.70	1528	74	6	171	1695	1	1524	0.0	 2366
MEB105	Pseudomonas_aeruginosa_GCF_000480455_16SrRNAgene_4	94.70	1528	74	6	171	1695	1524	1	0.0	 2366
MEB105	Pseudomonas_aeruginosa_GCF_000480455_16SrRNAgene_3	94.70	1528	74	6	171	1695	1524	1	0.0	 2366
MEB105	Pseudomonas_aeruginosa_GCF_000480455_16SrRNAgene_2	94.70	1528	74	6	171	1695	1524	1	0.0	 2366
MEB105	Pseudomonas_aeruginosa_GCF_000480455_16SrRNAgene_1	94.70	1528	74	6	171	1695	1	1524	0.0	 2366
MEB105	Pseudomonas_aeruginosa_GCF_000480435_16SrRNAgene_4	94.70	1528	74	6	171	1695	1524	1	0.0	 2366
MEB105	Pseudomonas_aeruginosa_GCF_000480435_16SrRNAgene_3	94.70	1528	74	6	171	1695	1524	1	0.0	 2366
MEB105	Pseudomonas_aeruginosa_GCF_000480435_16SrRNAgene_2	94.70	1528	74	6	171	1695	1524	1	0.0	 2366
MEB105	Pseudomonas_aeruginosa_GCF_000480435_16SrRNAgene_1	94.70	1528	74	6	171	1695	1	1524	0.0	 2366
MEB105	Pseudomonas_aeruginosa_GCF_000480415_16SrRNAgene_1	94.70	1528	74	6	171	1695	1524	1	0.0	 2366
MEB105	Pseudomonas_aeruginosa_GCF_000480395_16SrRNAgene_3	94.70	1528	74	6	171	1695	1524	1	0.0	 2366
MEB105	Pseudomonas_aeruginosa_GCF_000480355_16SrRNAgene_6	94.70	1528	74	6	171	1695	1524	1	0.0	 2366
MEB105	Pseudomonas_aeruginosa_GCF_000480355_16SrRNAgene_5	94.70	1528	74	6	171	1695	1524	1	0.0	 2366
MEB105	Pseudomonas_aeruginosa_GCF_000480355_16SrRNAgene_3	94.70	1528	74	6	171	1695	1524	1	0.0	 2366
MEB105	Pseudomonas_aeruginosa_GCF_000480355_16SrRNAgene_2	94.70	1528	74	6	171	1695	1524	1	0.0	 2366
MEB105	Pseudomonas_aeruginosa_GCF_000404265_16SrRNAgene_4	94.70	1528	74	6	171	1695	1	1524	0.0	 2366
MEB105	Pseudomonas_aeruginosa_GCF_000404265_16SrRNAgene_3	94.70	1528	74	6	171	1695	1	1524	0.0	 2366
MEB105	Pseudomonas_aeruginosa_GCF_000404265_16SrRNAgene_2	94.70	1528	74	6	171	1695	1524	1	0.0	 2366
MEB105	Pseudomonas_aeruginosa_GCF_000404265_16SrRNAgene_1	94.70	1528	74	6	171	1695	1	1524	0.0	 2366
MEB105	Pseudomonas_aeruginosa_GCF_000297355_16SrRNAgene_1	94.70	1528	74	6	171	1695	1524	1	0.0	 2366
MEB105	Pseudomonas_aeruginosa_GCF_000482025_16SrRNAgene_1	94.63	1528	75	6	171	1695	1524	1	0.0	 2361
MEB105	Pseudomonas_aeruginosa_GCF_000482005_16SrRNAgene_4	94.63	1528	75	6	171	1695	1524	1	0.0	 2361
MEB105	Pseudomonas_aeruginosa_GCF_000482005_16SrRNAgene_2	94.63	1528	75	6	171	1695	1524	1	0.0	 2361
MEB105	Pseudomonas_aeruginosa_GCF_000481945_16SrRNAgene_3	94.63	1528	75	6	171	1695	1524	1	0.0	 2361
MEB105	Pseudomonas_aeruginosa_GCF_000481945_16SrRNAgene_1	94.63	1528	75	6	171	1695	1524	1	0.0	 2361
MEB105	Pseudomonas_aeruginosa_GCF_000481885_16SrRNAgene_1	94.63	1528	75	6	171	1695	1524	1	0.0	 2361
MEB105	Pseudomonas_aeruginosa_GCF_000481725_16SrRNAgene_3	94.63	1528	75	6	171	1695	1	1524	0.0	 2361
MEB105	Pseudomonas_aeruginosa_GCF_000481725_16SrRNAgene_1	94.63	1528	75	6	171	1695	1	1524	0.0	 2361
MEB105	Pseudomonas_aeruginosa_GCF_000481665_16SrRNAgene_5	94.63	1528	75	6	171	1695	1524	1	0.0	 2361
MEB105	Pseudomonas_aeruginosa_GCF_000481665_16SrRNAgene_3	94.63	1528	75	6	171	1695	1524	1	0.0	 2361
MEB105	Pseudomonas_aeruginosa_GCF_000481645_16SrRNAgene_4	94.63	1528	75	6	171	1695	1	1524	0.0	 2361
MEB105	Pseudomonas_aeruginosa_GCF_000481645_16SrRNAgene_2	94.63	1528	75	6	171	1695	1524	1	0.0	 2361
MEB105	Pseudomonas_aeruginosa_GCF_000481625_16SrRNAgene_4	94.63	1528	75	6	171	1695	1524	1	0.0	 2361
MEB105	Pseudomonas_aeruginosa_GCF_000481625_16SrRNAgene_3	94.63	1528	75	6	171	1695	1524	1	0.0	 2361
MEB105	Pseudomonas_aeruginosa_GCF_000481605_16SrRNAgene_4	94.63	1528	75	6	171	1695	1524	1	0.0	 2361
MEB105	Pseudomonas_aeruginosa_GCF_000481605_16SrRNAgene_2	94.63	1528	75	6	171	1695	1524	1	0.0	 2361
MEB105	Pseudomonas_aeruginosa_GCF_000481445_16SrRNAgene_4	94.63	1528	75	6	171	1695	1524	1	0.0	 2361
MEB105	Pseudomonas_aeruginosa_GCF_000481425_16SrRNAgene_4	94.63	1528	75	6	171	1695	1524	1	0.0	 2361
MEB105	Pseudomonas_aeruginosa_GCF_000481425_16SrRNAgene_1	94.63	1528	75	6	171	1695	1524	1	0.0	 2361
MEB105	Pseudomonas_aeruginosa_GCF_000481405_16SrRNAgene_3	94.63	1528	75	6	171	1695	1524	1	0.0	 2361
MEB105	Pseudomonas_aeruginosa_GCF_000481365_16SrRNAgene_3	94.63	1528	75	6	171	1695	1524	1	0.0	 2361
MEB105	Pseudomonas_aeruginosa_GCF_000481365_16SrRNAgene_1	94.63	1528	75	6	171	1695	1524	1	0.0	 2361
MEB105	Pseudomonas_aeruginosa_GCF_000481245_16SrRNAgene_2	94.63	1528	75	6	171	1695	1	1524	0.0	 2361
MEB105	Pseudomonas_aeruginosa_GCF_000481225_16SrRNAgene_2	94.63	1528	75	6	171	1695	1524	1	0.0	 2361
MEB105	Pseudomonas_aeruginosa_GCF_000481145_16SrRNAgene_3	94.63	1528	75	6	171	1695	1524	1	0.0	 2361
MEB105	Pseudomonas_aeruginosa_GCF_000481145_16SrRNAgene_2	94.63	1528	75	6	171	1695	1	1524	0.0	 2361
MEB105	Pseudomonas_aeruginosa_GCF_000481145_16SrRNAgene_1	94.63	1528	75	6	171	1695	1524	1	0.0	 2361
MEB105	Pseudomonas_aeruginosa_GCF_000481105_16SrRNAgene_3	94.63	1528	75	6	171	1695	1524	1	0.0	 2361
MEB105	Pseudomonas_aeruginosa_GCF_000481065_16SrRNAgene_5	94.63	1528	75	6	171	1695	1	1524	0.0	 2361
MEB105	Pseudomonas_aeruginosa_GCF_000481065_16SrRNAgene_2	94.63	1528	75	6	171	1695	1	1524	0.0	 2361
MEB105	Pseudomonas_aeruginosa_GCF_000481005_16SrRNAgene_4	94.63	1528	75	6	171	1695	1524	1	0.0	 2361
MEB105	Pseudomonas_aeruginosa_GCF_000481005_16SrRNAgene_2	94.63	1528	75	6	171	1695	1524	1	0.0	 2361
MEB105	Pseudomonas_aeruginosa_GCF_000480965_16SrRNAgene_1	94.63	1528	75	6	171	1695	1524	1	0.0	 2361
MEB105	Pseudomonas_aeruginosa_GCF_000480905_16SrRNAgene_3	94.63	1528	75	6	171	1695	1	1524	0.0	 2361
MEB105	Pseudomonas_aeruginosa_GCF_000480745_16SrRNAgene_1	94.63	1528	75	6	171	1695	1	1524	0.0	 2361
MEB105	Pseudomonas_aeruginosa_GCF_000480705_16SrRNAgene_3	94.63	1528	75	6	171	1695	1524	1	0.0	 2361
MEB105	Pseudomonas_aeruginosa_GCF_000480685_16SrRNAgene_5	94.63	1528	75	6	171	1695	1524	1	0.0	 2361
MEB105	Pseudomonas_aeruginosa_GCF_000480685_16SrRNAgene_3	94.63	1528	75	6	171	1695	1524	1	0.0	 2361
MEB105	Pseudomonas_aeruginosa_GCF_000480685_16SrRNAgene_1	94.63	1528	75	6	171	1695	1	1524	0.0	 2361
MEB105	Pseudomonas_aeruginosa_GCF_000480665_16SrRNAgene_3	94.63	1528	75	6	171	1695	1524	1	0.0	 2361
MEB105	Pseudomonas_aeruginosa_GCF_000480665_16SrRNAgene_1	94.63	1528	75	6	171	1695	1524	1	0.0	 2361
MEB105	Pseudomonas_aeruginosa_GCF_000480645_16SrRNAgene_3	94.63	1528	75	6	171	1695	1524	1	0.0	 2361
MEB105	Pseudomonas_aeruginosa_GCF_000480645_16SrRNAgene_2	94.63	1528	75	6	171	1695	1	1524	0.0	 2361
MEB105	Pseudomonas_aeruginosa_GCF_000480595_16SrRNAgene_4	94.63	1528	75	6	171	1695	1524	1	0.0	 2361
MEB105	Pseudomonas_aeruginosa_GCF_000480575_16SrRNAgene_4	94.63	1528	75	6	171	1695	1	1524	0.0	 2361
MEB105	Pseudomonas_aeruginosa_GCF_000480515_16SrRNAgene_2	94.63	1528	75	6	171	1695	1524	1	0.0	 2361
MEB105	Pseudomonas_aeruginosa_GCF_000480495_16SrRNAgene_4	94.63	1528	75	6	171	1695	1524	1	0.0	 2361
MEB105	Pseudomonas_aeruginosa_GCF_000480495_16SrRNAgene_2	94.63	1528	75	6	171	1695	1524	1	0.0	 2361
MEB105	Pseudomonas_aeruginosa_GCF_000480415_16SrRNAgene_4	94.63	1528	75	6	171	1695	1524	1	0.0	 2361
MEB105	Pseudomonas_aeruginosa_GCF_000480415_16SrRNAgene_3	94.63	1528	75	6	171	1695	1	1524	0.0	 2361
MEB105	Pseudomonas_aeruginosa_GCF_000480415_16SrRNAgene_2	94.63	1528	75	6	171	1695	1524	1	0.0	 2361
MEB105	Pseudomonas_aeruginosa_GCF_000480395_16SrRNAgene_2	94.63	1528	75	6	171	1695	1	1524	0.0	 2361
MEB105	Pseudomonas_aeruginosa_GCF_000480395_16SrRNAgene_1	94.63	1528	75	6	171	1695	1524	1	0.0	 2361
MEB105	Pseudomonas_aeruginosa_GCF_000480355_16SrRNAgene_1	94.63	1528	75	6	171	1695	1524	1	0.0	 2361
MEB105	Pseudomonas_sp__2_1_26_GCF_000233495_16SrRNAgene_1	94.57	1528	76	6	171	1695	1524	1	0.0	 2355
MEB105	Pseudomonas_aeruginosa_GCF_000481905_16SrRNAgene_3	94.57	1528	76	6	171	1695	1524	1	0.0	 2355
MEB105	Pseudomonas_aeruginosa_GCF_000481905_16SrRNAgene_2	94.57	1528	76	6	171	1695	1524	1	0.0	 2355
MEB105	Pseudomonas_aeruginosa_GCF_000481465_16SrRNAgene_3	94.57	1528	76	6	171	1695	1524	1	0.0	 2355
MEB105	Pseudomonas_aeruginosa_GCF_000481285_16SrRNAgene_2	94.57	1528	76	6	171	1695	1524	1	0.0	 2355
MEB105	Pseudomonas_aeruginosa_GCF_000481125_16SrRNAgene_2	94.50	1528	77	6	171	1695	1524	1	0.0	 2350
MEB105	Pseudomonas_sp__GM24_GCF_000282235_16SrRNAgene_1	95.92	1423	29	9	182	1600	1398	1	0.0	 2279
MEB105	Pseudomonas_aeruginosa_GCF_000481665_16SrRNAgene_4	95.14	1439	67	3	258	1695	1437	1	0.0	 2266
MEB105	Pseudomonas_aeruginosa_GCF_000481665_16SrRNAgene_1	95.14	1439	67	3	258	1695	17	1453	0.0	 2266
MEB105	Pseudomonas_aeruginosa_GCF_000480595_16SrRNAgene_5	95.03	1409	67	3	288	1695	1407	1	0.0	 2211
MEB105	Pseudomonas_aeruginosa_GCF_000480375_16SrRNAgene_4	94.96	1390	67	3	307	1695	1388	1	0.0	 2176
MEB105	Pseudomonas_aeruginosa_GCF_000480375_16SrRNAgene_3	94.96	1390	67	3	307	1695	1388	1	0.0	 2176
MEB105	Pseudomonas_aeruginosa_GCF_000480375_16SrRNAgene_2	94.96	1390	67	3	307	1695	1388	1	0.0	 2176
MEB105	Pseudomonas_aeruginosa_GCF_000480375_16SrRNAgene_1	94.96	1390	67	3	307	1695	1	1388	0.0	 2176
MEB105	Pseudomonas_aeruginosa_GCF_000481105_16SrRNAgene_5	95.47	1281	55	3	416	1695	2	1280	0.0	 2041
MEB105	Pseudomonas_aeruginosa_GCF_000480495_16SrRNAgene_1	94.52	1314	65	6	171	1481	1	1310	0.0	 2021
MEB105	Haliea_salexigens_GCF_000423125_16SrRNAgene_3	90.46	1541	136	10	165	1701	1536	3	0.0	 2021
MEB105	Pseudomonas_aeruginosa_GCF_000480355_16SrRNAgene_4	94.50	1310	65	6	171	1477	1306	1	0.0	 2013
MEB105	Pseudomonas_aeruginosa_GCF_000482025_16SrRNAgene_2	94.46	1299	65	6	171	1466	1295	1	0.0	 1993
MEB105	gamma_proteobacterium_HIMB30_GCF_000227525_16SrRNAgene_1	89.28	1549	144	17	165	1701	1541	3	0.0	 1921
MEB105	Acinetobacter_schindleri_GCF_000368625_16SrRNAgene_1	89.30	1533	149	14	171	1695	1	1526	0.0	 1908
MEB105	Acinetobacter_schindleri_GCF_000368625_16SrRNAgene_3	89.24	1533	150	14	171	1695	1526	1	0.0	 1903
MEB105	Acinetobacter_schindleri_GCF_000368625_16SrRNAgene_2	89.06	1535	149	14	171	1695	1526	1	0.0	 1886
MEB105	Acinetobacter_indicus_GCF_000488255_16SrRNAgene_5	88.99	1535	149	18	171	1695	1525	1	0.0	 1881
MEB105	Acinetobacter_indicus_GCF_000488255_16SrRNAgene_2	88.99	1535	149	18	171	1695	1525	1	0.0	 1881
MEB105	Acinetobacter_baumannii_GCF_000314635_16SrRNAgene_3	88.82	1547	151	18	165	1701	1535	1	0.0	 1879
MEB105	Acinetobacter_baumannii_GCF_000314635_16SrRNAgene_2	88.82	1547	151	18	165	1701	1535	1	0.0	 1879
MEB105	Acinetobacter_junii_GCF_000368765_16SrRNAgene_6	88.79	1535	152	16	171	1695	1525	1	0.0	 1864
MEB105	Acinetobacter_indicus_GCF_000488255_16SrRNAgene_9	88.74	1536	151	17	171	1695	1	1525	0.0	 1858
MEB105	Acinetobacter_sp__NIPH_1847_GCF_000369605_16SrRNAgene_2	88.42	1537	154	18	171	1695	1	1525	0.0	 1831
MEB105	Acinetobacter_sp__NIPH_1847_GCF_000369605_16SrRNAgene_1	88.42	1537	154	18	171	1695	1525	1	0.0	 1831
MEB105	Xanthomonas_sacchari_GCF_000225975_16SrRNAgene_1	87.77	1546	169	17	168	1699	1541	2	0.0	 1790
MEB105	Vibrio_parahaemolyticus_GCF_000430405_16SrRNAgene_1	87.47	1564	160	28	168	1705	5	1558	0.0	 1770
MEB105	Vibrio_parahaemolyticus_GCF_000732245_16SrRNAgene_1	87.40	1564	161	28	168	1705	5	1558	0.0	 1764
MEB105	Vibrio_parahaemolyticus_GCF_000430405_16SrRNAgene_9	87.40	1564	161	27	168	1705	5	1558	0.0	 1764
MEB105	Vibrio_parahaemolyticus_GCF_000430405_16SrRNAgene_6	87.40	1564	161	27	168	1705	1558	5	0.0	 1764
MEB105	Vibrio_parahaemolyticus_GCF_000430405_16SrRNAgene_5	87.40	1564	161	28	168	1705	1558	5	0.0	 1764
MEB105	Vibrio_parahaemolyticus_GCF_000430405_16SrRNAgene_4	87.40	1564	161	28	168	1705	1558	5	0.0	 1764
MEB105	Vibrio_parahaemolyticus_GCF_000430405_16SrRNAgene_2	87.40	1564	161	28	168	1705	1558	5	0.0	 1764
MEB105	Vibrio_parahaemolyticus_GCF_000430405_16SrRNAgene_10	87.40	1564	161	28	168	1705	1558	5	0.0	 1764
MEB105	Vibrio_parahaemolyticus_GCF_000430405_16SrRNAgene_8	87.43	1559	160	28	168	1700	5	1553	0.0	 1760
MEB105	Vibrio_parahaemolyticus_GCF_000430405_16SrRNAgene_7	87.43	1559	160	28	168	1700	1558	10	0.0	 1760
MEB105	Vibrio_parahaemolyticus_GCF_000454205_16SrRNAgene_7	87.42	1550	160	27	171	1695	1	1540	0.0	 1749
MEB105	Vibrio_parahaemolyticus_GCF_000477475_16SrRNAgene_9	87.41	1549	159	28	172	1694	1539	1	0.0	 1748
MEB105	Vibrio_parahaemolyticus_GCF_000454205_16SrRNAgene_10	87.41	1549	159	27	172	1694	1539	1	0.0	 1748
MEB105	Vibrio_parahaemolyticus_GCF_000430405_16SrRNAgene_12	87.23	1566	161	30	168	1705	1559	5	0.0	 1748
MEB105	Vibrio_parahaemolyticus_GCF_000477475_16SrRNAgene_7	87.36	1551	160	27	171	1695	1	1541	0.0	 1746
MEB105	Vibrio_parahaemolyticus_GCF_000477475_16SrRNAgene_6	87.36	1551	160	27	171	1695	1	1541	0.0	 1746
MEB105	Vibrio_parahaemolyticus_GCF_000477475_16SrRNAgene_5	87.36	1551	160	28	171	1695	1	1541	0.0	 1746
MEB105	Vibrio_parahaemolyticus_GCF_000477475_16SrRNAgene_3	87.37	1552	158	30	171	1695	1	1541	0.0	 1746
MEB105	Vibrio_parahaemolyticus_GCF_000477475_16SrRNAgene_13	87.36	1551	160	27	171	1695	1	1541	0.0	 1746
MEB105	Vibrio_parahaemolyticus_GCF_000477475_16SrRNAgene_12	87.36	1551	160	27	171	1695	1	1541	0.0	 1746
MEB105	Vibrio_parahaemolyticus_GCF_000477475_16SrRNAgene_11	87.36	1551	160	27	171	1695	1	1541	0.0	 1746
MEB105	Vibrio_parahaemolyticus_GCF_000454475_16SrRNAgene_13	87.36	1551	160	28	171	1695	1	1541	0.0	 1746
MEB105	Vibrio_parahaemolyticus_GCF_000454455_16SrRNAgene_8	87.36	1551	160	28	171	1695	1	1541	0.0	 1746
MEB105	Vibrio_parahaemolyticus_GCF_000454265_16SrRNAgene_8	87.36	1551	160	28	171	1695	1	1541	0.0	 1746
MEB105	Vibrio_parahaemolyticus_GCF_000454265_16SrRNAgene_6	87.36	1551	160	28	171	1695	1	1541	0.0	 1746
MEB105	Vibrio_parahaemolyticus_GCF_000454265_16SrRNAgene_1	87.36	1551	160	28	171	1695	1	1541	0.0	 1746
MEB105	Vibrio_parahaemolyticus_GCF_000454265_16SrRNAgene_10	87.36	1551	160	27	171	1695	1	1541	0.0	 1746
MEB105	Vibrio_parahaemolyticus_GCF_000454245_16SrRNAgene_8	87.36	1551	160	27	171	1695	1	1541	0.0	 1746
MEB105	Vibrio_parahaemolyticus_GCF_000454245_16SrRNAgene_7	87.36	1551	160	27	171	1695	1	1541	0.0	 1746
MEB105	Vibrio_parahaemolyticus_GCF_000454245_16SrRNAgene_6	87.36	1551	160	27	171	1695	1	1541	0.0	 1746
MEB105	Vibrio_parahaemolyticus_GCF_000454245_16SrRNAgene_5	87.36	1551	160	27	171	1695	1	1541	0.0	 1746
MEB105	Vibrio_parahaemolyticus_GCF_000454245_16SrRNAgene_12	87.36	1551	160	28	171	1695	1	1541	0.0	 1746
MEB105	Vibrio_parahaemolyticus_GCF_000454245_16SrRNAgene_11	87.36	1551	160	27	171	1695	1	1541	0.0	 1746
MEB105	Vibrio_parahaemolyticus_GCF_000454225_16SrRNAgene_7	87.36	1551	160	28	171	1695	1	1541	0.0	 1746
MEB105	Vibrio_parahaemolyticus_GCF_000454225_16SrRNAgene_4	87.36	1551	160	28	171	1695	1	1541	0.0	 1746
MEB105	Vibrio_parahaemolyticus_GCF_000454225_16SrRNAgene_3	87.36	1551	160	28	171	1695	1	1541	0.0	 1746
MEB105	Vibrio_parahaemolyticus_GCF_000454225_16SrRNAgene_10	87.36	1551	160	28	171	1695	1	1541	0.0	 1746
MEB105	Vibrio_parahaemolyticus_GCF_000454205_16SrRNAgene_8	87.36	1551	160	27	171	1695	1	1541	0.0	 1746
MEB105	Vibrio_parahaemolyticus_GCF_000454205_16SrRNAgene_4	87.36	1551	160	27	171	1695	1	1541	0.0	 1746
MEB105	Vibrio_parahaemolyticus_GCF_000454205_16SrRNAgene_3	87.36	1551	160	27	171	1695	1	1541	0.0	 1746
MEB105	Vibrio_parahaemolyticus_GCF_000454205_16SrRNAgene_12	87.36	1551	160	27	171	1695	1	1541	0.0	 1746
MEB105	Vibrio_parahaemolyticus_GCF_000454185_16SrRNAgene_3	87.36	1551	160	27	171	1695	1	1541	0.0	 1746
MEB105	Vibrio_parahaemolyticus_GCF_000454185_16SrRNAgene_2	87.36	1551	160	28	171	1695	1	1541	0.0	 1746
MEB105	Vibrio_parahaemolyticus_GCF_000454185_16SrRNAgene_10	87.36	1551	160	28	171	1695	1	1541	0.0	 1746
MEB105	Vibrio_parahaemolyticus_GCF_000454145_16SrRNAgene_7	87.36	1551	160	27	171	1695	1	1541	0.0	 1746
MEB105	Vibrio_parahaemolyticus_GCF_000454145_16SrRNAgene_4	87.36	1551	160	28	171	1695	1	1541	0.0	 1746
MEB105	Vibrio_parahaemolyticus_GCF_000454145_16SrRNAgene_1	87.36	1551	160	28	171	1695	1	1541	0.0	 1746
MEB105	Vibrio_parahaemolyticus_GCF_000454145_16SrRNAgene_12	87.36	1551	160	28	171	1695	1	1541	0.0	 1746
MEB105	Vibrio_parahaemolyticus_GCF_000454455_16SrRNAgene_12	87.36	1551	159	29	171	1695	1	1540	0.0	 1744
MEB105	Vibrio_parahaemolyticus_GCF_000454455_16SrRNAgene_10	87.36	1551	159	29	171	1695	1	1540	0.0	 1744
MEB105	Vibrio_parahaemolyticus_GCF_000454265_16SrRNAgene_3	87.36	1551	159	29	171	1695	1	1540	0.0	 1744
MEB105	Vibrio_parahaemolyticus_GCF_000454225_16SrRNAgene_8	87.36	1551	159	28	171	1695	1	1540	0.0	 1744
MEB105	Vibrio_parahaemolyticus_GCF_000477475_16SrRNAgene_10	87.35	1549	160	28	172	1694	1539	1	0.0	 1742
MEB105	Vibrio_parahaemolyticus_GCF_000454455_16SrRNAgene_7	87.35	1549	160	28	172	1694	1539	1	0.0	 1742
MEB105	Vibrio_parahaemolyticus_GCF_000454455_16SrRNAgene_6	87.35	1549	160	27	172	1694	1539	1	0.0	 1742
MEB105	Vibrio_parahaemolyticus_GCF_000454455_16SrRNAgene_2	87.35	1549	160	28	172	1694	1539	1	0.0	 1742
MEB105	Vibrio_parahaemolyticus_GCF_000454455_16SrRNAgene_1	87.35	1549	160	28	172	1694	1539	1	0.0	 1742
MEB105	Vibrio_parahaemolyticus_GCF_000454265_16SrRNAgene_5	87.35	1549	160	28	172	1694	1539	1	0.0	 1742
MEB105	Vibrio_parahaemolyticus_GCF_000454245_16SrRNAgene_4	87.35	1549	160	27	172	1694	1539	1	0.0	 1742
MEB105	Vibrio_parahaemolyticus_GCF_000454245_16SrRNAgene_2	87.35	1549	160	27	172	1694	1539	1	0.0	 1742
MEB105	Vibrio_parahaemolyticus_GCF_000454245_16SrRNAgene_10	87.35	1549	160	28	172	1694	1539	1	0.0	 1742
MEB105	Vibrio_parahaemolyticus_GCF_000454225_16SrRNAgene_6	87.35	1549	160	28	172	1694	1539	1	0.0	 1742
MEB105	Vibrio_parahaemolyticus_GCF_000454205_16SrRNAgene_5	87.35	1549	160	27	172	1694	1539	1	0.0	 1742
MEB105	Vibrio_parahaemolyticus_GCF_000454205_16SrRNAgene_1	87.35	1549	160	27	172	1694	1539	1	0.0	 1742
MEB105	Vibrio_parahaemolyticus_GCF_000454205_16SrRNAgene_15	87.35	1549	160	28	172	1694	1539	1	0.0	 1742
MEB105	Vibrio_parahaemolyticus_GCF_000454205_16SrRNAgene_14	87.35	1549	160	27	172	1694	1539	1	0.0	 1742
MEB105	Vibrio_parahaemolyticus_GCF_000454205_16SrRNAgene_11	87.35	1549	160	27	172	1694	1539	1	0.0	 1742
MEB105	Vibrio_parahaemolyticus_GCF_000454185_16SrRNAgene_5	87.35	1549	160	28	172	1694	1539	1	0.0	 1742
MEB105	Vibrio_parahaemolyticus_GCF_000454185_16SrRNAgene_14	87.35	1549	160	28	172	1694	1539	1	0.0	 1742
MEB105	Vibrio_parahaemolyticus_GCF_000454165_16SrRNAgene_7	87.35	1549	160	28	172	1694	1539	1	0.0	 1742
MEB105	Vibrio_parahaemolyticus_GCF_000454165_16SrRNAgene_4	87.35	1549	160	28	172	1694	1539	1	0.0	 1742
MEB105	Vibrio_parahaemolyticus_GCF_000454165_16SrRNAgene_14	87.35	1549	160	28	172	1694	1539	1	0.0	 1742
MEB105	Vibrio_parahaemolyticus_GCF_000454165_16SrRNAgene_13	87.35	1549	160	28	172	1694	1539	1	0.0	 1742
MEB105	Vibrio_parahaemolyticus_GCF_000454145_16SrRNAgene_9	87.35	1549	160	28	172	1694	1539	1	0.0	 1742
MEB105	Vibrio_parahaemolyticus_GCF_000454145_16SrRNAgene_11	87.35	1549	160	28	172	1694	1539	1	0.0	 1742
MEB105	Vibrio_parahaemolyticus_GCF_000477475_16SrRNAgene_8	87.29	1550	163	26	171	1695	1	1541	0.0	 1740
MEB105	Vibrio_parahaemolyticus_GCF_000454475_16SrRNAgene_4	87.30	1551	161	28	171	1695	1	1541	0.0	 1740
MEB105	Vibrio_parahaemolyticus_GCF_000454455_16SrRNAgene_9	87.30	1551	161	27	171	1695	1	1541	0.0	 1740
MEB105	Vibrio_parahaemolyticus_GCF_000454455_16SrRNAgene_13	87.30	1551	161	26	171	1695	1	1541	0.0	 1740
MEB105	Vibrio_parahaemolyticus_GCF_000454455_16SrRNAgene_11	87.30	1551	161	28	171	1695	1	1541	0.0	 1740
MEB105	Vibrio_parahaemolyticus_GCF_000454265_16SrRNAgene_9	87.30	1551	161	28	171	1695	1	1541	0.0	 1740
MEB105	Vibrio_parahaemolyticus_GCF_000454265_16SrRNAgene_7	87.30	1551	161	26	171	1695	1	1541	0.0	 1740
MEB105	Vibrio_parahaemolyticus_GCF_000454245_16SrRNAgene_13	87.30	1551	161	25	171	1695	1	1541	0.0	 1740
MEB105	Vibrio_parahaemolyticus_GCF_000454225_16SrRNAgene_9	87.30	1551	161	26	171	1695	1	1541	0.0	 1740
MEB105	Vibrio_parahaemolyticus_GCF_000454225_16SrRNAgene_2	87.30	1551	161	28	171	1695	1	1541	0.0	 1740
MEB105	Vibrio_parahaemolyticus_GCF_000454225_16SrRNAgene_1	87.30	1551	161	26	171	1695	1	1541	0.0	 1740
MEB105	Vibrio_parahaemolyticus_GCF_000454225_16SrRNAgene_11	87.35	1549	159	29	172	1694	1538	1	0.0	 1740
MEB105	Vibrio_parahaemolyticus_GCF_000454185_16SrRNAgene_8	87.30	1551	161	26	171	1695	1	1541	0.0	 1740
MEB105	Vibrio_parahaemolyticus_GCF_000454185_16SrRNAgene_12	87.30	1551	161	28	171	1695	1	1541	0.0	 1740
MEB105	Vibrio_parahaemolyticus_GCF_000454185_16SrRNAgene_11	87.30	1551	161	28	171	1695	1	1541	0.0	 1740
MEB105	Vibrio_parahaemolyticus_GCF_000454145_16SrRNAgene_8	87.30	1551	161	26	171	1695	1	1541	0.0	 1740
MEB105	Vibrio_parahaemolyticus_GCF_000454145_16SrRNAgene_5	87.30	1551	161	28	171	1695	1	1541	0.0	 1740
MEB105	Vibrio_parahaemolyticus_GCF_000454145_16SrRNAgene_2	87.30	1551	161	28	171	1695	1	1541	0.0	 1740
MEB105	Vibrio_parahaemolyticus_GCF_000454145_16SrRNAgene_10	87.30	1551	161	27	171	1695	1	1541	0.0	 1740
MEB105	Vibrio_parahaemolyticus_GCF_000454265_16SrRNAgene_11	87.30	1551	160	29	171	1695	1	1540	0.0	 1738
MEB105	Vibrio_parahaemolyticus_GCF_000454245_16SrRNAgene_3	87.34	1548	159	29	172	1694	1536	1	0.0	 1738
MEB105	Vibrio_parahaemolyticus_GCF_000454455_16SrRNAgene_5	87.28	1549	161	26	172	1694	1539	1	0.0	 1736
MEB105	Vibrio_parahaemolyticus_GCF_000454455_16SrRNAgene_4	87.28	1549	161	28	172	1694	1539	1	0.0	 1736
MEB105	Vibrio_parahaemolyticus_GCF_000454265_16SrRNAgene_4	87.28	1549	161	28	172	1694	1539	1	0.0	 1736
MEB105	Vibrio_parahaemolyticus_GCF_000454265_16SrRNAgene_2	87.28	1549	161	27	172	1694	1539	1	0.0	 1736
MEB105	Vibrio_parahaemolyticus_GCF_000454245_16SrRNAgene_9	87.28	1549	161	28	172	1694	1539	1	0.0	 1736
MEB105	Vibrio_parahaemolyticus_GCF_000454225_16SrRNAgene_5	87.28	1549	161	27	172	1694	1539	1	0.0	 1736
MEB105	Vibrio_parahaemolyticus_GCF_000454205_16SrRNAgene_9	87.28	1549	161	27	172	1694	1539	1	0.0	 1736
MEB105	Vibrio_parahaemolyticus_GCF_000454185_16SrRNAgene_9	87.28	1549	161	27	172	1694	1539	1	0.0	 1736
MEB105	Vibrio_parahaemolyticus_GCF_000454185_16SrRNAgene_6	87.28	1549	161	26	172	1694	1539	1	0.0	 1736
MEB105	Vibrio_parahaemolyticus_GCF_000454185_16SrRNAgene_1	87.29	1550	160	29	172	1694	1540	1	0.0	 1736
MEB105	Vibrio_parahaemolyticus_GCF_000454165_16SrRNAgene_8	87.27	1547	165	23	172	1694	1539	1	0.0	 1736
MEB105	Vibrio_parahaemolyticus_GCF_000454145_16SrRNAgene_13	87.28	1549	161	26	172	1694	1539	1	0.0	 1736
MEB105	Xanthomonas_translucens_GCF_000334075_16SrRNAgene_1	87.12	1545	181	14	168	1699	5	1544	0.0	 1735
MEB105	Vibrio_parahaemolyticus_GCF_000477475_16SrRNAgene_4	87.24	1552	160	29	171	1695	1	1541	0.0	 1735
MEB105	Vibrio_parahaemolyticus_GCF_000454475_16SrRNAgene_5	87.23	1551	162	28	171	1695	1	1541	0.0	 1735
MEB105	Vibrio_parahaemolyticus_GCF_000454165_16SrRNAgene_2	87.23	1551	162	28	171	1695	1	1541	0.0	 1735
MEB105	Vibrio_parahaemolyticus_GCF_000454475_16SrRNAgene_9	87.22	1549	162	28	172	1694	1539	1	0.0	 1731
MEB105	Vibrio_parahaemolyticus_GCF_000454475_16SrRNAgene_8	87.22	1549	162	29	172	1694	1539	1	0.0	 1731
MEB105	Vibrio_parahaemolyticus_GCF_000454475_16SrRNAgene_12	87.22	1549	162	28	172	1694	1539	1	0.0	 1731
MEB105	Vibrio_parahaemolyticus_GCF_000454475_16SrRNAgene_10	87.22	1549	162	29	172	1694	1539	1	0.0	 1731
